{"ResultList":[
{
"trid":1,"testlnk":0,"referencelnk":44,"mcdetaillnk":1,
"beamlnk":46,"targetlnk":29,"observablelnk":8,"secondarylnk":211,"reactionlnk":1,
"datatable":{
"dtid":1,"datatypeslnk":2,
"title":"Production of pi+ in pi- on Cu interactions at 3GeV/c, 0.05<theta<0.1 [rad]",
"npoints":0,
"nbins":[4],
"axisTitle":["momentum of pi+ [GeV/c]","Cross section [mb/(GeV/c/rad)]"],
"val":
[110, 90, 100, 130],
"errStatPlus":
[10, 10, 10, 10],
"errStatMinus":
[10, 10, 10, 10],
"errSysPlus":
[0., 0., 0., 0.],
"errSysMinus":
[0., 0., 0., 0.],
"binMin":
[0.5, 1, 1.5, 2],
"binMax":
[1, 1.5, 2, 2.5]
},
"imageblobslnk":NULL,"scoreslnk":2,"accesslnk":1,
"parnames":["theta interval for secondary particle"], "parvalues":["0.05-0.1"]
},
{
"trid":1,"testlnk":0,"referencelnk":44,"mcdetaillnk":1,
"beamlnk":46,"targetlnk":29,"observablelnk":8,"secondarylnk":211,"reactionlnk":1,
"datatable":{
"dtid":1,"datatypeslnk":2,
"title":"Production of pi+ in pi- on Cu interactions at 3GeV/c, 0.1<theta<0.15 [rad]",
"npoints":0,
"nbins":[4],
"axisTitle":["momentum of pi+ [GeV/c]","Cross section [mb/(GeV/c/rad)]"],
"val":
[190, 110, 90, 81],
"errStatPlus":
[15, 10, 10, 7],
"errStatMinus":
[15, 10, 10, 7],
"errSysPlus":
[0., 0., 0., 0.],
"errSysMinus":
[0., 0., 0., 0.],
"binMin":
[0.5, 1, 1.5, 2],
"binMax":
[1, 1.5, 2, 2.5]
},
"imageblobslnk":NULL,"scoreslnk":2,"accesslnk":1,
"parnames":["theta interval for secondary particle"], "parvalues":["0.1-0.15"]
},
{
"trid":1,"testlnk":0,"referencelnk":44,"mcdetaillnk":1,
"beamlnk":46,"targetlnk":29,"observablelnk":8,"secondarylnk":211,"reactionlnk":1,
"datatable":{
"dtid":1,"datatypeslnk":2,
"title":"Production of pi+ in pi- on Cu interactions at 3GeV/c, 0.15<theta<0.2 [rad]",
"npoints":0,
"nbins":[4],
"axisTitle":["momentum of pi+ [GeV/c]","Cross section [mb/(GeV/c/rad)]"],
"val":
[120, 110, 55, 52],
"errStatPlus":
[10, 10, 5, 5.5],
"errStatMinus":
[10, 10, 5, 5.5],
"errSysPlus":
[0., 0., 0., 0.],
"errSysMinus":
[0., 0., 0., 0.],
"binMin":
[0.5, 1, 1.5, 2],
"binMax":
[1, 1.5, 2, 2.5]
},
"imageblobslnk":NULL,"scoreslnk":2,"accesslnk":1,
"parnames":["theta interval for secondary particle"], "parvalues":["0.15-0.2"]
},
{
"trid":1,"testlnk":0,"referencelnk":44,"mcdetaillnk":1,
"beamlnk":46,"targetlnk":29,"observablelnk":8,"secondarylnk":211,"reactionlnk":1,
"datatable":{
"dtid":1,"datatypeslnk":2,
"title":"Production of pi+ in pi- on Cu interactions at 3GeV/c, 0.2<theta<0.25 [rad]",
"npoints":0,
"nbins":[4],
"axisTitle":["momentum of pi+ [GeV/c]","Cross section [mb/(GeV/c/rad)]"],
"val":
[220, 140, 70, 35],
"errStatPlus":
[20, 15, 10, 6],
"errStatMinus":
[20, 15, 10, 6],
"errSysPlus":
[0., 0., 0., 0.],
"errSysMinus":
[0., 0., 0., 0.],
"binMin":
[0.5, 1, 1.5, 2],
"binMax":
[1, 1.5, 2, 2.5]
},
"imageblobslnk":NULL,"scoreslnk":2,"accesslnk":1,
"parnames":["theta interval for secondary particle"], "parvalues":["0.2-0.25"]
},
{
"trid":1,"testlnk":0,"referencelnk":45,"mcdetaillnk":1,
"beamlnk":46,"targetlnk":29,"observablelnk":8,"secondarylnk":211,"reactionlnk":1,
"datatable":{
"dtid":1,"datatypeslnk":2,
"title":"Production of pi+ in pi- on Cu interactions at 3GeV/c, 0.35<theta<0.55 [rad]",
"npoints":0,
"nbins":[10],
"axisTitle":["momentum of pi+ [GeV/c]","Cross section [mb/(GeV/c/rad)]"],
"val":
[340, 370, 460, 500, 460, 490, 500, 490, 430, 320],
"errStatPlus":
[45, 30, 25, 20, 15, 20, 15, 15, 25, 30],
"errStatMinus":
[45, 30, 25, 20, 15, 20, 15, 15, 25, 30],
"errSysPlus":
[0., 0., 0., 0., 0., 0., 0., 0., 0., 0.],
"errSysMinus":
[0., 0., 0., 0., 0., 0., 0., 0., 0., 0.],
"binMin":
[0.15, 0.2, 0.25, 0.3, 0.35, 0.4, 0.45, 0.5, 0.6, 0.7],
"binMax":
[0.2, 0.25, 0.3, 0.35, 0.4, 0.45, 0.5, 0.6, 0.7, 0.8]
},
"imageblobslnk":NULL,"scoreslnk":2,"accesslnk":1,
"parnames":["theta interval for secondary particle"], "parvalues":["0.35-0.55"]
},
{
"trid":1,"testlnk":0,"referencelnk":45,"mcdetaillnk":1,
"beamlnk":46,"targetlnk":29,"observablelnk":8,"secondarylnk":211,"reactionlnk":1,
"datatable":{
"dtid":1,"datatypeslnk":2,
"title":"Production of pi+ in pi- on Cu interactions at 3GeV/c, 0.55<theta<0.75 [rad]",
"npoints":0,
"nbins":[11],
"axisTitle":["momentum of pi+ [GeV/c]","Cross section [mb/(GeV/c/rad)]"],
"val":
[350, 520, 530, 590, 570, 550, 500, 470, 410, 280, 180],
"errStatPlus":
[70, 35, 25, 25, 20, 15, 15, 15, 15, 20, 20],
"errStatMinus":
[70, 35, 25, 25, 20, 15, 15, 15, 15, 20, 20],
"errSysPlus":
[0., 0., 0., 0., 0., 0., 0., 0., 0., 0., 0.],
"errSysMinus":
[0., 0., 0., 0., 0., 0., 0., 0., 0., 0., 0.],
"binMin":
[0.1, 0.15, 0.2, 0.25, 0.3, 0.35, 0.4, 0.45, 0.5, 0.6, 0.7],
"binMax":
[0.15, 0.2, 0.25, 0.3, 0.35, 0.4, 0.45, 0.5, 0.6, 0.7, 0.8]
},
"imageblobslnk":NULL,"scoreslnk":2,"accesslnk":1,
"parnames":["theta interval for secondary particle"], "parvalues":["0.55-0.75"]
},
{
"trid":1,"testlnk":0,"referencelnk":45,"mcdetaillnk":1,
"beamlnk":46,"targetlnk":29,"observablelnk":8,"secondarylnk":211,"reactionlnk":1,
"datatable":{
"dtid":1,"datatypeslnk":2,
"title":"Production of pi+ in pi- on Cu interactions at 3GeV/c, 0.75<theta<0.95 [rad]",
"npoints":0,
"nbins":[10],
"axisTitle":["momentum of pi+ [GeV/c]","Cross section [mb/(GeV/c/rad)]"],
"val":
[410, 630, 600, 530, 510, 460, 380, 320, 250, 160],
"errStatPlus":
[60, 30, 30, 20, 20, 15, 10, 10, 10, 15],
"errStatMinus":
[60, 30, 30, 20, 20, 15, 10, 10, 10, 15],
"errSysPlus":
[0., 0., 0., 0., 0., 0., 0., 0., 0., 0.],
"errSysMinus":
[0., 0., 0., 0., 0., 0., 0., 0., 0., 0.],
"binMin":
[0.1, 0.15, 0.2, 0.25, 0.3, 0.35, 0.4, 0.45, 0.5, 0.6],
"binMax":
[0.15, 0.2, 0.25, 0.3, 0.35, 0.4, 0.45, 0.5, 0.6, 0.7]
},
"imageblobslnk":NULL,"scoreslnk":2,"accesslnk":1,
"parnames":["theta interval for secondary particle"], "parvalues":["0.75-0.95"]
},
{
"trid":1,"testlnk":0,"referencelnk":45,"mcdetaillnk":1,
"beamlnk":46,"targetlnk":29,"observablelnk":8,"secondarylnk":211,"reactionlnk":1,
"datatable":{
"dtid":1,"datatypeslnk":2,
"title":"Production of pi+ in pi- on Cu interactions at 3GeV/c, 0.95<theta<1.15 [rad]",
"npoints":0,
"nbins":[9],
"axisTitle":["momentum of pi+ [GeV/c]","Cross section [mb/(GeV/c/rad)]"],
"val":
[400, 650, 580, 450, 390, 310, 250, 200, 150],
"errStatPlus":
[50, 30, 20, 15, 10, 10, 5, 10, 10],
"errStatMinus":
[50, 30, 20, 15, 10, 10, 5, 10, 10],
"errSysPlus":
[0., 0., 0., 0., 0., 0., 0., 0., 0.],
"errSysMinus":
[0., 0., 0., 0., 0., 0., 0., 0., 0.],
"binMin":
[0.1, 0.15, 0.2, 0.25, 0.3, 0.35, 0.4, 0.45, 0.5],
"binMax":
[0.15, 0.2, 0.25, 0.3, 0.35, 0.4, 0.45, 0.5, 0.6]
},
"imageblobslnk":NULL,"scoreslnk":2,"accesslnk":1,
"parnames":["theta interval for secondary particle"], "parvalues":["0.95-1.15"]
},
{
"trid":1,"testlnk":0,"referencelnk":45,"mcdetaillnk":1,
"beamlnk":46,"targetlnk":29,"observablelnk":8,"secondarylnk":211,"reactionlnk":1,
"datatable":{
"dtid":1,"datatypeslnk":2,
"title":"Production of pi+ in pi- on Cu interactions at 3GeV/c, 1.15<theta<1.35 [rad]",
"npoints":0,
"nbins":[8],
"axisTitle":["momentum of pi+ [GeV/c]","Cross section [mb/(GeV/c/rad)]"],
"val":
[470, 590, 510, 380, 270, 220, 170, 140],
"errStatPlus":
[60, 30, 20, 15, 10, 10, 10, 5],
"errStatMinus":
[60, 30, 20, 15, 10, 10, 10, 5],
"errSysPlus":
[0., 0., 0., 0., 0., 0., 0., 0.],
"errSysMinus":
[0., 0., 0., 0., 0., 0., 0., 0.],
"binMin":
[0.1, 0.15, 0.2, 0.25, 0.3, 0.35, 0.4, 0.45],
"binMax":
[0.15, 0.2, 0.25, 0.3, 0.35, 0.4, 0.45, 0.5]
},
"imageblobslnk":NULL,"scoreslnk":2,"accesslnk":1,
"parnames":["theta interval for secondary particle"], "parvalues":["1.15-1.35"]
},
{
"trid":1,"testlnk":0,"referencelnk":45,"mcdetaillnk":1,
"beamlnk":46,"targetlnk":29,"observablelnk":8,"secondarylnk":211,"reactionlnk":1,
"datatable":{
"dtid":1,"datatypeslnk":2,
"title":"Production of pi+ in pi- on Cu interactions at 3GeV/c, 1.35<theta<1.55 [rad]",
"npoints":0,
"nbins":[8],
"axisTitle":["momentum of pi+ [GeV/c]","Cross section [mb/(GeV/c/rad)]"],
"val":
[490, 580, 440, 320, 230, 160, 110, 80],
"errStatPlus":
[70, 30, 20, 15, 10, 5, 5, 5],
"errStatMinus":
[70, 30, 20, 15, 10, 5, 5, 5],
"errSysPlus":
[0., 0., 0., 0., 0., 0., 0., 0.],
"errSysMinus":
[0., 0., 0., 0., 0., 0., 0., 0.],
"binMin":
[0.1, 0.15, 0.2, 0.25, 0.3, 0.35, 0.4, 0.45],
"binMax":
[0.15, 0.2, 0.25, 0.3, 0.35, 0.4, 0.45, 0.5]
},
"imageblobslnk":NULL,"scoreslnk":2,"accesslnk":1,
"parnames":["theta interval for secondary particle"], "parvalues":["1.35-1.55"]
},
{
"trid":1,"testlnk":0,"referencelnk":45,"mcdetaillnk":1,
"beamlnk":46,"targetlnk":29,"observablelnk":8,"secondarylnk":211,"reactionlnk":1,
"datatable":{
"dtid":1,"datatypeslnk":2,
"title":"Production of pi+ in pi- on Cu interactions at 3GeV/c, 1.55<theta<1.75 [rad]",
"npoints":0,
"nbins":[8],
"axisTitle":["momentum of pi+ [GeV/c]","Cross section [mb/(GeV/c/rad)]"],
"val":
[440, 520, 360, 260, 180, 130, 90, 60],
"errStatPlus":
[60, 25, 15, 10, 10, 5, 5, 5],
"errStatMinus":
[60, 25, 15, 10, 10, 5, 5, 5],
"errSysPlus":
[0., 0., 0., 0., 0., 0., 0., 0.],
"errSysMinus":
[0., 0., 0., 0., 0., 0., 0., 0.],
"binMin":
[0.1, 0.15, 0.2, 0.25, 0.3, 0.35, 0.4, 0.45],
"binMax":
[0.15, 0.2, 0.25, 0.3, 0.35, 0.4, 0.45, 0.5]
},
"imageblobslnk":NULL,"scoreslnk":2,"accesslnk":1,
"parnames":["theta interval for secondary particle"], "parvalues":["1.55-1.75"]
},
{
"trid":1,"testlnk":0,"referencelnk":45,"mcdetaillnk":1,
"beamlnk":46,"targetlnk":29,"observablelnk":8,"secondarylnk":211,"reactionlnk":1,
"datatable":{
"dtid":1,"datatypeslnk":2,
"title":"Production of pi+ in pi- on Cu interactions at 3GeV/c, 1.75<theta<1.95 [rad]",
"npoints":0,
"nbins":[8],
"axisTitle":["momentum of pi+ [GeV/c]","Cross section [mb/(GeV/c/rad)]"],
"val":
[400, 450, 270, 160, 120, 80, 50, 30],
"errStatPlus":
[40, 15, 10, 5, 5, 5, 5, 5],
"errStatMinus":
[40, 15, 10, 5, 5, 5, 5, 5],
"errSysPlus":
[0., 0., 0., 0., 0., 0., 0., 0.],
"errSysMinus":
[0., 0., 0., 0., 0., 0., 0., 0.],
"binMin":
[0.1, 0.15, 0.2, 0.25, 0.3, 0.35, 0.4, 0.45],
"binMax":
[0.15, 0.2, 0.25, 0.3, 0.35, 0.4, 0.45, 0.5]
},
"imageblobslnk":NULL,"scoreslnk":2,"accesslnk":1,
"parnames":["theta interval for secondary particle"], "parvalues":["1.75-1.95"]
},
{
"trid":1,"testlnk":0,"referencelnk":45,"mcdetaillnk":1,
"beamlnk":46,"targetlnk":29,"observablelnk":8,"secondarylnk":211,"reactionlnk":1,
"datatable":{
"dtid":1,"datatypeslnk":2,
"title":"Production of pi+ in pi- on Cu interactions at 3GeV/c, 1.95<theta<2.15 [rad]",
"npoints":0,
"nbins":[8],
"axisTitle":["momentum of pi+ [GeV/c]","Cross section [mb/(GeV/c/rad)]"],
"val":
[340, 340, 200, 120, 60, 50, 40, 30],
"errStatPlus":
[30, 10, 10, 5, 5, 5, 5, 5],
"errStatMinus":
[30, 10, 10, 5, 5, 5, 5, 5],
"errSysPlus":
[0., 0., 0., 0., 0., 0., 0., 0.],
"errSysMinus":
[0., 0., 0., 0., 0., 0., 0., 0.],
"binMin":
[0.1, 0.15, 0.2, 0.25, 0.3, 0.35, 0.4, 0.45],
"binMax":
[0.15, 0.2, 0.25, 0.3, 0.35, 0.4, 0.45, 0.5]
},
"imageblobslnk":NULL,"scoreslnk":2,"accesslnk":1,
"parnames":["theta interval for secondary particle"], "parvalues":["1.95-2.15"]
},
{
"trid":1,"testlnk":0,"referencelnk":44,"mcdetaillnk":1,
"beamlnk":47,"targetlnk":29,"observablelnk":8,"secondarylnk":211,"reactionlnk":1,
"datatable":{
"dtid":1,"datatypeslnk":2,
"title":"Production of pi+ in pi- on Cu interactions at 5GeV/c, 0.05<theta<0.1 [rad]",
"npoints":0,
"nbins":[8],
"axisTitle":["momentum of pi+ [GeV/c]","Cross section [mb/(GeV/c/rad)]"],
"val":
[240, 260, 200, 160, 130, 110, 130, 60],
"errStatPlus":
[15, 15, 10, 10, 10, 10, 10, 10],
"errStatMinus":
[15, 15, 10, 10, 10, 10, 10, 10],
"errSysPlus":
[0., 0., 0., 0., 0., 0., 0., 0.],
"errSysMinus":
[0., 0., 0., 0., 0., 0., 0., 0.],
"binMin":
[0.5, 1, 1.5, 2, 2.5, 3, 3.5, 4],
"binMax":
[1, 1.5, 2, 2.5, 3, 3.5, 4, 5]
},
"imageblobslnk":NULL,"scoreslnk":2,"accesslnk":1,
"parnames":["theta interval for secondary particle"], "parvalues":["0.05-0.1"]
},
{
"trid":1,"testlnk":0,"referencelnk":44,"mcdetaillnk":1,
"beamlnk":47,"targetlnk":29,"observablelnk":8,"secondarylnk":211,"reactionlnk":1,
"datatable":{
"dtid":1,"datatypeslnk":2,
"title":"Production of pi+ in pi- on Cu interactions at 5GeV/c, 0.1<theta<0.15 [rad]",
"npoints":0,
"nbins":[8],
"axisTitle":["momentum of pi+ [GeV/c]","Cross section [mb/(GeV/c/rad)]"],
"val":
[350, 270, 210, 150, 95, 73, 40, 10],
"errStatPlus":
[20, 15, 10, 10, 7, 6.5, 4, 3],
"errStatMinus":
[20, 15, 10, 10, 7, 6.5, 4, 3],
"errSysPlus":
[0., 0., 0., 0., 0., 0., 0., 0.],
"errSysMinus":
[0., 0., 0., 0., 0., 0., 0., 0.],
"binMin":
[0.5, 1, 1.5, 2, 2.5, 3, 3.5, 4],
"binMax":
[1, 1.5, 2, 2.5, 3, 3.5, 4, 5]
},
"imageblobslnk":NULL,"scoreslnk":2,"accesslnk":1,
"parnames":["theta interval for secondary particle"], "parvalues":["0.1-0.15"]
},
{
"trid":1,"testlnk":0,"referencelnk":44,"mcdetaillnk":1,
"beamlnk":47,"targetlnk":29,"observablelnk":8,"secondarylnk":211,"reactionlnk":1,
"datatable":{
"dtid":1,"datatypeslnk":2,
"title":"Production of pi+ in pi- on Cu interactions at 5GeV/c, 0.15<theta<0.2 [rad]",
"npoints":0,
"nbins":[8],
"axisTitle":["momentum of pi+ [GeV/c]","Cross section [mb/(GeV/c/rad)]"],
"val":
[320, 220, 130, 130, 51, 28, 5, 270],
"errStatPlus":
[20, 15, 10, 10, 5.5, 3.5, 2, 20],
"errStatMinus":
[20, 15, 10, 10, 5.5, 3.5, 2, 20],
"errSysPlus":
[0., 0., 0., 0., 0., 0., 0., 0.],
"errSysMinus":
[0., 0., 0., 0., 0., 0., 0., 0.],
"binMin":
[0.5, 1, 1.5, 2, 2.5, 3, 3.5, 0.5],
"binMax":
[1, 1.5, 2, 2.5, 3, 3.5, 4, 1]
},
"imageblobslnk":NULL,"scoreslnk":2,"accesslnk":1,
"parnames":["theta interval for secondary particle"], "parvalues":["0.15-0.2"]
},
{
"trid":1,"testlnk":0,"referencelnk":44,"mcdetaillnk":1,
"beamlnk":47,"targetlnk":29,"observablelnk":8,"secondarylnk":211,"reactionlnk":1,
"datatable":{
"dtid":1,"datatypeslnk":2,
"title":"Production of pi+ in pi- on Cu interactions at 5GeV/c, 0.2<theta<0.25 [rad]",
"npoints":0,
"nbins":[8],
"axisTitle":["momentum of pi+ [GeV/c]","Cross section [mb/(GeV/c/rad)]"],
"val":
[260, 170, 90, 39, 3, 3, 3, 3],
"errStatPlus":
[20, 15, 10, 5.5, 1, 1, 1, 1],
"errStatMinus":
[20, 15, 10, 5.5, 1, 1, 1, 1],
"errSysPlus":
[0., 0., 0., 0., 0., 0., 0., 0.],
"errSysMinus":
[0., 0., 0., 0., 0., 0., 0., 0.],
"binMin":
[1, 1.5, 2, 2.5, 3, 3, 3, 3],
"binMax":
[1.5, 2, 2.5, 3, 3.5, 3.5, 3.5, 3.5]
},
"imageblobslnk":NULL,"scoreslnk":2,"accesslnk":1,
"parnames":["theta interval for secondary particle"], "parvalues":["0.2-0.25"]
},
{
"trid":1,"testlnk":0,"referencelnk":45,"mcdetaillnk":1,
"beamlnk":47,"targetlnk":29,"observablelnk":8,"secondarylnk":211,"reactionlnk":1,
"datatable":{
"dtid":1,"datatypeslnk":2,
"title":"Production of pi+ in pi- on Cu interactions at 5GeV/c, 0.35<theta<0.55 [rad]",
"npoints":0,
"nbins":[10],
"axisTitle":["momentum of pi+ [GeV/c]","Cross section [mb/(GeV/c/rad)]"],
"val":
[600, 650, 810, 850, 720, 760, 790, 780, 720, 580],
"errStatPlus":
[80, 50, 40, 30, 25, 30, 25, 25, 35, 45],
"errStatMinus":
[80, 50, 40, 30, 25, 30, 25, 25, 35, 45],
"errSysPlus":
[0., 0., 0., 0., 0., 0., 0., 0., 0., 0.],
"errSysMinus":
[0., 0., 0., 0., 0., 0., 0., 0., 0., 0.],
"binMin":
[0.15, 0.2, 0.25, 0.3, 0.35, 0.4, 0.45, 0.5, 0.6, 0.7],
"binMax":
[0.2, 0.25, 0.3, 0.35, 0.4, 0.45, 0.5, 0.6, 0.7, 0.8]
},
"imageblobslnk":NULL,"scoreslnk":2,"accesslnk":1,
"parnames":["theta interval for secondary particle"], "parvalues":["0.35-0.55"]
},
{
"trid":1,"testlnk":0,"referencelnk":45,"mcdetaillnk":1,
"beamlnk":47,"targetlnk":29,"observablelnk":8,"secondarylnk":211,"reactionlnk":1,
"datatable":{
"dtid":1,"datatypeslnk":2,
"title":"Production of pi+ in pi- on Cu interactions at 5GeV/c, 0.55<theta<0.75 [rad]",
"npoints":0,
"nbins":[11],
"axisTitle":["momentum of pi+ [GeV/c]","Cross section [mb/(GeV/c/rad)]"],
"val":
[510, 730, 810, 820, 820, 780, 710, 700, 660, 490, 330],
"errStatPlus":
[100, 50, 45, 30, 25, 20, 20, 20, 25, 35, 35],
"errStatMinus":
[100, 50, 45, 30, 25, 20, 20, 20, 25, 35, 35],
"errSysPlus":
[0., 0., 0., 0., 0., 0., 0., 0., 0., 0., 0.],
"errSysMinus":
[0., 0., 0., 0., 0., 0., 0., 0., 0., 0., 0.],
"binMin":
[0.1, 0.15, 0.2, 0.25, 0.3, 0.35, 0.4, 0.45, 0.5, 0.6, 0.7],
"binMax":
[0.15, 0.2, 0.25, 0.3, 0.35, 0.4, 0.45, 0.5, 0.6, 0.7, 0.8]
},
"imageblobslnk":NULL,"scoreslnk":2,"accesslnk":1,
"parnames":["theta interval for secondary particle"], "parvalues":["0.55-0.75"]
},
{
"trid":1,"testlnk":0,"referencelnk":45,"mcdetaillnk":1,
"beamlnk":47,"targetlnk":29,"observablelnk":8,"secondarylnk":211,"reactionlnk":1,
"datatable":{
"dtid":1,"datatypeslnk":2,
"title":"Production of pi+ in pi- on Cu interactions at 5GeV/c, 0.75<theta<0.95 [rad]",
"npoints":0,
"nbins":[10],
"axisTitle":["momentum of pi+ [GeV/c]","Cross section [mb/(GeV/c/rad)]"],
"val":
[570, 820, 840, 740, 640, 580, 550, 500, 380, 250],
"errStatPlus":
[75, 35, 40, 25, 20, 15, 15, 15, 20, 20],
"errStatMinus":
[75, 35, 40, 25, 20, 15, 15, 15, 20, 20],
"errSysPlus":
[0., 0., 0., 0., 0., 0., 0., 0., 0., 0.],
"errSysMinus":
[0., 0., 0., 0., 0., 0., 0., 0., 0., 0.],
"binMin":
[0.1, 0.15, 0.2, 0.25, 0.3, 0.35, 0.4, 0.45, 0.5, 0.6],
"binMax":
[0.15, 0.2, 0.25, 0.3, 0.35, 0.4, 0.45, 0.5, 0.6, 0.7]
},
"imageblobslnk":NULL,"scoreslnk":2,"accesslnk":1,
"parnames":["theta interval for secondary particle"], "parvalues":["0.75-0.95"]
},
{
"trid":1,"testlnk":0,"referencelnk":45,"mcdetaillnk":1,
"beamlnk":47,"targetlnk":29,"observablelnk":8,"secondarylnk":211,"reactionlnk":1,
"datatable":{
"dtid":1,"datatypeslnk":2,
"title":"Production of pi+ in pi- on Cu interactions at 5GeV/c, 0.95<theta<1.15 [rad]",
"npoints":0,
"nbins":[9],
"axisTitle":["momentum of pi+ [GeV/c]","Cross section [mb/(GeV/c/rad)]"],
"val":
[550, 730, 720, 630, 530, 440, 370, 290, 180],
"errStatPlus":
[60, 35, 30, 20, 15, 15, 15, 10, 10],
"errStatMinus":
[60, 35, 30, 20, 15, 15, 15, 10, 10],
"errSysPlus":
[0., 0., 0., 0., 0., 0., 0., 0., 0.],
"errSysMinus":
[0., 0., 0., 0., 0., 0., 0., 0., 0.],
"binMin":
[0.1, 0.15, 0.2, 0.25, 0.3, 0.35, 0.4, 0.45, 0.5],
"binMax":
[0.15, 0.2, 0.25, 0.3, 0.35, 0.4, 0.45, 0.5, 0.6]
},
"imageblobslnk":NULL,"scoreslnk":2,"accesslnk":1,
"parnames":["theta interval for secondary particle"], "parvalues":["0.95-1.15"]
},
{
"trid":1,"testlnk":0,"referencelnk":45,"mcdetaillnk":1,
"beamlnk":47,"targetlnk":29,"observablelnk":8,"secondarylnk":211,"reactionlnk":1,
"datatable":{
"dtid":1,"datatypeslnk":2,
"title":"Production of pi+ in pi- on Cu interactions at 5GeV/c, 1.15<theta<1.35 [rad]",
"npoints":0,
"nbins":[8],
"axisTitle":["momentum of pi+ [GeV/c]","Cross section [mb/(GeV/c/rad)]"],
"val":
[520, 720, 590, 480, 410, 330, 240, 170],
"errStatPlus":
[60, 35, 20, 20, 15, 10, 10, 10],
"errStatMinus":
[60, 35, 20, 20, 15, 10, 10, 10],
"errSysPlus":
[0., 0., 0., 0., 0., 0., 0., 0.],
"errSysMinus":
[0., 0., 0., 0., 0., 0., 0., 0.],
"binMin":
[0.1, 0.15, 0.2, 0.25, 0.3, 0.35, 0.4, 0.45],
"binMax":
[0.15, 0.2, 0.25, 0.3, 0.35, 0.4, 0.45, 0.5]
},
"imageblobslnk":NULL,"scoreslnk":2,"accesslnk":1,
"parnames":["theta interval for secondary particle"], "parvalues":["1.15-1.35"]
},
{
"trid":1,"testlnk":0,"referencelnk":45,"mcdetaillnk":1,
"beamlnk":47,"targetlnk":29,"observablelnk":8,"secondarylnk":211,"reactionlnk":1,
"datatable":{
"dtid":1,"datatypeslnk":2,
"title":"Production of pi+ in pi- on Cu interactions at 5GeV/c, 1.35<theta<1.55 [rad]",
"npoints":0,
"nbins":[8],
"axisTitle":["momentum of pi+ [GeV/c]","Cross section [mb/(GeV/c/rad)]"],
"val":
[550, 660, 520, 370, 280, 210, 160, 110],
"errStatPlus":
[70, 35, 20, 15, 10, 5, 5, 5],
"errStatMinus":
[70, 35, 20, 15, 10, 5, 5, 5],
"errSysPlus":
[0., 0., 0., 0., 0., 0., 0., 0.],
"errSysMinus":
[0., 0., 0., 0., 0., 0., 0., 0.],
"binMin":
[0.1, 0.15, 0.2, 0.25, 0.3, 0.35, 0.4, 0.45],
"binMax":
[0.15, 0.2, 0.25, 0.3, 0.35, 0.4, 0.45, 0.5]
},
"imageblobslnk":NULL,"scoreslnk":2,"accesslnk":1,
"parnames":["theta interval for secondary particle"], "parvalues":["1.35-1.55"]
},
{
"trid":1,"testlnk":0,"referencelnk":45,"mcdetaillnk":1,
"beamlnk":47,"targetlnk":29,"observablelnk":8,"secondarylnk":211,"reactionlnk":1,
"datatable":{
"dtid":1,"datatypeslnk":2,
"title":"Production of pi+ in pi- on Cu interactions at 5GeV/c, 1.55<theta<1.75 [rad]",
"npoints":0,
"nbins":[8],
"axisTitle":["momentum of pi+ [GeV/c]","Cross section [mb/(GeV/c/rad)]"],
"val":
[500, 620, 440, 280, 210, 150, 100, 70],
"errStatPlus":
[65, 30, 15, 10, 10, 5, 5, 5],
"errStatMinus":
[65, 30, 15, 10, 10, 5, 5, 5],
"errSysPlus":
[0., 0., 0., 0., 0., 0., 0., 0.],
"errSysMinus":
[0., 0., 0., 0., 0., 0., 0., 0.],
"binMin":
[0.1, 0.15, 0.2, 0.25, 0.3, 0.35, 0.4, 0.45],
"binMax":
[0.15, 0.2, 0.25, 0.3, 0.35, 0.4, 0.45, 0.5]
},
"imageblobslnk":NULL,"scoreslnk":2,"accesslnk":1,
"parnames":["theta interval for secondary particle"], "parvalues":["1.55-1.75"]
},
{
"trid":1,"testlnk":0,"referencelnk":45,"mcdetaillnk":1,
"beamlnk":47,"targetlnk":29,"observablelnk":8,"secondarylnk":211,"reactionlnk":1,
"datatable":{
"dtid":1,"datatypeslnk":2,
"title":"Production of pi+ in pi- on Cu interactions at 5GeV/c, 1.75<theta<1.95 [rad]",
"npoints":0,
"nbins":[8],
"axisTitle":["momentum of pi+ [GeV/c]","Cross section [mb/(GeV/c/rad)]"],
"val":
[470, 480, 320, 210, 140, 90, 60, 40],
"errStatPlus":
[45, 20, 10, 10, 5, 5, 5, 5],
"errStatMinus":
[45, 20, 10, 10, 5, 5, 5, 5],
"errSysPlus":
[0., 0., 0., 0., 0., 0., 0., 0.],
"errSysMinus":
[0., 0., 0., 0., 0., 0., 0., 0.],
"binMin":
[0.1, 0.15, 0.2, 0.25, 0.3, 0.35, 0.4, 0.45],
"binMax":
[0.15, 0.2, 0.25, 0.3, 0.35, 0.4, 0.45, 0.5]
},
"imageblobslnk":NULL,"scoreslnk":2,"accesslnk":1,
"parnames":["theta interval for secondary particle"], "parvalues":["1.75-1.95"]
},
{
"trid":1,"testlnk":0,"referencelnk":45,"mcdetaillnk":1,
"beamlnk":47,"targetlnk":29,"observablelnk":8,"secondarylnk":211,"reactionlnk":1,
"datatable":{
"dtid":1,"datatypeslnk":2,
"title":"Production of pi+ in pi- on Cu interactions at 5GeV/c, 1.95<theta<2.15 [rad]",
"npoints":0,
"nbins":[8],
"axisTitle":["momentum of pi+ [GeV/c]","Cross section [mb/(GeV/c/rad)]"],
"val":
[390, 380, 250, 160, 100, 60, 40, 20],
"errStatPlus":
[35, 15, 10, 5, 5, 5, 5, 5],
"errStatMinus":
[35, 15, 10, 5, 5, 5, 5, 5],
"errSysPlus":
[0., 0., 0., 0., 0., 0., 0., 0.],
"errSysMinus":
[0., 0., 0., 0., 0., 0., 0., 0.],
"binMin":
[0.1, 0.15, 0.2, 0.25, 0.3, 0.35, 0.4, 0.45],
"binMax":
[0.15, 0.2, 0.25, 0.3, 0.35, 0.4, 0.45, 0.5]
},
"imageblobslnk":NULL,"scoreslnk":2,"accesslnk":1,
"parnames":["theta interval for secondary particle"], "parvalues":["1.95-2.15"]
},
{
"trid":1,"testlnk":0,"referencelnk":44,"mcdetaillnk":1,
"beamlnk":48,"targetlnk":29,"observablelnk":8,"secondarylnk":211,"reactionlnk":1,
"datatable":{
"dtid":1,"datatypeslnk":2,
"title":"Production of pi+ in pi- on Cu interactions at 8GeV/c, 0.05<theta<0.1 [rad]",
"npoints":0,
"nbins":[10],
"axisTitle":["momentum of pi+ [GeV/c]","Cross section [mb/(GeV/c/rad)]"],
"val":
[630, 620, 530, 390, 270, 290, 190, 143, 66, -1000],
"errStatPlus":
[30, 20, 15, 15, 15, 15, 15, 7, 5, -500],
"errStatMinus":
[30, 20, 15, 15, 15, 15, 15, 7, 5, -500],
"errSysPlus":
[0., 0., 0., 0., 0., 0., 0., 0., 0., 0.],
"errSysMinus":
[0., 0., 0., 0., 0., 0., 0., 0., 0., 0.],
"binMin":
[0.5, 1, 1.5, 2, 2.5, 3, 3.5, 4, 5, 6.5],
"binMax":
[1, 1.5, 2, 2.5, 3, 3.5, 4, 5, 6.5, 8]
},
"imageblobslnk":NULL,"scoreslnk":2,"accesslnk":1,
"parnames":["theta interval for secondary particle"], "parvalues":["0.05-0.1"]
},
{
"trid":1,"testlnk":0,"referencelnk":44,"mcdetaillnk":1,
"beamlnk":48,"targetlnk":29,"observablelnk":8,"secondarylnk":211,"reactionlnk":1,
"datatable":{
"dtid":1,"datatypeslnk":2,
"title":"Production of pi+ in pi- on Cu interactions at 8GeV/c, 0.1<theta<0.15 [rad]",
"npoints":0,
"nbins":[10],
"axisTitle":["momentum of pi+ [GeV/c]","Cross section [mb/(GeV/c/rad)]"],
"val":
[700, 550, 450, 370, 270, 150, 110, 51, 10, -1000],
"errStatPlus":
[35, 25, 20, 15, 15, 10, 10, 5, 1.5, -500],
"errStatMinus":
[35, 25, 20, 15, 15, 10, 10, 5, 1.5, -500],
"errSysPlus":
[0., 0., 0., 0., 0., 0., 0., 0., 0., 0.],
"errSysMinus":
[0., 0., 0., 0., 0., 0., 0., 0., 0., 0.],
"binMin":
[0.5, 1, 1.5, 2, 2.5, 3, 3.5, 4, 5, 6.5],
"binMax":
[1, 1.5, 2, 2.5, 3, 3.5, 4, 5, 6.5, 8]
},
"imageblobslnk":NULL,"scoreslnk":2,"accesslnk":1,
"parnames":["theta interval for secondary particle"], "parvalues":["0.1-0.15"]
},
{
"trid":1,"testlnk":0,"referencelnk":44,"mcdetaillnk":1,
"beamlnk":48,"targetlnk":29,"observablelnk":8,"secondarylnk":211,"reactionlnk":1,
"datatable":{
"dtid":1,"datatypeslnk":2,
"title":"Production of pi+ in pi- on Cu interactions at 8GeV/c, 0.15<theta<0.2 [rad]",
"npoints":0,
"nbins":[10],
"axisTitle":["momentum of pi+ [GeV/c]","Cross section [mb/(GeV/c/rad)]"],
"val":
[700, 450, 360, 290, 120, 67, 50, 21, 2, -1000],
"errStatPlus":
[35, 20, 15, 15, 10, 6, 4.5, 2.5, 0.5, -500],
"errStatMinus":
[35, 20, 15, 15, 10, 6, 4.5, 2.5, 0.5, -500],
"errSysPlus":
[0., 0., 0., 0., 0., 0., 0., 0., 0., 0.],
"errSysMinus":
[0., 0., 0., 0., 0., 0., 0., 0., 0., 0.],
"binMin":
[0.5, 1, 1.5, 2, 2.5, 3, 3.5, 4, 5, 6.5],
"binMax":
[1, 1.5, 2, 2.5, 3, 3.5, 4, 5, 6.5, 8]
},
"imageblobslnk":NULL,"scoreslnk":2,"accesslnk":1,
"parnames":["theta interval for secondary particle"], "parvalues":["0.15-0.2"]
},
{
"trid":1,"testlnk":0,"referencelnk":44,"mcdetaillnk":1,
"beamlnk":48,"targetlnk":29,"observablelnk":8,"secondarylnk":211,"reactionlnk":1,
"datatable":{
"dtid":1,"datatypeslnk":2,
"title":"Production of pi+ in pi- on Cu interactions at 8GeV/c, 0.2<theta<0.25 [rad]",
"npoints":0,
"nbins":[10],
"axisTitle":["momentum of pi+ [GeV/c]","Cross section [mb/(GeV/c/rad)]"],
"val":
[510, 710, 460, 270, 110, 28, 11, 5, -1000, -1000],
"errStatPlus":
[35, 40, 30, 20, 10, 5, 3, 1.5, -500, -500],
"errStatMinus":
[35, 40, 30, 20, 10, 5, 3, 1.5, -500, -500],
"errSysPlus":
[0., 0., 0., 0., 0., 0., 0., 0., 0., 0.],
"errSysMinus":
[0., 0., 0., 0., 0., 0., 0., 0., 0., 0.],
"binMin":
[0.5, 1, 1.5, 2, 2.5, 3, 3.5, 4, 5, 6.5],
"binMax":
[1, 1.5, 2, 2.5, 3, 3.5, 4, 5, 6.5, 8]
},
"imageblobslnk":NULL,"scoreslnk":2,"accesslnk":1,
"parnames":["theta interval for secondary particle"], "parvalues":["0.2-0.25"]
},
{
"trid":1,"testlnk":0,"referencelnk":45,"mcdetaillnk":1,
"beamlnk":48,"targetlnk":29,"observablelnk":8,"secondarylnk":211,"reactionlnk":1,
"datatable":{
"dtid":1,"datatypeslnk":2,
"title":"Production of pi+ in pi- on Cu interactions at 8GeV/c, 0.35<theta<0.55 [rad]",
"npoints":0,
"nbins":[10],
"axisTitle":["momentum of pi+ [GeV/c]","Cross section [mb/(GeV/c/rad)]"],
"val":
[530, 700, 900, 920, 910, 930, 990, 1050, 1070, 940],
"errStatPlus":
[85, 60, 45, 30, 35, 30, 30, 35, 50, 65],
"errStatMinus":
[85, 60, 45, 30, 35, 30, 30, 35, 50, 65],
"errSysPlus":
[0., 0., 0., 0., 0., 0., 0., 0., 0., 0.],
"errSysMinus":
[0., 0., 0., 0., 0., 0., 0., 0., 0., 0.],
"binMin":
[0.15, 0.2, 0.25, 0.3, 0.35, 0.4, 0.45, 0.5, 0.6, 0.7],
"binMax":
[0.2, 0.25, 0.3, 0.35, 0.4, 0.45, 0.5, 0.6, 0.7, 0.8]
},
"imageblobslnk":NULL,"scoreslnk":2,"accesslnk":1,
"parnames":["theta interval for secondary particle"], "parvalues":["0.35-0.55"]
},
{
"trid":1,"testlnk":0,"referencelnk":45,"mcdetaillnk":1,
"beamlnk":48,"targetlnk":29,"observablelnk":8,"secondarylnk":211,"reactionlnk":1,
"datatable":{
"dtid":1,"datatypeslnk":2,
"title":"Production of pi+ in pi- on Cu interactions at 8GeV/c, 0.55<theta<0.75 [rad]",
"npoints":0,
"nbins":[11],
"axisTitle":["momentum of pi+ [GeV/c]","Cross section [mb/(GeV/c/rad)]"],
"val":
[320, 640, 800, 950, 900, 830, 840, 850, 800, 600, 410],
"errStatPlus":
[95, 50, 50, 35, 25, 20, 25, 25, 30, 40, 40],
"errStatMinus":
[95, 50, 50, 35, 25, 20, 25, 25, 30, 40, 40],
"errSysPlus":
[0., 0., 0., 0., 0., 0., 0., 0., 0., 0., 0.],
"errSysMinus":
[0., 0., 0., 0., 0., 0., 0., 0., 0., 0., 0.],
"binMin":
[0.1, 0.15, 0.2, 0.25, 0.3, 0.35, 0.4, 0.45, 0.5, 0.6, 0.7],
"binMax":
[0.15, 0.2, 0.25, 0.3, 0.35, 0.4, 0.45, 0.5, 0.6, 0.7, 0.8]
},
"imageblobslnk":NULL,"scoreslnk":2,"accesslnk":1,
"parnames":["theta interval for secondary particle"], "parvalues":["0.55-0.75"]
},
{
"trid":1,"testlnk":0,"referencelnk":45,"mcdetaillnk":1,
"beamlnk":48,"targetlnk":29,"observablelnk":8,"secondarylnk":211,"reactionlnk":1,
"datatable":{
"dtid":1,"datatypeslnk":2,
"title":"Production of pi+ in pi- on Cu interactions at 8GeV/c, 0.75<theta<0.95 [rad]",
"npoints":0,
"nbins":[10],
"axisTitle":["momentum of pi+ [GeV/c]","Cross section [mb/(GeV/c/rad)]"],
"val":
[370, 740, 850, 800, 750, 660, 590, 540, 430, 290],
"errStatPlus":
[75, 40, 40, 25, 20, 15, 15, 15, 20, 20],
"errStatMinus":
[75, 40, 40, 25, 20, 15, 15, 15, 20, 20],
"errSysPlus":
[0., 0., 0., 0., 0., 0., 0., 0., 0., 0.],
"errSysMinus":
[0., 0., 0., 0., 0., 0., 0., 0., 0., 0.],
"binMin":
[0.1, 0.15, 0.2, 0.25, 0.3, 0.35, 0.4, 0.45, 0.5, 0.6],
"binMax":
[0.15, 0.2, 0.25, 0.3, 0.35, 0.4, 0.45, 0.5, 0.6, 0.7]
},
"imageblobslnk":NULL,"scoreslnk":2,"accesslnk":1,
"parnames":["theta interval for secondary particle"], "parvalues":["0.75-0.95"]
},
{
"trid":1,"testlnk":0,"referencelnk":45,"mcdetaillnk":1,
"beamlnk":48,"targetlnk":29,"observablelnk":8,"secondarylnk":211,"reactionlnk":1,
"datatable":{
"dtid":1,"datatypeslnk":2,
"title":"Production of pi+ in pi- on Cu interactions at 8GeV/c, 0.95<theta<1.15 [rad]",
"npoints":0,
"nbins":[9],
"axisTitle":["momentum of pi+ [GeV/c]","Cross section [mb/(GeV/c/rad)]"],
"val":
[390, 770, 770, 630, 560, 470, 400, 330, 230],
"errStatPlus":
[50, 40, 30, 20, 15, 10, 10, 10, 10],
"errStatMinus":
[50, 40, 30, 20, 15, 10, 10, 10, 10],
"errSysPlus":
[0., 0., 0., 0., 0., 0., 0., 0., 0.],
"errSysMinus":
[0., 0., 0., 0., 0., 0., 0., 0., 0.],
"binMin":
[0.1, 0.15, 0.2, 0.25, 0.3, 0.35, 0.4, 0.45, 0.5],
"binMax":
[0.15, 0.2, 0.25, 0.3, 0.35, 0.4, 0.45, 0.5, 0.6]
},
"imageblobslnk":NULL,"scoreslnk":2,"accesslnk":1,
"parnames":["theta interval for secondary particle"], "parvalues":["0.95-1.15"]
},
{
"trid":1,"testlnk":0,"referencelnk":45,"mcdetaillnk":1,
"beamlnk":48,"targetlnk":29,"observablelnk":8,"secondarylnk":211,"reactionlnk":1,
"datatable":{
"dtid":1,"datatypeslnk":2,
"title":"Production of pi+ in pi- on Cu interactions at 8GeV/c, 1.15<theta<1.35 [rad]",
"npoints":0,
"nbins":[8],
"axisTitle":["momentum of pi+ [GeV/c]","Cross section [mb/(GeV/c/rad)]"],
"val":
[440, 660, 600, 520, 430, 340, 250, 180],
"errStatPlus":
[55, 40, 25, 15, 10, 10, 10, 10],
"errStatMinus":
[55, 40, 25, 15, 10, 10, 10, 10],
"errSysPlus":
[0., 0., 0., 0., 0., 0., 0., 0.],
"errSysMinus":
[0., 0., 0., 0., 0., 0., 0., 0.],
"binMin":
[0.1, 0.15, 0.2, 0.25, 0.3, 0.35, 0.4, 0.45],
"binMax":
[0.15, 0.2, 0.25, 0.3, 0.35, 0.4, 0.45, 0.5]
},
"imageblobslnk":NULL,"scoreslnk":2,"accesslnk":1,
"parnames":["theta interval for secondary particle"], "parvalues":["1.15-1.35"]
},
{
"trid":1,"testlnk":0,"referencelnk":45,"mcdetaillnk":1,
"beamlnk":48,"targetlnk":29,"observablelnk":8,"secondarylnk":211,"reactionlnk":1,
"datatable":{
"dtid":1,"datatypeslnk":2,
"title":"Production of pi+ in pi- on Cu interactions at 8GeV/c, 1.35<theta<1.55 [rad]",
"npoints":0,
"nbins":[8],
"axisTitle":["momentum of pi+ [GeV/c]","Cross section [mb/(GeV/c/rad)]"],
"val":
[540, 600, 560, 360, 270, 210, 150, 100],
"errStatPlus":
[65, 35, 20, 15, 10, 5, 5, 5],
"errStatMinus":
[65, 35, 20, 15, 10, 5, 5, 5],
"errSysPlus":
[0., 0., 0., 0., 0., 0., 0., 0.],
"errSysMinus":
[0., 0., 0., 0., 0., 0., 0., 0.],
"binMin":
[0.1, 0.15, 0.2, 0.25, 0.3, 0.35, 0.4, 0.45],
"binMax":
[0.15, 0.2, 0.25, 0.3, 0.35, 0.4, 0.45, 0.5]
},
"imageblobslnk":NULL,"scoreslnk":2,"accesslnk":1,
"parnames":["theta interval for secondary particle"], "parvalues":["1.35-1.55"]
},
{
"trid":1,"testlnk":0,"referencelnk":45,"mcdetaillnk":1,
"beamlnk":48,"targetlnk":29,"observablelnk":8,"secondarylnk":211,"reactionlnk":1,
"datatable":{
"dtid":1,"datatypeslnk":2,
"title":"Production of pi+ in pi- on Cu interactions at 8GeV/c, 1.55<theta<1.75 [rad]",
"npoints":0,
"nbins":[8],
"axisTitle":["momentum of pi+ [GeV/c]","Cross section [mb/(GeV/c/rad)]"],
"val":
[490, 490, 440, 280, 210, 140, 100, 70],
"errStatPlus":
[60, 25, 15, 10, 5, 5, 5, 5],
"errStatMinus":
[60, 25, 15, 10, 5, 5, 5, 5],
"errSysPlus":
[0., 0., 0., 0., 0., 0., 0., 0.],
"errSysMinus":
[0., 0., 0., 0., 0., 0., 0., 0.],
"binMin":
[0.1, 0.15, 0.2, 0.25, 0.3, 0.35, 0.4, 0.45],
"binMax":
[0.15, 0.2, 0.25, 0.3, 0.35, 0.4, 0.45, 0.5]
},
"imageblobslnk":NULL,"scoreslnk":2,"accesslnk":1,
"parnames":["theta interval for secondary particle"], "parvalues":["1.55-1.75"]
},
{
"trid":1,"testlnk":0,"referencelnk":45,"mcdetaillnk":1,
"beamlnk":48,"targetlnk":29,"observablelnk":8,"secondarylnk":211,"reactionlnk":1,
"datatable":{
"dtid":1,"datatypeslnk":2,
"title":"Production of pi+ in pi- on Cu interactions at 8GeV/c, 1.75<theta<1.95 [rad]",
"npoints":0,
"nbins":[8],
"axisTitle":["momentum of pi+ [GeV/c]","Cross section [mb/(GeV/c/rad)]"],
"val":
[480, 440, 320, 210, 160, 110, 60, 40],
"errStatPlus":
[45, 15, 10, 5, 5, 5, 5, 5],
"errStatMinus":
[45, 15, 10, 5, 5, 5, 5, 5],
"errSysPlus":
[0., 0., 0., 0., 0., 0., 0., 0.],
"errSysMinus":
[0., 0., 0., 0., 0., 0., 0., 0.],
"binMin":
[0.1, 0.15, 0.2, 0.25, 0.3, 0.35, 0.4, 0.45],
"binMax":
[0.15, 0.2, 0.25, 0.3, 0.35, 0.4, 0.45, 0.5]
},
"imageblobslnk":NULL,"scoreslnk":2,"accesslnk":1,
"parnames":["theta interval for secondary particle"], "parvalues":["1.75-1.95"]
},
{
"trid":1,"testlnk":0,"referencelnk":45,"mcdetaillnk":1,
"beamlnk":48,"targetlnk":29,"observablelnk":8,"secondarylnk":211,"reactionlnk":1,
"datatable":{
"dtid":1,"datatypeslnk":2,
"title":"Production of pi+ in pi- on Cu interactions at 8GeV/c, 1.95<theta<2.15 [rad]",
"npoints":0,
"nbins":[8],
"axisTitle":["momentum of pi+ [GeV/c]","Cross section [mb/(GeV/c/rad)]"],
"val":
[350, 350, 220, 130, 90, 60, 40, 20],
"errStatPlus":
[25, 10, 10, 5, 5, 5, 5, 5],
"errStatMinus":
[25, 10, 10, 5, 5, 5, 5, 5],
"errSysPlus":
[0., 0., 0., 0., 0., 0., 0., 0.],
"errSysMinus":
[0., 0., 0., 0., 0., 0., 0., 0.],
"binMin":
[0.1, 0.15, 0.2, 0.25, 0.3, 0.35, 0.4, 0.45],
"binMax":
[0.15, 0.2, 0.25, 0.3, 0.35, 0.4, 0.45, 0.5]
},
"imageblobslnk":NULL,"scoreslnk":2,"accesslnk":1,
"parnames":["theta interval for secondary particle"], "parvalues":["1.95-2.15"]
},
{
"trid":1,"testlnk":0,"referencelnk":44,"mcdetaillnk":1,
"beamlnk":49,"targetlnk":29,"observablelnk":8,"secondarylnk":211,"reactionlnk":1,
"datatable":{
"dtid":1,"datatypeslnk":2,
"title":"Production of pi+ in pi- on Cu interactions at 12GeV/c, 0.05<theta<0.1 [rad]",
"npoints":0,
"nbins":[10],
"axisTitle":["momentum of pi+ [GeV/c]","Cross section [mb/(GeV/c/rad)]"],
"val":
[700, 790, 690, 690, 540, 530, 400, 260, 124, 62],
"errStatPlus":
[40, 35, 30, 25, 20, 20, 20, 10, 7, 4],
"errStatMinus":
[40, 35, 30, 25, 20, 20, 20, 10, 7, 4],
"errSysPlus":
[0., 0., 0., 0., 0., 0., 0., 0., 0., 0.],
"errSysMinus":
[0., 0., 0., 0., 0., 0., 0., 0., 0., 0.],
"binMin":
[0.5, 1, 1.5, 2, 2.5, 3, 3.5, 4, 5, 6.5],
"binMax":
[1, 1.5, 2, 2.5, 3, 3.5, 4, 5, 6.5, 8]
},
"imageblobslnk":NULL,"scoreslnk":2,"accesslnk":1,
"parnames":["theta interval for secondary particle"], "parvalues":["0.05-0.1"]
},
{
"trid":1,"testlnk":0,"referencelnk":44,"mcdetaillnk":1,
"beamlnk":49,"targetlnk":29,"observablelnk":8,"secondarylnk":211,"reactionlnk":1,
"datatable":{
"dtid":1,"datatypeslnk":2,
"title":"Production of pi+ in pi- on Cu interactions at 12GeV/c, 0.1<theta<0.15 [rad]",
"npoints":0,
"nbins":[10],
"axisTitle":["momentum of pi+ [GeV/c]","Cross section [mb/(GeV/c/rad)]"],
"val":
[910, 790, 690, 540, 420, 410, 250, 130, 43, 6],
"errStatPlus":
[50, 40, 35, 30, 25, 20, 15, 10, 4, 1],
"errStatMinus":
[50, 40, 35, 30, 25, 20, 15, 10, 4, 1],
"errSysPlus":
[0., 0., 0., 0., 0., 0., 0., 0., 0., 0.],
"errSysMinus":
[0., 0., 0., 0., 0., 0., 0., 0., 0., 0.],
"binMin":
[0.5, 1, 1.5, 2, 2.5, 3, 3.5, 4, 5, 6.5],
"binMax":
[1, 1.5, 2, 2.5, 3, 3.5, 4, 5, 6.5, 8]
},
"imageblobslnk":NULL,"scoreslnk":2,"accesslnk":1,
"parnames":["theta interval for secondary particle"], "parvalues":["0.1-0.15"]
},
{
"trid":1,"testlnk":0,"referencelnk":44,"mcdetaillnk":1,
"beamlnk":49,"targetlnk":29,"observablelnk":8,"secondarylnk":211,"reactionlnk":1,
"datatable":{
"dtid":1,"datatypeslnk":2,
"title":"Production of pi+ in pi- on Cu interactions at 12GeV/c, 0.15<theta<0.2 [rad]",
"npoints":0,
"nbins":[10],
"axisTitle":["momentum of pi+ [GeV/c]","Cross section [mb/(GeV/c/rad)]"],
"val":
[950, 570, 460, 390, 270, 160, 68, 45, 6, 0],
"errStatPlus":
[55, 30, 25, 25, 20, 10, 7.5, 5, 1.5, 0.5],
"errStatMinus":
[55, 30, 25, 25, 20, 10, 7.5, 5, 1.5, 0.5],
"errSysPlus":
[0., 0., 0., 0., 0., 0., 0., 0., 0., 0.],
"errSysMinus":
[0., 0., 0., 0., 0., 0., 0., 0., 0., 0.],
"binMin":
[0.5, 1, 1.5, 2, 2.5, 3, 3.5, 4, 5, 6.5],
"binMax":
[1, 1.5, 2, 2.5, 3, 3.5, 4, 5, 6.5, 8]
},
"imageblobslnk":NULL,"scoreslnk":2,"accesslnk":1,
"parnames":["theta interval for secondary particle"], "parvalues":["0.15-0.2"]
},
{
"trid":1,"testlnk":0,"referencelnk":44,"mcdetaillnk":1,
"beamlnk":49,"targetlnk":29,"observablelnk":8,"secondarylnk":211,"reactionlnk":1,
"datatable":{
"dtid":1,"datatypeslnk":2,
"title":"Production of pi+ in pi- on Cu interactions at 12GeV/c, 0.2<theta<0.25 [rad]",
"npoints":0,
"nbins":[10],
"axisTitle":["momentum of pi+ [GeV/c]","Cross section [mb/(GeV/c/rad)]"],
"val":
[760, 720, 650, 350, 180, 60, 28, 8, 0, 0],
"errStatPlus":
[55, 50, 50, 30, 20, 10, 6.5, 4.5, 0.5, 4.5],
"errStatMinus":
[55, 50, 50, 30, 20, 10, 6.5, 4.5, 0.5, 4.5],
"errSysPlus":
[0., 0., 0., 0., 0., 0., 0., 0., 0., 0.],
"errSysMinus":
[0., 0., 0., 0., 0., 0., 0., 0., 0., 0.],
"binMin":
[0.5, 1, 1.5, 2, 2.5, 3, 3.5, 4, 5, 6.5],
"binMax":
[1, 1.5, 2, 2.5, 3, 3.5, 4, 5, 6.5, 8]
},
"imageblobslnk":NULL,"scoreslnk":2,"accesslnk":1,
"parnames":["theta interval for secondary particle"], "parvalues":["0.2-0.25"]
},
{
"trid":1,"testlnk":0,"referencelnk":45,"mcdetaillnk":1,
"beamlnk":49,"targetlnk":29,"observablelnk":8,"secondarylnk":211,"reactionlnk":1,
"datatable":{
"dtid":1,"datatypeslnk":2,
"title":"Production of pi+ in pi- on Cu interactions at 12GeV/c, 0.35<theta<0.55 [rad]",
"npoints":0,
"nbins":[10],
"axisTitle":["momentum of pi+ [GeV/c]","Cross section [mb/(GeV/c/rad)]"],
"val":
[670, 890, 1220, 1100, 1200, 1250, 1160, 1210, 1190, 1270],
"errStatPlus":
[120, 80, 65, 45, 50, 45, 45, 45, 65, 70],
"errStatMinus":
[120, 80, 65, 45, 50, 45, 45, 45, 65, 70],
"errSysPlus":
[0., 0., 0., 0., 0., 0., 0., 0., 0., 0.],
"errSysMinus":
[0., 0., 0., 0., 0., 0., 0., 0., 0., 0.],
"binMin":
[0.15, 0.2, 0.25, 0.3, 0.35, 0.4, 0.45, 0.5, 0.6, 0.7],
"binMax":
[0.2, 0.25, 0.3, 0.35, 0.4, 0.45, 0.5, 0.6, 0.7, 0.8]
},
"imageblobslnk":NULL,"scoreslnk":2,"accesslnk":1,
"parnames":["theta interval for secondary particle"], "parvalues":["0.35-0.55"]
},
{
"trid":1,"testlnk":0,"referencelnk":45,"mcdetaillnk":1,
"beamlnk":49,"targetlnk":29,"observablelnk":8,"secondarylnk":211,"reactionlnk":1,
"datatable":{
"dtid":1,"datatypeslnk":2,
"title":"Production of pi+ in pi- on Cu interactions at 12GeV/c, 0.55<theta<0.75 [rad]",
"npoints":0,
"nbins":[11],
"axisTitle":["momentum of pi+ [GeV/c]","Cross section [mb/(GeV/c/rad)]"],
"val":
[360, 710, 1130, 1090, 1080, 1020, 1060, 1070, 910, 640, 520],
"errStatPlus":
[105, 80, 70, 50, 35, 35, 35, 30, 35, 45, 45],
"errStatMinus":
[105, 80, 70, 50, 35, 35, 35, 30, 35, 45, 45],
"errSysPlus":
[0., 0., 0., 0., 0., 0., 0., 0., 0., 0., 0.],
"errSysMinus":
[0., 0., 0., 0., 0., 0., 0., 0., 0., 0., 0.],
"binMin":
[0.1, 0.15, 0.2, 0.25, 0.3, 0.35, 0.4, 0.45, 0.5, 0.6, 0.7],
"binMax":
[0.15, 0.2, 0.25, 0.3, 0.35, 0.4, 0.45, 0.5, 0.6, 0.7, 0.8]
},
"imageblobslnk":NULL,"scoreslnk":2,"accesslnk":1,
"parnames":["theta interval for secondary particle"], "parvalues":["0.55-0.75"]
},
{
"trid":1,"testlnk":0,"referencelnk":45,"mcdetaillnk":1,
"beamlnk":49,"targetlnk":29,"observablelnk":8,"secondarylnk":211,"reactionlnk":1,
"datatable":{
"dtid":1,"datatypeslnk":2,
"title":"Production of pi+ in pi- on Cu interactions at 12GeV/c, 0.75<theta<0.95 [rad]",
"npoints":0,
"nbins":[10],
"axisTitle":["momentum of pi+ [GeV/c]","Cross section [mb/(GeV/c/rad)]"],
"val":
[350, 720, 910, 1020, 900, 840, 830, 670, 390, 260],
"errStatPlus":
[75, 50, 50, 40, 30, 25, 25, 25, 20, 15],
"errStatMinus":
[75, 50, 50, 40, 30, 25, 25, 25, 20, 15],
"errSysPlus":
[0., 0., 0., 0., 0., 0., 0., 0., 0., 0.],
"errSysMinus":
[0., 0., 0., 0., 0., 0., 0., 0., 0., 0.],
"binMin":
[0.1, 0.15, 0.2, 0.25, 0.3, 0.35, 0.4, 0.45, 0.5, 0.6],
"binMax":
[0.15, 0.2, 0.25, 0.3, 0.35, 0.4, 0.45, 0.5, 0.6, 0.7]
},
"imageblobslnk":NULL,"scoreslnk":2,"accesslnk":1,
"parnames":["theta interval for secondary particle"], "parvalues":["0.75-0.95"]
},
{
"trid":1,"testlnk":0,"referencelnk":45,"mcdetaillnk":1,
"beamlnk":49,"targetlnk":29,"observablelnk":8,"secondarylnk":211,"reactionlnk":1,
"datatable":{
"dtid":1,"datatypeslnk":2,
"title":"Production of pi+ in pi- on Cu interactions at 12GeV/c, 0.95<theta<1.15 [rad]",
"npoints":0,
"nbins":[9],
"axisTitle":["momentum of pi+ [GeV/c]","Cross section [mb/(GeV/c/rad)]"],
"val":
[320, 790, 880, 810, 630, 590, 480, 330, 220],
"errStatPlus":
[45, 50, 50, 35, 20, 20, 20, 20, 10],
"errStatMinus":
[45, 50, 50, 35, 20, 20, 20, 20, 10],
"errSysPlus":
[0., 0., 0., 0., 0., 0., 0., 0., 0.],
"errSysMinus":
[0., 0., 0., 0., 0., 0., 0., 0., 0.],
"binMin":
[0.1, 0.15, 0.2, 0.25, 0.3, 0.35, 0.4, 0.45, 0.5],
"binMax":
[0.15, 0.2, 0.25, 0.3, 0.35, 0.4, 0.45, 0.5, 0.6]
},
"imageblobslnk":NULL,"scoreslnk":2,"accesslnk":1,
"parnames":["theta interval for secondary particle"], "parvalues":["0.95-1.15"]
},
{
"trid":1,"testlnk":0,"referencelnk":45,"mcdetaillnk":1,
"beamlnk":49,"targetlnk":29,"observablelnk":8,"secondarylnk":211,"reactionlnk":1,
"datatable":{
"dtid":1,"datatypeslnk":2,
"title":"Production of pi+ in pi- on Cu interactions at 12GeV/c, 1.15<theta<1.35 [rad]",
"npoints":0,
"nbins":[8],
"axisTitle":["momentum of pi+ [GeV/c]","Cross section [mb/(GeV/c/rad)]"],
"val":
[390, 700, 770, 580, 450, 410, 220, 170],
"errStatPlus":
[45, 40, 30, 20, 20, 15, 10, 10],
"errStatMinus":
[45, 40, 30, 20, 20, 15, 10, 10],
"errSysPlus":
[0., 0., 0., 0., 0., 0., 0., 0.],
"errSysMinus":
[0., 0., 0., 0., 0., 0., 0., 0.],
"binMin":
[0.1, 0.15, 0.2, 0.25, 0.3, 0.35, 0.4, 0.45],
"binMax":
[0.15, 0.2, 0.25, 0.3, 0.35, 0.4, 0.45, 0.5]
},
"imageblobslnk":NULL,"scoreslnk":2,"accesslnk":1,
"parnames":["theta interval for secondary particle"], "parvalues":["1.15-1.35"]
},
{
"trid":1,"testlnk":0,"referencelnk":45,"mcdetaillnk":1,
"beamlnk":49,"targetlnk":29,"observablelnk":8,"secondarylnk":211,"reactionlnk":1,
"datatable":{
"dtid":1,"datatypeslnk":2,
"title":"Production of pi+ in pi- on Cu interactions at 12GeV/c, 1.35<theta<1.55 [rad]",
"npoints":0,
"nbins":[8],
"axisTitle":["momentum of pi+ [GeV/c]","Cross section [mb/(GeV/c/rad)]"],
"val":
[510, 700, 570, 410, 270, 220, 160, 90],
"errStatPlus":
[70, 45, 25, 15, 10, 15, 10, 10],
"errStatMinus":
[70, 45, 25, 15, 10, 15, 10, 10],
"errSysPlus":
[0., 0., 0., 0., 0., 0., 0., 0.],
"errSysMinus":
[0., 0., 0., 0., 0., 0., 0., 0.],
"binMin":
[0.1, 0.15, 0.2, 0.25, 0.3, 0.35, 0.4, 0.45],
"binMax":
[0.15, 0.2, 0.25, 0.3, 0.35, 0.4, 0.45, 0.5]
},
"imageblobslnk":NULL,"scoreslnk":2,"accesslnk":1,
"parnames":["theta interval for secondary particle"], "parvalues":["1.35-1.55"]
},
{
"trid":1,"testlnk":0,"referencelnk":45,"mcdetaillnk":1,
"beamlnk":49,"targetlnk":29,"observablelnk":8,"secondarylnk":211,"reactionlnk":1,
"datatable":{
"dtid":1,"datatypeslnk":2,
"title":"Production of pi+ in pi- on Cu interactions at 12GeV/c, 1.55<theta<1.75 [rad]",
"npoints":0,
"nbins":[8],
"axisTitle":["momentum of pi+ [GeV/c]","Cross section [mb/(GeV/c/rad)]"],
"val":
[470, 600, 550, 310, 210, 130, 110, 50],
"errStatPlus":
[55, 35, 30, 10, 10, 5, 5, 5],
"errStatMinus":
[55, 35, 30, 10, 10, 5, 5, 5],
"errSysPlus":
[0., 0., 0., 0., 0., 0., 0., 0.],
"errSysMinus":
[0., 0., 0., 0., 0., 0., 0., 0.],
"binMin":
[0.1, 0.15, 0.2, 0.25, 0.3, 0.35, 0.4, 0.45],
"binMax":
[0.15, 0.2, 0.25, 0.3, 0.35, 0.4, 0.45, 0.5]
},
"imageblobslnk":NULL,"scoreslnk":2,"accesslnk":1,
"parnames":["theta interval for secondary particle"], "parvalues":["1.55-1.75"]
},
{
"trid":1,"testlnk":0,"referencelnk":45,"mcdetaillnk":1,
"beamlnk":49,"targetlnk":29,"observablelnk":8,"secondarylnk":211,"reactionlnk":1,
"datatable":{
"dtid":1,"datatypeslnk":2,
"title":"Production of pi+ in pi- on Cu interactions at 12GeV/c, 1.75<theta<1.95 [rad]",
"npoints":0,
"nbins":[8],
"axisTitle":["momentum of pi+ [GeV/c]","Cross section [mb/(GeV/c/rad)]"],
"val":
[400, 440, 340, 200, 130, 70, 50, 20],
"errStatPlus":
[40, 20, 15, 10, 10, 5, 5, 5],
"errStatMinus":
[40, 20, 15, 10, 10, 5, 5, 5],
"errSysPlus":
[0., 0., 0., 0., 0., 0., 0., 0.],
"errSysMinus":
[0., 0., 0., 0., 0., 0., 0., 0.],
"binMin":
[0.1, 0.15, 0.2, 0.25, 0.3, 0.35, 0.4, 0.45],
"binMax":
[0.15, 0.2, 0.25, 0.3, 0.35, 0.4, 0.45, 0.5]
},
"imageblobslnk":NULL,"scoreslnk":2,"accesslnk":1,
"parnames":["theta interval for secondary particle"], "parvalues":["1.75-1.95"]
},
{
"trid":1,"testlnk":0,"referencelnk":45,"mcdetaillnk":1,
"beamlnk":49,"targetlnk":29,"observablelnk":8,"secondarylnk":211,"reactionlnk":1,
"datatable":{
"dtid":1,"datatypeslnk":2,
"title":"Production of pi+ in pi- on Cu interactions at 12GeV/c, 1.95<theta<2.15 [rad]",
"npoints":0,
"nbins":[8],
"axisTitle":["momentum of pi+ [GeV/c]","Cross section [mb/(GeV/c/rad)]"],
"val":
[320, 350, 230, 120, 80, 40, 20, 10],
"errStatPlus":
[40, 20, 15, 10, 5, 5, 5, 5],
"errStatMinus":
[40, 20, 15, 10, 5, 5, 5, 5],
"errSysPlus":
[0., 0., 0., 0., 0., 0., 0., 0.],
"errSysMinus":
[0., 0., 0., 0., 0., 0., 0., 0.],
"binMin":
[0.1, 0.15, 0.2, 0.25, 0.3, 0.35, 0.4, 0.45],
"binMax":
[0.15, 0.2, 0.25, 0.3, 0.35, 0.4, 0.45, 0.5]
},
"imageblobslnk":NULL,"scoreslnk":2,"accesslnk":1,
"parnames":["theta interval for secondary particle"], "parvalues":["1.95-2.15"]
},
{
"trid":1,"testlnk":0,"referencelnk":44,"mcdetaillnk":1,
"beamlnk":46,"targetlnk":29,"observablelnk":8,"secondarylnk":-211,"reactionlnk":1,
"datatable":{
"dtid":1,"datatypeslnk":2,
"title":"Production of pi- in pi- on Cu interactions at 3GeV/c, 0.05<theta<0.1 [rad]",
"npoints":0,
"nbins":[4],
"axisTitle":["momentum of pi- [GeV/c]","Cross section [mb/(GeV/c/rad)]"],
"val":
[240, 210, 260, 150],
"errStatPlus":
[15, 15, 15, 20],
"errStatMinus":
[15, 15, 15, 20],
"errSysPlus":
[0., 0., 0., 0.],
"errSysMinus":
[0., 0., 0., 0.],
"binMin":
[0.5, 1, 1.5, 2],
"binMax":
[1, 1.5, 2, 2.5]
},
"imageblobslnk":NULL,"scoreslnk":2,"accesslnk":1,
"parnames":["theta interval for secondary particle"], "parvalues":["0.05-0.1"]
},
{
"trid":1,"testlnk":0,"referencelnk":44,"mcdetaillnk":1,
"beamlnk":46,"targetlnk":29,"observablelnk":8,"secondarylnk":-211,"reactionlnk":1,
"datatable":{
"dtid":1,"datatypeslnk":2,
"title":"Production of pi- in pi- on Cu interactions at 3GeV/c, 0.1<theta<0.15 [rad]",
"npoints":0,
"nbins":[4],
"axisTitle":["momentum of pi- [GeV/c]","Cross section [mb/(GeV/c/rad)]"],
"val":
[330, 240, 260, 220],
"errStatPlus":
[20, 15, 15, 20],
"errStatMinus":
[20, 15, 15, 20],
"errSysPlus":
[0., 0., 0., 0.],
"errSysMinus":
[0., 0., 0., 0.],
"binMin":
[0.5, 1, 1.5, 2],
"binMax":
[1, 1.5, 2, 2.5]
},
"imageblobslnk":NULL,"scoreslnk":2,"accesslnk":1,
"parnames":["theta interval for secondary particle"], "parvalues":["0.1-0.15"]
},
{
"trid":1,"testlnk":0,"referencelnk":44,"mcdetaillnk":1,
"beamlnk":46,"targetlnk":29,"observablelnk":8,"secondarylnk":-211,"reactionlnk":1,
"datatable":{
"dtid":1,"datatypeslnk":2,
"title":"Production of pi- in pi- on Cu interactions at 3GeV/c, 0.15<theta<0.2 [rad]",
"npoints":0,
"nbins":[4],
"axisTitle":["momentum of pi- [GeV/c]","Cross section [mb/(GeV/c/rad)]"],
"val":
[220, 210, 150, 170],
"errStatPlus":
[20, 15, 10, 10],
"errStatMinus":
[20, 15, 10, 10],
"errSysPlus":
[0., 0., 0., 0.],
"errSysMinus":
[0., 0., 0., 0.],
"binMin":
[0.5, 1, 1.5, 2],
"binMax":
[1, 1.5, 2, 2.5]
},
"imageblobslnk":NULL,"scoreslnk":2,"accesslnk":1,
"parnames":["theta interval for secondary particle"], "parvalues":["0.15-0.2"]
},
{
"trid":1,"testlnk":0,"referencelnk":44,"mcdetaillnk":1,
"beamlnk":46,"targetlnk":29,"observablelnk":8,"secondarylnk":-211,"reactionlnk":1,
"datatable":{
"dtid":1,"datatypeslnk":2,
"title":"Production of pi- in pi- on Cu interactions at 3GeV/c, 0.2<theta<0.25 [rad]",
"npoints":0,
"nbins":[4],
"axisTitle":["momentum of pi- [GeV/c]","Cross section [mb/(GeV/c/rad)]"],
"val":
[170, 110, 110, 56],
"errStatPlus":
[15, 10, 10, 5.5],
"errStatMinus":
[15, 10, 10, 5.5],
"errSysPlus":
[0., 0., 0., 0.],
"errSysMinus":
[0., 0., 0., 0.],
"binMin":
[0.5, 1, 1.5, 2],
"binMax":
[1, 1.5, 2, 2.5]
},
"imageblobslnk":NULL,"scoreslnk":2,"accesslnk":1,
"parnames":["theta interval for secondary particle"], "parvalues":["0.2-0.25"]
},
{
"trid":1,"testlnk":0,"referencelnk":45,"mcdetaillnk":1,
"beamlnk":46,"targetlnk":29,"observablelnk":8,"secondarylnk":-211,"reactionlnk":1,
"datatable":{
"dtid":1,"datatypeslnk":2,
"title":"Production of pi- in pi- on Cu interactions at 3GeV/c, 0.35<theta<0.55 [rad]",
"npoints":0,
"nbins":[10],
"axisTitle":["momentum of pi- [GeV/c]","Cross section [mb/(GeV/c/rad)]"],
"val":
[560, 600, 690, 650, 610, 650, 660, 650, 610, 530],
"errStatPlus":
[55, 35, 30, 25, 20, 25, 20, 20, 25, 35],
"errStatMinus":
[55, 35, 30, 25, 20, 25, 20, 20, 25, 35],
"errSysPlus":
[0., 0., 0., 0., 0., 0., 0., 0., 0., 0.],
"errSysMinus":
[0., 0., 0., 0., 0., 0., 0., 0., 0., 0.],
"binMin":
[0.15, 0.2, 0.25, 0.3, 0.35, 0.4, 0.45, 0.5, 0.6, 0.7],
"binMax":
[0.2, 0.25, 0.3, 0.35, 0.4, 0.45, 0.5, 0.6, 0.7, 0.8]
},
"imageblobslnk":NULL,"scoreslnk":2,"accesslnk":1,
"parnames":["theta interval for secondary particle"], "parvalues":["0.35-0.55"]
},
{
"trid":1,"testlnk":0,"referencelnk":45,"mcdetaillnk":1,
"beamlnk":46,"targetlnk":29,"observablelnk":8,"secondarylnk":-211,"reactionlnk":1,
"datatable":{
"dtid":1,"datatypeslnk":2,
"title":"Production of pi- in pi- on Cu interactions at 3GeV/c, 0.55<theta<0.75 [rad]",
"npoints":0,
"nbins":[11],
"axisTitle":["momentum of pi- [GeV/c]","Cross section [mb/(GeV/c/rad)]"],
"val":
[600, 750, 810, 850, 760, 680, 670, 620, 560, 490, 420],
"errStatPlus":
[85, 40, 35, 30, 25, 20, 20, 15, 15, 20, 30],
"errStatMinus":
[85, 40, 35, 30, 25, 20, 20, 15, 15, 20, 30],
"errSysPlus":
[0., 0., 0., 0., 0., 0., 0., 0., 0., 0., 0.],
"errSysMinus":
[0., 0., 0., 0., 0., 0., 0., 0., 0., 0., 0.],
"binMin":
[0.1, 0.15, 0.2, 0.25, 0.3, 0.35, 0.4, 0.45, 0.5, 0.6, 0.7],
"binMax":
[0.15, 0.2, 0.25, 0.3, 0.35, 0.4, 0.45, 0.5, 0.6, 0.7, 0.8]
},
"imageblobslnk":NULL,"scoreslnk":2,"accesslnk":1,
"parnames":["theta interval for secondary particle"], "parvalues":["0.55-0.75"]
},
{
"trid":1,"testlnk":0,"referencelnk":45,"mcdetaillnk":1,
"beamlnk":46,"targetlnk":29,"observablelnk":8,"secondarylnk":-211,"reactionlnk":1,
"datatable":{
"dtid":1,"datatypeslnk":2,
"title":"Production of pi- in pi- on Cu interactions at 3GeV/c, 0.75<theta<0.95 [rad]",
"npoints":0,
"nbins":[10],
"axisTitle":["momentum of pi- [GeV/c]","Cross section [mb/(GeV/c/rad)]"],
"val":
[750, 950, 850, 750, 640, 580, 550, 490, 430, 350],
"errStatPlus":
[80, 40, 30, 25, 20, 15, 15, 10, 15, 20],
"errStatMinus":
[80, 40, 30, 25, 20, 15, 15, 10, 15, 20],
"errSysPlus":
[0., 0., 0., 0., 0., 0., 0., 0., 0., 0.],
"errSysMinus":
[0., 0., 0., 0., 0., 0., 0., 0., 0., 0.],
"binMin":
[0.1, 0.15, 0.2, 0.25, 0.3, 0.35, 0.4, 0.45, 0.5, 0.6],
"binMax":
[0.15, 0.2, 0.25, 0.3, 0.35, 0.4, 0.45, 0.5, 0.6, 0.7]
},
"imageblobslnk":NULL,"scoreslnk":2,"accesslnk":1,
"parnames":["theta interval for secondary particle"], "parvalues":["0.75-0.95"]
},
{
"trid":1,"testlnk":0,"referencelnk":45,"mcdetaillnk":1,
"beamlnk":46,"targetlnk":29,"observablelnk":8,"secondarylnk":-211,"reactionlnk":1,
"datatable":{
"dtid":1,"datatypeslnk":2,
"title":"Production of pi- in pi- on Cu interactions at 3GeV/c, 0.95<theta<1.15 [rad]",
"npoints":0,
"nbins":[9],
"axisTitle":["momentum of pi- [GeV/c]","Cross section [mb/(GeV/c/rad)]"],
"val":
[840, 950, 780, 720, 570, 490, 400, 340, 280],
"errStatPlus":
[80, 40, 30, 20, 15, 15, 10, 10, 10],
"errStatMinus":
[80, 40, 30, 20, 15, 15, 10, 10, 10],
"errSysPlus":
[0., 0., 0., 0., 0., 0., 0., 0., 0.],
"errSysMinus":
[0., 0., 0., 0., 0., 0., 0., 0., 0.],
"binMin":
[0.1, 0.15, 0.2, 0.25, 0.3, 0.35, 0.4, 0.45, 0.5],
"binMax":
[0.15, 0.2, 0.25, 0.3, 0.35, 0.4, 0.45, 0.5, 0.6]
},
"imageblobslnk":NULL,"scoreslnk":2,"accesslnk":1,
"parnames":["theta interval for secondary particle"], "parvalues":["0.95-1.15"]
},
{
"trid":1,"testlnk":0,"referencelnk":45,"mcdetaillnk":1,
"beamlnk":46,"targetlnk":29,"observablelnk":8,"secondarylnk":-211,"reactionlnk":1,
"datatable":{
"dtid":1,"datatypeslnk":2,
"title":"Production of pi- in pi- on Cu interactions at 3GeV/c, 1.15<theta<1.35 [rad]",
"npoints":0,
"nbins":[8],
"axisTitle":["momentum of pi- [GeV/c]","Cross section [mb/(GeV/c/rad)]"],
"val":
[870, 990, 730, 550, 420, 340, 290, 230],
"errStatPlus":
[90, 45, 25, 20, 15, 10, 10, 10],
"errStatMinus":
[90, 45, 25, 20, 15, 10, 10, 10],
"errSysPlus":
[0., 0., 0., 0., 0., 0., 0., 0.],
"errSysMinus":
[0., 0., 0., 0., 0., 0., 0., 0.],
"binMin":
[0.1, 0.15, 0.2, 0.25, 0.3, 0.35, 0.4, 0.45],
"binMax":
[0.15, 0.2, 0.25, 0.3, 0.35, 0.4, 0.45, 0.5]
},
"imageblobslnk":NULL,"scoreslnk":2,"accesslnk":1,
"parnames":["theta interval for secondary particle"], "parvalues":["1.15-1.35"]
},
{
"trid":1,"testlnk":0,"referencelnk":45,"mcdetaillnk":1,
"beamlnk":46,"targetlnk":29,"observablelnk":8,"secondarylnk":-211,"reactionlnk":1,
"datatable":{
"dtid":1,"datatypeslnk":2,
"title":"Production of pi- in pi- on Cu interactions at 3GeV/c, 1.35<theta<1.55 [rad]",
"npoints":0,
"nbins":[8],
"axisTitle":["momentum of pi- [GeV/c]","Cross section [mb/(GeV/c/rad)]"],
"val":
[910, 910, 610, 440, 310, 250, 210, 160],
"errStatPlus":
[105, 45, 25, 15, 10, 10, 10, 5],
"errStatMinus":
[105, 45, 25, 15, 10, 10, 10, 5],
"errSysPlus":
[0., 0., 0., 0., 0., 0., 0., 0.],
"errSysMinus":
[0., 0., 0., 0., 0., 0., 0., 0.],
"binMin":
[0.1, 0.15, 0.2, 0.25, 0.3, 0.35, 0.4, 0.45],
"binMax":
[0.15, 0.2, 0.25, 0.3, 0.35, 0.4, 0.45, 0.5]
},
"imageblobslnk":NULL,"scoreslnk":2,"accesslnk":1,
"parnames":["theta interval for secondary particle"], "parvalues":["1.35-1.55"]
},
{
"trid":1,"testlnk":0,"referencelnk":45,"mcdetaillnk":1,
"beamlnk":46,"targetlnk":29,"observablelnk":8,"secondarylnk":-211,"reactionlnk":1,
"datatable":{
"dtid":1,"datatypeslnk":2,
"title":"Production of pi- in pi- on Cu interactions at 3GeV/c, 1.55<theta<1.75 [rad]",
"npoints":0,
"nbins":[8],
"axisTitle":["momentum of pi- [GeV/c]","Cross section [mb/(GeV/c/rad)]"],
"val":
[850, 730, 500, 370, 260, 190, 150, 100],
"errStatPlus":
[90, 35, 20, 15, 10, 5, 5, 5],
"errStatMinus":
[90, 35, 20, 15, 10, 5, 5, 5],
"errSysPlus":
[0., 0., 0., 0., 0., 0., 0., 0.],
"errSysMinus":
[0., 0., 0., 0., 0., 0., 0., 0.],
"binMin":
[0.1, 0.15, 0.2, 0.25, 0.3, 0.35, 0.4, 0.45],
"binMax":
[0.15, 0.2, 0.25, 0.3, 0.35, 0.4, 0.45, 0.5]
},
"imageblobslnk":NULL,"scoreslnk":2,"accesslnk":1,
"parnames":["theta interval for secondary particle"], "parvalues":["1.55-1.75"]
},
{
"trid":1,"testlnk":0,"referencelnk":45,"mcdetaillnk":1,
"beamlnk":46,"targetlnk":29,"observablelnk":8,"secondarylnk":-211,"reactionlnk":1,
"datatable":{
"dtid":1,"datatypeslnk":2,
"title":"Production of pi- in pi- on Cu interactions at 3GeV/c, 1.75<theta<1.95 [rad]",
"npoints":0,
"nbins":[8],
"axisTitle":["momentum of pi- [GeV/c]","Cross section [mb/(GeV/c/rad)]"],
"val":
[740, 650, 450, 280, 170, 120, 90, 60],
"errStatPlus":
[65, 25, 20, 10, 10, 5, 5, 5],
"errStatMinus":
[65, 25, 20, 10, 10, 5, 5, 5],
"errSysPlus":
[0., 0., 0., 0., 0., 0., 0., 0.],
"errSysMinus":
[0., 0., 0., 0., 0., 0., 0., 0.],
"binMin":
[0.1, 0.15, 0.2, 0.25, 0.3, 0.35, 0.4, 0.45],
"binMax":
[0.15, 0.2, 0.25, 0.3, 0.35, 0.4, 0.45, 0.5]
},
"imageblobslnk":NULL,"scoreslnk":2,"accesslnk":1,
"parnames":["theta interval for secondary particle"], "parvalues":["1.75-1.95"]
},
{
"trid":1,"testlnk":0,"referencelnk":45,"mcdetaillnk":1,
"beamlnk":46,"targetlnk":29,"observablelnk":8,"secondarylnk":-211,"reactionlnk":1,
"datatable":{
"dtid":1,"datatypeslnk":2,
"title":"Production of pi- in pi- on Cu interactions at 3GeV/c, 1.95<theta<2.15 [rad]",
"npoints":0,
"nbins":[8],
"axisTitle":["momentum of pi- [GeV/c]","Cross section [mb/(GeV/c/rad)]"],
"val":
[650, 520, 330, 200, 130, 90, 60, 50],
"errStatPlus":
[50, 20, 10, 10, 5, 5, 5, 5],
"errStatMinus":
[50, 20, 10, 10, 5, 5, 5, 5],
"errSysPlus":
[0., 0., 0., 0., 0., 0., 0., 0.],
"errSysMinus":
[0., 0., 0., 0., 0., 0., 0., 0.],
"binMin":
[0.1, 0.15, 0.2, 0.25, 0.3, 0.35, 0.4, 0.45],
"binMax":
[0.15, 0.2, 0.25, 0.3, 0.35, 0.4, 0.45, 0.5]
},
"imageblobslnk":NULL,"scoreslnk":2,"accesslnk":1,
"parnames":["theta interval for secondary particle"], "parvalues":["1.95-2.15"]
},
{
"trid":1,"testlnk":0,"referencelnk":44,"mcdetaillnk":1,
"beamlnk":47,"targetlnk":29,"observablelnk":8,"secondarylnk":-211,"reactionlnk":1,
"datatable":{
"dtid":1,"datatypeslnk":2,
"title":"Production of pi- in pi- on Cu interactions at 5GeV/c, 0.05<theta<0.1 [rad]",
"npoints":0,
"nbins":[8],
"axisTitle":["momentum of pi- [GeV/c]","Cross section [mb/(GeV/c/rad)]"],
"val":
[450, 320, 340, 360, 410, 430, 530, 510],
"errStatPlus":
[25, 15, 15, 15, 15, 20, 20, 40],
"errStatMinus":
[25, 15, 15, 15, 15, 20, 20, 40],
"errSysPlus":
[0., 0., 0., 0., 0., 0., 0., 0.],
"errSysMinus":
[0., 0., 0., 0., 0., 0., 0., 0.],
"binMin":
[0.5, 1, 1.5, 2, 2.5, 3, 3.5, 4],
"binMax":
[1, 1.5, 2, 2.5, 3, 3.5, 4, 5]
},
"imageblobslnk":NULL,"scoreslnk":2,"accesslnk":1,
"parnames":["theta interval for secondary particle"], "parvalues":["0.05-0.1"]
},
{
"trid":1,"testlnk":0,"referencelnk":44,"mcdetaillnk":1,
"beamlnk":47,"targetlnk":29,"observablelnk":8,"secondarylnk":-211,"reactionlnk":1,
"datatable":{
"dtid":1,"datatypeslnk":2,
"title":"Production of pi- in pi- on Cu interactions at 5GeV/c, 0.1<theta<0.15 [rad]",
"npoints":0,
"nbins":[8],
"axisTitle":["momentum of pi- [GeV/c]","Cross section [mb/(GeV/c/rad)]"],
"val":
[580, 400, 340, 310, 310, 340, 210, 210],
"errStatPlus":
[30, 20, 15, 15, 15, 15, 15, 20],
"errStatMinus":
[30, 20, 15, 15, 15, 15, 15, 20],
"errSysPlus":
[0., 0., 0., 0., 0., 0., 0., 0.],
"errSysMinus":
[0., 0., 0., 0., 0., 0., 0., 0.],
"binMin":
[0.5, 1, 1.5, 2, 2.5, 3, 3.5, 4],
"binMax":
[1, 1.5, 2, 2.5, 3, 3.5, 4, 5]
},
"imageblobslnk":NULL,"scoreslnk":2,"accesslnk":1,
"parnames":["theta interval for secondary particle"], "parvalues":["0.1-0.15"]
},
{
"trid":1,"testlnk":0,"referencelnk":44,"mcdetaillnk":1,
"beamlnk":47,"targetlnk":29,"observablelnk":8,"secondarylnk":-211,"reactionlnk":1,
"datatable":{
"dtid":1,"datatypeslnk":2,
"title":"Production of pi- in pi- on Cu interactions at 5GeV/c, 0.15<theta<0.2 [rad]",
"npoints":0,
"nbins":[8],
"axisTitle":["momentum of pi- [GeV/c]","Cross section [mb/(GeV/c/rad)]"],
"val":
[420, 330, 270, 190, 120, 73, 39, 36],
"errStatPlus":
[25, 20, 15, 10, 10, 6, 4, 3.5],
"errStatMinus":
[25, 20, 15, 10, 10, 6, 4, 3.5],
"errSysPlus":
[0., 0., 0., 0., 0., 0., 0., 0.],
"errSysMinus":
[0., 0., 0., 0., 0., 0., 0., 0.],
"binMin":
[0.5, 1, 1.5, 2, 2.5, 3, 3.5, 4],
"binMax":
[1, 1.5, 2, 2.5, 3, 3.5, 4, 5]
},
"imageblobslnk":NULL,"scoreslnk":2,"accesslnk":1,
"parnames":["theta interval for secondary particle"], "parvalues":["0.15-0.2"]
},
{
"trid":1,"testlnk":0,"referencelnk":44,"mcdetaillnk":1,
"beamlnk":47,"targetlnk":29,"observablelnk":8,"secondarylnk":-211,"reactionlnk":1,
"datatable":{
"dtid":1,"datatypeslnk":2,
"title":"Production of pi- in pi- on Cu interactions at 5GeV/c, 0.2<theta<0.25 [rad]",
"npoints":0,
"nbins":[8],
"axisTitle":["momentum of pi- [GeV/c]","Cross section [mb/(GeV/c/rad)]"],
"val":
[390, 180, 140, 70, 47, 40, 32, 26],
"errStatPlus":
[30, 15, 15, 10, 5.5, 4.5, 3.5, 3],
"errStatMinus":
[30, 15, 15, 10, 5.5, 4.5, 3.5, 3],
"errSysPlus":
[0., 0., 0., 0., 0., 0., 0., 0.],
"errSysMinus":
[0., 0., 0., 0., 0., 0., 0., 0.],
"binMin":
[0.5, 1, 1.5, 2, 2.5, 3, 3.5, 4],
"binMax":
[1, 1.5, 2, 2.5, 3, 3.5, 4, 5]
},
"imageblobslnk":NULL,"scoreslnk":2,"accesslnk":1,
"parnames":["theta interval for secondary particle"], "parvalues":["0.2-0.25"]
},
{
"trid":1,"testlnk":0,"referencelnk":45,"mcdetaillnk":1,
"beamlnk":47,"targetlnk":29,"observablelnk":8,"secondarylnk":-211,"reactionlnk":1,
"datatable":{
"dtid":1,"datatypeslnk":2,
"title":"Production of pi- in pi- on Cu interactions at 5GeV/c, 0.35<theta<0.55 [rad]",
"npoints":0,
"nbins":[10],
"axisTitle":["momentum of pi- [GeV/c]","Cross section [mb/(GeV/c/rad)]"],
"val":
[740, 930, 1060, 990, 900, 970, 920, 960, 980, 860],
"errStatPlus":
[90, 60, 45, 35, 35, 35, 30, 35, 45, 55],
"errStatMinus":
[90, 60, 45, 35, 35, 35, 30, 35, 45, 55],
"errSysPlus":
[0., 0., 0., 0., 0., 0., 0., 0., 0., 0.],
"errSysMinus":
[0., 0., 0., 0., 0., 0., 0., 0., 0., 0.],
"binMin":
[0.15, 0.2, 0.25, 0.3, 0.35, 0.4, 0.45, 0.5, 0.6, 0.7],
"binMax":
[0.2, 0.25, 0.3, 0.35, 0.4, 0.45, 0.5, 0.6, 0.7, 0.8]
},
"imageblobslnk":NULL,"scoreslnk":2,"accesslnk":1,
"parnames":["theta interval for secondary particle"], "parvalues":["0.35-0.55"]
},
{
"trid":1,"testlnk":0,"referencelnk":45,"mcdetaillnk":1,
"beamlnk":47,"targetlnk":29,"observablelnk":8,"secondarylnk":-211,"reactionlnk":1,
"datatable":{
"dtid":1,"datatypeslnk":2,
"title":"Production of pi- in pi- on Cu interactions at 5GeV/c, 0.55<theta<0.75 [rad]",
"npoints":0,
"nbins":[11],
"axisTitle":["momentum of pi- [GeV/c]","Cross section [mb/(GeV/c/rad)]"],
"val":
[700, 1000, 1050, 1100, 960, 860, 890, 870, 790, 700, 580],
"errStatPlus":
[120, 60, 45, 40, 30, 25, 30, 25, 25, 30, 40],
"errStatMinus":
[120, 60, 45, 40, 30, 25, 30, 25, 25, 30, 40],
"errSysPlus":
[0., 0., 0., 0., 0., 0., 0., 0., 0., 0., 0.],
"errSysMinus":
[0., 0., 0., 0., 0., 0., 0., 0., 0., 0., 0.],
"binMin":
[0.1, 0.15, 0.2, 0.25, 0.3, 0.35, 0.4, 0.45, 0.5, 0.6, 0.7],
"binMax":
[0.15, 0.2, 0.25, 0.3, 0.35, 0.4, 0.45, 0.5, 0.6, 0.7, 0.8]
},
"imageblobslnk":NULL,"scoreslnk":2,"accesslnk":1,
"parnames":["theta interval for secondary particle"], "parvalues":["0.55-0.75"]
},
{
"trid":1,"testlnk":0,"referencelnk":45,"mcdetaillnk":1,
"beamlnk":47,"targetlnk":29,"observablelnk":8,"secondarylnk":-211,"reactionlnk":1,
"datatable":{
"dtid":1,"datatypeslnk":2,
"title":"Production of pi- in pi- on Cu interactions at 5GeV/c, 0.75<theta<0.95 [rad]",
"npoints":0,
"nbins":[10],
"axisTitle":["momentum of pi- [GeV/c]","Cross section [mb/(GeV/c/rad)]"],
"val":
[830, 1080, 1050, 980, 870, 750, 690, 630, 530, 440],
"errStatPlus":
[95, 50, 40, 30, 25, 20, 20, 20, 20, 20],
"errStatMinus":
[95, 50, 40, 30, 25, 20, 20, 20, 20, 20],
"errSysPlus":
[0., 0., 0., 0., 0., 0., 0., 0., 0., 0.],
"errSysMinus":
[0., 0., 0., 0., 0., 0., 0., 0., 0., 0.],
"binMin":
[0.1, 0.15, 0.2, 0.25, 0.3, 0.35, 0.4, 0.45, 0.5, 0.6],
"binMax":
[0.15, 0.2, 0.25, 0.3, 0.35, 0.4, 0.45, 0.5, 0.6, 0.7]
},
"imageblobslnk":NULL,"scoreslnk":2,"accesslnk":1,
"parnames":["theta interval for secondary particle"], "parvalues":["0.75-0.95"]
},
{
"trid":1,"testlnk":0,"referencelnk":45,"mcdetaillnk":1,
"beamlnk":47,"targetlnk":29,"observablelnk":8,"secondarylnk":-211,"reactionlnk":1,
"datatable":{
"dtid":1,"datatypeslnk":2,
"title":"Production of pi- in pi- on Cu interactions at 5GeV/c, 0.95<theta<1.15 [rad]",
"npoints":0,
"nbins":[9],
"axisTitle":["momentum of pi- [GeV/c]","Cross section [mb/(GeV/c/rad)]"],
"val":
[970, 1110, 1010, 810, 660, 570, 490, 410, 330],
"errStatPlus":
[90, 45, 35, 25, 20, 15, 15, 15, 10],
"errStatMinus":
[90, 45, 35, 25, 20, 15, 15, 15, 10],
"errSysPlus":
[0., 0., 0., 0., 0., 0., 0., 0., 0.],
"errSysMinus":
[0., 0., 0., 0., 0., 0., 0., 0., 0.],
"binMin":
[0.1, 0.15, 0.2, 0.25, 0.3, 0.35, 0.4, 0.45, 0.5],
"binMax":
[0.15, 0.2, 0.25, 0.3, 0.35, 0.4, 0.45, 0.5, 0.6]
},
"imageblobslnk":NULL,"scoreslnk":2,"accesslnk":1,
"parnames":["theta interval for secondary particle"], "parvalues":["0.95-1.15"]
},
{
"trid":1,"testlnk":0,"referencelnk":45,"mcdetaillnk":1,
"beamlnk":47,"targetlnk":29,"observablelnk":8,"secondarylnk":-211,"reactionlnk":1,
"datatable":{
"dtid":1,"datatypeslnk":2,
"title":"Production of pi- in pi- on Cu interactions at 5GeV/c, 1.15<theta<1.35 [rad]",
"npoints":0,
"nbins":[8],
"axisTitle":["momentum of pi- [GeV/c]","Cross section [mb/(GeV/c/rad)]"],
"val":
[1050, 1100, 800, 630, 510, 400, 320, 260],
"errStatPlus":
[105, 50, 30, 20, 15, 15, 10, 10],
"errStatMinus":
[105, 50, 30, 20, 15, 15, 10, 10],
"errSysPlus":
[0., 0., 0., 0., 0., 0., 0., 0.],
"errSysMinus":
[0., 0., 0., 0., 0., 0., 0., 0.],
"binMin":
[0.1, 0.15, 0.2, 0.25, 0.3, 0.35, 0.4, 0.45],
"binMax":
[0.15, 0.2, 0.25, 0.3, 0.35, 0.4, 0.45, 0.5]
},
"imageblobslnk":NULL,"scoreslnk":2,"accesslnk":1,
"parnames":["theta interval for secondary particle"], "parvalues":["1.15-1.35"]
},
{
"trid":1,"testlnk":0,"referencelnk":45,"mcdetaillnk":1,
"beamlnk":47,"targetlnk":29,"observablelnk":8,"secondarylnk":-211,"reactionlnk":1,
"datatable":{
"dtid":1,"datatypeslnk":2,
"title":"Production of pi- in pi- on Cu interactions at 5GeV/c, 1.35<theta<1.55 [rad]",
"npoints":0,
"nbins":[8],
"axisTitle":["momentum of pi- [GeV/c]","Cross section [mb/(GeV/c/rad)]"],
"val":
[960, 1000, 730, 530, 350, 260, 210, 160],
"errStatPlus":
[110, 50, 25, 20, 15, 10, 10, 5],
"errStatMinus":
[110, 50, 25, 20, 15, 10, 10, 5],
"errSysPlus":
[0., 0., 0., 0., 0., 0., 0., 0.],
"errSysMinus":
[0., 0., 0., 0., 0., 0., 0., 0.],
"binMin":
[0.1, 0.15, 0.2, 0.25, 0.3, 0.35, 0.4, 0.45],
"binMax":
[0.15, 0.2, 0.25, 0.3, 0.35, 0.4, 0.45, 0.5]
},
"imageblobslnk":NULL,"scoreslnk":2,"accesslnk":1,
"parnames":["theta interval for secondary particle"], "parvalues":["1.35-1.55"]
},
{
"trid":1,"testlnk":0,"referencelnk":45,"mcdetaillnk":1,
"beamlnk":47,"targetlnk":29,"observablelnk":8,"secondarylnk":-211,"reactionlnk":1,
"datatable":{
"dtid":1,"datatypeslnk":2,
"title":"Production of pi- in pi- on Cu interactions at 5GeV/c, 1.55<theta<1.75 [rad]",
"npoints":0,
"nbins":[8],
"axisTitle":["momentum of pi- [GeV/c]","Cross section [mb/(GeV/c/rad)]"],
"val":
[930, 800, 560, 400, 270, 190, 130, 100],
"errStatPlus":
[105, 35, 20, 20, 10, 10, 5, 5],
"errStatMinus":
[105, 35, 20, 20, 10, 10, 5, 5],
"errSysPlus":
[0., 0., 0., 0., 0., 0., 0., 0.],
"errSysMinus":
[0., 0., 0., 0., 0., 0., 0., 0.],
"binMin":
[0.1, 0.15, 0.2, 0.25, 0.3, 0.35, 0.4, 0.45],
"binMax":
[0.15, 0.2, 0.25, 0.3, 0.35, 0.4, 0.45, 0.5]
},
"imageblobslnk":NULL,"scoreslnk":2,"accesslnk":1,
"parnames":["theta interval for secondary particle"], "parvalues":["1.55-1.75"]
},
{
"trid":1,"testlnk":0,"referencelnk":45,"mcdetaillnk":1,
"beamlnk":47,"targetlnk":29,"observablelnk":8,"secondarylnk":-211,"reactionlnk":1,
"datatable":{
"dtid":1,"datatypeslnk":2,
"title":"Production of pi- in pi- on Cu interactions at 5GeV/c, 1.75<theta<1.95 [rad]",
"npoints":0,
"nbins":[8],
"axisTitle":["momentum of pi- [GeV/c]","Cross section [mb/(GeV/c/rad)]"],
"val":
[770, 650, 440, 280, 180, 150, 110, 70],
"errStatPlus":
[65, 25, 15, 10, 5, 5, 5, 5],
"errStatMinus":
[65, 25, 15, 10, 5, 5, 5, 5],
"errSysPlus":
[0., 0., 0., 0., 0., 0., 0., 0.],
"errSysMinus":
[0., 0., 0., 0., 0., 0., 0., 0.],
"binMin":
[0.1, 0.15, 0.2, 0.25, 0.3, 0.35, 0.4, 0.45],
"binMax":
[0.15, 0.2, 0.25, 0.3, 0.35, 0.4, 0.45, 0.5]
},
"imageblobslnk":NULL,"scoreslnk":2,"accesslnk":1,
"parnames":["theta interval for secondary particle"], "parvalues":["1.75-1.95"]
},
{
"trid":1,"testlnk":0,"referencelnk":45,"mcdetaillnk":1,
"beamlnk":47,"targetlnk":29,"observablelnk":8,"secondarylnk":-211,"reactionlnk":1,
"datatable":{
"dtid":1,"datatypeslnk":2,
"title":"Production of pi- in pi- on Cu interactions at 5GeV/c, 1.95<theta<2.15 [rad]",
"npoints":0,
"nbins":[8],
"axisTitle":["momentum of pi- [GeV/c]","Cross section [mb/(GeV/c/rad)]"],
"val":
[620, 500, 320, 210, 140, 100, 80, 50],
"errStatPlus":
[45, 15, 10, 10, 5, 5, 5, 5],
"errStatMinus":
[45, 15, 10, 10, 5, 5, 5, 5],
"errSysPlus":
[0., 0., 0., 0., 0., 0., 0., 0.],
"errSysMinus":
[0., 0., 0., 0., 0., 0., 0., 0.],
"binMin":
[0.1, 0.15, 0.2, 0.25, 0.3, 0.35, 0.4, 0.45],
"binMax":
[0.15, 0.2, 0.25, 0.3, 0.35, 0.4, 0.45, 0.5]
},
"imageblobslnk":NULL,"scoreslnk":2,"accesslnk":1,
"parnames":["theta interval for secondary particle"], "parvalues":["1.95-2.15"]
},
{
"trid":1,"testlnk":0,"referencelnk":44,"mcdetaillnk":1,
"beamlnk":48,"targetlnk":29,"observablelnk":8,"secondarylnk":-211,"reactionlnk":1,
"datatable":{
"dtid":1,"datatypeslnk":2,
"title":"Production of pi- in pi- on Cu interactions at 8GeV/c, 0.05<theta<0.1 [rad]",
"npoints":0,
"nbins":[10],
"axisTitle":["momentum of pi- [GeV/c]","Cross section [mb/(GeV/c/rad)]"],
"val":
[910, 710, 750, 680, 630, 470, 410, 420, 300, -1000],
"errStatPlus":
[40, 25, 20, 20, 20, 20, 15, 15, 10, -500],
"errStatMinus":
[40, 25, 20, 20, 20, 20, 15, 15, 10, -500],
"errSysPlus":
[0., 0., 0., 0., 0., 0., 0., 0., 0., 0.],
"errSysMinus":
[0., 0., 0., 0., 0., 0., 0., 0., 0., 0.],
"binMin":
[0.5, 1, 1.5, 2, 2.5, 3, 3.5, 4, 5, 6.5],
"binMax":
[1, 1.5, 2, 2.5, 3, 3.5, 4, 5, 6.5, 8]
},
"imageblobslnk":NULL,"scoreslnk":2,"accesslnk":1,
"parnames":["theta interval for secondary particle"], "parvalues":["0.05-0.1"]
},
{
"trid":1,"testlnk":0,"referencelnk":44,"mcdetaillnk":1,
"beamlnk":48,"targetlnk":29,"observablelnk":8,"secondarylnk":-211,"reactionlnk":1,
"datatable":{
"dtid":1,"datatypeslnk":2,
"title":"Production of pi- in pi- on Cu interactions at 8GeV/c, 0.1<theta<0.15 [rad]",
"npoints":0,
"nbins":[10],
"axisTitle":["momentum of pi- [GeV/c]","Cross section [mb/(GeV/c/rad)]"],
"val":
[1010, 800, 670, 630, 400, 310, 180, 118, 59, -1000],
"errStatPlus":
[55, 30, 25, 25, 15, 15, 15, 7, 3.5, -500],
"errStatMinus":
[55, 30, 25, 25, 15, 15, 15, 7, 3.5, -500],
"errSysPlus":
[0., 0., 0., 0., 0., 0., 0., 0., 0., 0.],
"errSysMinus":
[0., 0., 0., 0., 0., 0., 0., 0., 0., 0.],
"binMin":
[0.5, 1, 1.5, 2, 2.5, 3, 3.5, 4, 5, 6.5],
"binMax":
[1, 1.5, 2, 2.5, 3, 3.5, 4, 5, 6.5, 8]
},
"imageblobslnk":NULL,"scoreslnk":2,"accesslnk":1,
"parnames":["theta interval for secondary particle"], "parvalues":["0.1-0.15"]
},
{
"trid":1,"testlnk":0,"referencelnk":44,"mcdetaillnk":1,
"beamlnk":48,"targetlnk":29,"observablelnk":8,"secondarylnk":-211,"reactionlnk":1,
"datatable":{
"dtid":1,"datatypeslnk":2,
"title":"Production of pi- in pi- on Cu interactions at 8GeV/c, 0.15<theta<0.2 [rad]",
"npoints":0,
"nbins":[10],
"axisTitle":["momentum of pi- [GeV/c]","Cross section [mb/(GeV/c/rad)]"],
"val":
[880, 760, 510, 350, 200, 114, 97, 49, 19, -1000],
"errStatPlus":
[45, 35, 25, 0, 10, 7.5, 6, 3.5, 1.5, -500],
"errStatMinus":
[45, 35, 25, 0, 10, 7.5, 6, 3.5, 1.5, -500],
"errSysPlus":
[0., 0., 0., 0., 0., 0., 0., 0., 0., 0.],
"errSysMinus":
[0., 0., 0., 0., 0., 0., 0., 0., 0., 0.],
"binMin":
[0.5, 1, 1.5, 2, 2.5, 3, 3.5, 4, 5, 6.5],
"binMax":
[1, 1.5, 2, 2.5, 3, 3.5, 4, 5, 6.5, 8]
},
"imageblobslnk":NULL,"scoreslnk":2,"accesslnk":1,
"parnames":["theta interval for secondary particle"], "parvalues":["0.15-0.2"]
},
{
"trid":1,"testlnk":0,"referencelnk":44,"mcdetaillnk":1,
"beamlnk":48,"targetlnk":29,"observablelnk":8,"secondarylnk":-211,"reactionlnk":1,
"datatable":{
"dtid":1,"datatypeslnk":2,
"title":"Production of pi- in pi- on Cu interactions at 8GeV/c, 0.2<theta<0.25 [rad]",
"npoints":0,
"nbins":[10],
"axisTitle":["momentum of pi- [GeV/c]","Cross section [mb/(GeV/c/rad)]"],
"val":
[590, 390, 310, 350, 230, 130, 70, 41, 13, -1000],
"errStatPlus":
[35, 25, 25, 25, 20, 10, 6.5, 4, 2, -500],
"errStatMinus":
[35, 25, 25, 25, 20, 10, 6.5, 4, 2, -500],
"errSysPlus":
[0., 0., 0., 0., 0., 0., 0., 0., 0., 0.],
"errSysMinus":
[0., 0., 0., 0., 0., 0., 0., 0., 0., 0.],
"binMin":
[0.5, 1, 1.5, 2, 2.5, 3, 3.5, 4, 5, 6.5],
"binMax":
[1, 1.5, 2, 2.5, 3, 3.5, 4, 5, 6.5, 8]
},
"imageblobslnk":NULL,"scoreslnk":2,"accesslnk":1,
"parnames":["theta interval for secondary particle"], "parvalues":["0.2-0.25"]
},
{
"trid":1,"testlnk":0,"referencelnk":45,"mcdetaillnk":1,
"beamlnk":48,"targetlnk":29,"observablelnk":8,"secondarylnk":-211,"reactionlnk":1,
"datatable":{
"dtid":1,"datatypeslnk":2,
"title":"Production of pi- in pi- on Cu interactions at 8GeV/c, 0.35<theta<0.55 [rad]",
"npoints":0,
"nbins":[10],
"axisTitle":["momentum of pi- [GeV/c]","Cross section [mb/(GeV/c/rad)]"],
"val":
[680, 870, 1050, 1060, 1090, 1050, 1090, 1100, 1100, 1010],
"errStatPlus":
[110, 65, 50, 40, 35, 30, 35, 35, 45, 60],
"errStatMinus":
[110, 65, 50, 40, 35, 30, 35, 35, 45, 60],
"errSysPlus":
[0., 0., 0., 0., 0., 0., 0., 0., 0., 0.],
"errSysMinus":
[0., 0., 0., 0., 0., 0., 0., 0., 0., 0.],
"binMin":
[0.15, 0.2, 0.25, 0.3, 0.35, 0.4, 0.45, 0.5, 0.6, 0.7],
"binMax":
[0.2, 0.25, 0.3, 0.35, 0.4, 0.45, 0.5, 0.6, 0.7, 0.8]
},
"imageblobslnk":NULL,"scoreslnk":2,"accesslnk":1,
"parnames":["theta interval for secondary particle"], "parvalues":["0.35-0.55"]
},
{
"trid":1,"testlnk":0,"referencelnk":45,"mcdetaillnk":1,
"beamlnk":48,"targetlnk":29,"observablelnk":8,"secondarylnk":-211,"reactionlnk":1,
"datatable":{
"dtid":1,"datatypeslnk":2,
"title":"Production of pi- in pi- on Cu interactions at 8GeV/c, 0.55<theta<0.75 [rad]",
"npoints":0,
"nbins":[11],
"axisTitle":["momentum of pi- [GeV/c]","Cross section [mb/(GeV/c/rad)]"],
"val":
[470, 790, 1090, 1040, 1020, 940, 860, 830, 800, 740, 630],
"errStatPlus":
[110, 60, 50, 35, 30, 25, 25, 20, 20, 30, 45],
"errStatMinus":
[110, 60, 50, 35, 30, 25, 25, 20, 20, 30, 45],
"errSysPlus":
[0., 0., 0., 0., 0., 0., 0., 0., 0., 0., 0.],
"errSysMinus":
[0., 0., 0., 0., 0., 0., 0., 0., 0., 0., 0.],
"binMin":
[0.1, 0.15, 0.2, 0.25, 0.3, 0.35, 0.4, 0.45, 0.5, 0.6, 0.7],
"binMax":
[0.15, 0.2, 0.25, 0.3, 0.35, 0.4, 0.45, 0.5, 0.6, 0.7, 0.8]
},
"imageblobslnk":NULL,"scoreslnk":2,"accesslnk":1,
"parnames":["theta interval for secondary particle"], "parvalues":["0.55-0.75"]
},
{
"trid":1,"testlnk":0,"referencelnk":45,"mcdetaillnk":1,
"beamlnk":48,"targetlnk":29,"observablelnk":8,"secondarylnk":-211,"reactionlnk":1,
"datatable":{
"dtid":1,"datatypeslnk":2,
"title":"Production of pi- in pi- on Cu interactions at 8GeV/c, 0.75<theta<0.95 [rad]",
"npoints":0,
"nbins":[10],
"axisTitle":["momentum of pi- [GeV/c]","Cross section [mb/(GeV/c/rad)]"],
"val":
[540, 940, 970, 940, 830, 760, 690, 580, 500, 420],
"errStatPlus":
[80, 45, 35, 30, 25, 20, 20, 15, 15, 20],
"errStatMinus":
[80, 45, 35, 30, 25, 20, 20, 15, 15, 20],
"errSysPlus":
[0., 0., 0., 0., 0., 0., 0., 0., 0., 0.],
"errSysMinus":
[0., 0., 0., 0., 0., 0., 0., 0., 0., 0.],
"binMin":
[0.1, 0.15, 0.2, 0.25, 0.3, 0.35, 0.4, 0.45, 0.5, 0.6],
"binMax":
[0.15, 0.2, 0.25, 0.3, 0.35, 0.4, 0.45, 0.5, 0.6, 0.7]
},
"imageblobslnk":NULL,"scoreslnk":2,"accesslnk":1,
"parnames":["theta interval for secondary particle"], "parvalues":["0.75-0.95"]
},
{
"trid":1,"testlnk":0,"referencelnk":45,"mcdetaillnk":1,
"beamlnk":48,"targetlnk":29,"observablelnk":8,"secondarylnk":-211,"reactionlnk":1,
"datatable":{
"dtid":1,"datatypeslnk":2,
"title":"Production of pi- in pi- on Cu interactions at 8GeV/c, 0.95<theta<1.15 [rad]",
"npoints":0,
"nbins":[9],
"axisTitle":["momentum of pi- [GeV/c]","Cross section [mb/(GeV/c/rad)]"],
"val":
[730, 990, 850, 770, 670, 520, 410, 350, 290],
"errStatPlus":
[80, 40, 30, 25, 20, 15, 10, 10, 10],
"errStatMinus":
[80, 40, 30, 25, 20, 15, 10, 10, 10],
"errSysPlus":
[0., 0., 0., 0., 0., 0., 0., 0., 0.],
"errSysMinus":
[0., 0., 0., 0., 0., 0., 0., 0., 0.],
"binMin":
[0.1, 0.15, 0.2, 0.25, 0.3, 0.35, 0.4, 0.45, 0.5],
"binMax":
[0.15, 0.2, 0.25, 0.3, 0.35, 0.4, 0.45, 0.5, 0.6]
},
"imageblobslnk":NULL,"scoreslnk":2,"accesslnk":1,
"parnames":["theta interval for secondary particle"], "parvalues":["0.95-1.15"]
},
{
"trid":1,"testlnk":0,"referencelnk":45,"mcdetaillnk":1,
"beamlnk":48,"targetlnk":29,"observablelnk":8,"secondarylnk":-211,"reactionlnk":1,
"datatable":{
"dtid":1,"datatypeslnk":2,
"title":"Production of pi- in pi- on Cu interactions at 8GeV/c, 1.15<theta<1.35 [rad]",
"npoints":0,
"nbins":[8],
"axisTitle":["momentum of pi- [GeV/c]","Cross section [mb/(GeV/c/rad)]"],
"val":
[800, 900, 770, 590, 460, 370, 290, 240],
"errStatPlus":
[85, 40, 25, 20, 15, 10, 10, 10],
"errStatMinus":
[85, 40, 25, 20, 15, 10, 10, 10],
"errSysPlus":
[0., 0., 0., 0., 0., 0., 0., 0.],
"errSysMinus":
[0., 0., 0., 0., 0., 0., 0., 0.],
"binMin":
[0.1, 0.15, 0.2, 0.25, 0.3, 0.35, 0.4, 0.45],
"binMax":
[0.15, 0.2, 0.25, 0.3, 0.35, 0.4, 0.45, 0.5]
},
"imageblobslnk":NULL,"scoreslnk":2,"accesslnk":1,
"parnames":["theta interval for secondary particle"], "parvalues":["1.15-1.35"]
},
{
"trid":1,"testlnk":0,"referencelnk":45,"mcdetaillnk":1,
"beamlnk":48,"targetlnk":29,"observablelnk":8,"secondarylnk":-211,"reactionlnk":1,
"datatable":{
"dtid":1,"datatypeslnk":2,
"title":"Production of pi- in pi- on Cu interactions at 8GeV/c, 1.35<theta<1.55 [rad]",
"npoints":0,
"nbins":[8],
"axisTitle":["momentum of pi- [GeV/c]","Cross section [mb/(GeV/c/rad)]"],
"val":
[790, 830, 690, 480, 330, 250, 200, 160],
"errStatPlus":
[95, 40, 25, 20, 10, 10, 5, 5],
"errStatMinus":
[95, 40, 25, 20, 10, 10, 5, 5],
"errSysPlus":
[0., 0., 0., 0., 0., 0., 0., 0.],
"errSysMinus":
[0., 0., 0., 0., 0., 0., 0., 0.],
"binMin":
[0.1, 0.15, 0.2, 0.25, 0.3, 0.35, 0.4, 0.45],
"binMax":
[0.15, 0.2, 0.25, 0.3, 0.35, 0.4, 0.45, 0.5]
},
"imageblobslnk":NULL,"scoreslnk":2,"accesslnk":1,
"parnames":["theta interval for secondary particle"], "parvalues":["1.35-1.55"]
},
{
"trid":1,"testlnk":0,"referencelnk":45,"mcdetaillnk":1,
"beamlnk":48,"targetlnk":29,"observablelnk":8,"secondarylnk":-211,"reactionlnk":1,
"datatable":{
"dtid":1,"datatypeslnk":2,
"title":"Production of pi- in pi- on Cu interactions at 8GeV/c, 1.55<theta<1.75 [rad]",
"npoints":0,
"nbins":[8],
"axisTitle":["momentum of pi- [GeV/c]","Cross section [mb/(GeV/c/rad)]"],
"val":
[770, 710, 490, 340, 240, 180, 140, 100],
"errStatPlus":
[90, 30, 20, 15, 10, 5, 5, 5],
"errStatMinus":
[90, 30, 20, 15, 10, 5, 5, 5],
"errSysPlus":
[0., 0., 0., 0., 0., 0., 0., 0.],
"errSysMinus":
[0., 0., 0., 0., 0., 0., 0., 0.],
"binMin":
[0.1, 0.15, 0.2, 0.25, 0.3, 0.35, 0.4, 0.45],
"binMax":
[0.15, 0.2, 0.25, 0.3, 0.35, 0.4, 0.45, 0.5]
},
"imageblobslnk":NULL,"scoreslnk":2,"accesslnk":1,
"parnames":["theta interval for secondary particle"], "parvalues":["1.55-1.75"]
},
{
"trid":1,"testlnk":0,"referencelnk":45,"mcdetaillnk":1,
"beamlnk":48,"targetlnk":29,"observablelnk":8,"secondarylnk":-211,"reactionlnk":1,
"datatable":{
"dtid":1,"datatypeslnk":2,
"title":"Production of pi- in pi- on Cu interactions at 8GeV/c, 1.75<theta<1.95 [rad]",
"npoints":0,
"nbins":[8],
"axisTitle":["momentum of pi- [GeV/c]","Cross section [mb/(GeV/c/rad)]"],
"val":
[620, 610, 370, 240, 170, 130, 100, 70],
"errStatPlus":
[60, 20, 15, 10, 5, 5, 5, 5],
"errStatMinus":
[60, 20, 15, 10, 5, 5, 5, 5],
"errSysPlus":
[0., 0., 0., 0., 0., 0., 0., 0.],
"errSysMinus":
[0., 0., 0., 0., 0., 0., 0., 0.],
"binMin":
[0.1, 0.15, 0.2, 0.25, 0.3, 0.35, 0.4, 0.45],
"binMax":
[0.15, 0.2, 0.25, 0.3, 0.35, 0.4, 0.45, 0.5]
},
"imageblobslnk":NULL,"scoreslnk":2,"accesslnk":1,
"parnames":["theta interval for secondary particle"], "parvalues":["1.75-1.95"]
},
{
"trid":1,"testlnk":0,"referencelnk":45,"mcdetaillnk":1,
"beamlnk":48,"targetlnk":29,"observablelnk":8,"secondarylnk":-211,"reactionlnk":1,
"datatable":{
"dtid":1,"datatypeslnk":2,
"title":"Production of pi- in pi- on Cu interactions at 8GeV/c, 1.95<theta<2.15 [rad]",
"npoints":0,
"nbins":[8],
"axisTitle":["momentum of pi- [GeV/c]","Cross section [mb/(GeV/c/rad)]"],
"val":
[500, 480, 300, 160, 110, 80, 60, 50],
"errStatPlus":
[40, 15, 10, 5, 5, 5, 5, 5],
"errStatMinus":
[40, 15, 10, 5, 5, 5, 5, 5],
"errSysPlus":
[0., 0., 0., 0., 0., 0., 0., 0.],
"errSysMinus":
[0., 0., 0., 0., 0., 0., 0., 0.],
"binMin":
[0.1, 0.15, 0.2, 0.25, 0.3, 0.35, 0.4, 0.45],
"binMax":
[0.15, 0.2, 0.25, 0.3, 0.35, 0.4, 0.45, 0.5]
},
"imageblobslnk":NULL,"scoreslnk":2,"accesslnk":1,
"parnames":["theta interval for secondary particle"], "parvalues":["1.95-2.15"]
},
{
"trid":1,"testlnk":0,"referencelnk":44,"mcdetaillnk":1,
"beamlnk":49,"targetlnk":29,"observablelnk":8,"secondarylnk":-211,"reactionlnk":1,
"datatable":{
"dtid":1,"datatypeslnk":2,
"title":"Production of pi- in pi- on Cu interactions at 12GeV/c, 0.05<theta<0.1 [rad]",
"npoints":0,
"nbins":[10],
"axisTitle":["momentum of pi- [GeV/c]","Cross section [mb/(GeV/c/rad)]"],
"val":
[1120, 960, 940, 1030, 760, 780, 680, 480, 340, 210],
"errStatPlus":
[60, 40, 35, 35, 30, 30, 25, 15, 10, 10],
"errStatMinus":
[60, 40, 35, 35, 30, 30, 25, 15, 10, 10],
"errSysPlus":
[0., 0., 0., 0., 0., 0., 0., 0., 0., 0.],
"errSysMinus":
[0., 0., 0., 0., 0., 0., 0., 0., 0., 0.],
"binMin":
[0.5, 1, 1.5, 2, 2.5, 3, 3.5, 4, 5, 6.5],
"binMax":
[1, 1.5, 2, 2.5, 3, 3.5, 4, 5, 6.5, 8]
},
"imageblobslnk":NULL,"scoreslnk":2,"accesslnk":1,
"parnames":["theta interval for secondary particle"], "parvalues":["0.05-0.1"]
},
{
"trid":1,"testlnk":0,"referencelnk":44,"mcdetaillnk":1,
"beamlnk":49,"targetlnk":29,"observablelnk":8,"secondarylnk":-211,"reactionlnk":1,
"datatable":{
"dtid":1,"datatypeslnk":2,
"title":"Production of pi- in pi- on Cu interactions at 12GeV/c, 0.1<theta<0.15 [rad]",
"npoints":0,
"nbins":[10],
"axisTitle":["momentum of pi- [GeV/c]","Cross section [mb/(GeV/c/rad)]"],
"val":
[1100, 1000, 850, 820, 630, 490, 330, 250, 100, 35],
"errStatPlus":
[60, 45, 40, 35, 30, 25, 15, 15, 6.5, 3],
"errStatMinus":
[60, 45, 40, 35, 30, 25, 15, 15, 6.5, 3],
"errSysPlus":
[0., 0., 0., 0., 0., 0., 0., 0., 0., 0.],
"errSysMinus":
[0., 0., 0., 0., 0., 0., 0., 0., 0., 0.],
"binMin":
[0.5, 1, 1.5, 2, 2.5, 3, 3.5, 4, 5, 6.5],
"binMax":
[1, 1.5, 2, 2.5, 3, 3.5, 4, 5, 6.5, 8]
},
"imageblobslnk":NULL,"scoreslnk":2,"accesslnk":1,
"parnames":["theta interval for secondary particle"], "parvalues":["0.1-0.15"]
},
{
"trid":1,"testlnk":0,"referencelnk":44,"mcdetaillnk":1,
"beamlnk":49,"targetlnk":29,"observablelnk":8,"secondarylnk":-211,"reactionlnk":1,
"datatable":{
"dtid":1,"datatypeslnk":2,
"title":"Production of pi- in pi- on Cu interactions at 12GeV/c, 0.15<theta<0.2 [rad]",
"npoints":0,
"nbins":[10],
"axisTitle":["momentum of pi- [GeV/c]","Cross section [mb/(GeV/c/rad)]"],
"val":
[1050, 860, 650, 500, 320, 190, 150, 88, 37, 9],
"errStatPlus":
[65, 45, 35, 25, 20, 15, 10, 6.5, 3.5, 1.5],
"errStatMinus":
[65, 45, 35, 25, 20, 15, 10, 6.5, 3.5, 1.5],
"errSysPlus":
[0., 0., 0., 0., 0., 0., 0., 0., 0., 0.],
"errSysMinus":
[0., 0., 0., 0., 0., 0., 0., 0., 0., 0.],
"binMin":
[0.5, 1, 1.5, 2, 2.5, 3, 3.5, 4, 5, 6.5],
"binMax":
[1, 1.5, 2, 2.5, 3, 3.5, 4, 5, 6.5, 8]
},
"imageblobslnk":NULL,"scoreslnk":2,"accesslnk":1,
"parnames":["theta interval for secondary particle"], "parvalues":["0.15-0.2"]
},
{
"trid":1,"testlnk":0,"referencelnk":44,"mcdetaillnk":1,
"beamlnk":49,"targetlnk":29,"observablelnk":8,"secondarylnk":-211,"reactionlnk":1,
"datatable":{
"dtid":1,"datatypeslnk":2,
"title":"Production of pi- in pi- on Cu interactions at 12GeV/c, 0.2<theta<0.25 [rad]",
"npoints":0,
"nbins":[10],
"axisTitle":["momentum of pi- [GeV/c]","Cross section [mb/(GeV/c/rad)]"],
"val":
[720, 380, 420, 310, 160, 130, 110, 80, 29, 6],
"errStatPlus":
[50, 30, 35, 30, 20, 15, 10, 10, 5, 3],
"errStatMinus":
[50, 30, 35, 30, 20, 15, 10, 10, 5, 3],
"errSysPlus":
[0., 0., 0., 0., 0., 0., 0., 0., 0., 0.],
"errSysMinus":
[0., 0., 0., 0., 0., 0., 0., 0., 0., 0.],
"binMin":
[0.5, 1, 1.5, 2, 2.5, 3, 3.5, 4, 5, 6.5],
"binMax":
[1, 1.5, 2, 2.5, 3, 3.5, 4, 5, 6.5, 8]
},
"imageblobslnk":NULL,"scoreslnk":2,"accesslnk":1,
"parnames":["theta interval for secondary particle"], "parvalues":["0.2-0.25"]
},
{
"trid":1,"testlnk":0,"referencelnk":45,"mcdetaillnk":1,
"beamlnk":49,"targetlnk":29,"observablelnk":8,"secondarylnk":-211,"reactionlnk":1,
"datatable":{
"dtid":1,"datatypeslnk":2,
"title":"Production of pi- in pi- on Cu interactions at 12GeV/c, 0.35<theta<0.55 [rad]",
"npoints":0,
"nbins":[10],
"axisTitle":["momentum of pi- [GeV/c]","Cross section [mb/(GeV/c/rad)]"],
"val":
[860, 1070, 1300, 1440, 1100, 1180, 1340, 1180, 1260, 1030],
"errStatPlus":
[125, 90, 55, 55, 40, 60, 45, 40, 50, 75],
"errStatMinus":
[125, 90, 55, 55, 40, 60, 45, 40, 50, 75],
"errSysPlus":
[0., 0., 0., 0., 0., 0., 0., 0., 0., 0.],
"errSysMinus":
[0., 0., 0., 0., 0., 0., 0., 0., 0., 0.],
"binMin":
[0.15, 0.2, 0.25, 0.3, 0.35, 0.4, 0.45, 0.5, 0.6, 0.7],
"binMax":
[0.2, 0.25, 0.3, 0.35, 0.4, 0.45, 0.5, 0.6, 0.7, 0.8]
},
"imageblobslnk":NULL,"scoreslnk":2,"accesslnk":1,
"parnames":["theta interval for secondary particle"], "parvalues":["0.35-0.55"]
},
{
"trid":1,"testlnk":0,"referencelnk":45,"mcdetaillnk":1,
"beamlnk":49,"targetlnk":29,"observablelnk":8,"secondarylnk":-211,"reactionlnk":1,
"datatable":{
"dtid":1,"datatypeslnk":2,
"title":"Production of pi- in pi- on Cu interactions at 12GeV/c, 0.55<theta<0.75 [rad]",
"npoints":0,
"nbins":[11],
"axisTitle":["momentum of pi- [GeV/c]","Cross section [mb/(GeV/c/rad)]"],
"val":
[520, 840, 1170, 1130, 1250, 1110, 960, 990, 820, 680, 540],
"errStatPlus":
[120, 80, 65, 45, 45, 30, 25, 30, 30, 35, 35],
"errStatMinus":
[120, 80, 65, 45, 45, 30, 25, 30, 30, 35, 35],
"errSysPlus":
[0., 0., 0., 0., 0., 0., 0., 0., 0., 0., 0.],
"errSysMinus":
[0., 0., 0., 0., 0., 0., 0., 0., 0., 0., 0.],
"binMin":
[0.1, 0.15, 0.2, 0.25, 0.3, 0.35, 0.4, 0.45, 0.5, 0.6, 0.7],
"binMax":
[0.15, 0.2, 0.25, 0.3, 0.35, 0.4, 0.45, 0.5, 0.6, 0.7, 0.8]
},
"imageblobslnk":NULL,"scoreslnk":2,"accesslnk":1,
"parnames":["theta interval for secondary particle"], "parvalues":["0.55-0.75"]
},
{
"trid":1,"testlnk":0,"referencelnk":45,"mcdetaillnk":1,
"beamlnk":49,"targetlnk":29,"observablelnk":8,"secondarylnk":-211,"reactionlnk":1,
"datatable":{
"dtid":1,"datatypeslnk":2,
"title":"Production of pi- in pi- on Cu interactions at 12GeV/c, 0.75<theta<0.95 [rad]",
"npoints":0,
"nbins":[10],
"axisTitle":["momentum of pi- [GeV/c]","Cross section [mb/(GeV/c/rad)]"],
"val":
[630, 990, 1110, 1100, 860, 680, 630, 600, 470, 350],
"errStatPlus":
[95, 55, 50, 35, 30, 20, 25, 20, 20, 20],
"errStatMinus":
[95, 55, 50, 35, 30, 20, 25, 20, 20, 20],
"errSysPlus":
[0., 0., 0., 0., 0., 0., 0., 0., 0., 0.],
"errSysMinus":
[0., 0., 0., 0., 0., 0., 0., 0., 0., 0.],
"binMin":
[0.1, 0.15, 0.2, 0.25, 0.3, 0.35, 0.4, 0.45, 0.5, 0.6],
"binMax":
[0.15, 0.2, 0.25, 0.3, 0.35, 0.4, 0.45, 0.5, 0.6, 0.7]
},
"imageblobslnk":NULL,"scoreslnk":2,"accesslnk":1,
"parnames":["theta interval for secondary particle"], "parvalues":["0.75-0.95"]
},
{
"trid":1,"testlnk":0,"referencelnk":45,"mcdetaillnk":1,
"beamlnk":49,"targetlnk":29,"observablelnk":8,"secondarylnk":-211,"reactionlnk":1,
"datatable":{
"dtid":1,"datatypeslnk":2,
"title":"Production of pi- in pi- on Cu interactions at 12GeV/c, 0.95<theta<1.15 [rad]",
"npoints":0,
"nbins":[9],
"axisTitle":["momentum of pi- [GeV/c]","Cross section [mb/(GeV/c/rad)]"],
"val":
[690, 930, 820, 740, 580, 560, 440, 360, 280],
"errStatPlus":
[75, 50, 35, 20, 20, 20, 20, 25, 15],
"errStatMinus":
[75, 50, 35, 20, 20, 20, 20, 25, 15],
"errSysPlus":
[0., 0., 0., 0., 0., 0., 0., 0., 0.],
"errSysMinus":
[0., 0., 0., 0., 0., 0., 0., 0., 0.],
"binMin":
[0.1, 0.15, 0.2, 0.25, 0.3, 0.35, 0.4, 0.45, 0.5],
"binMax":
[0.15, 0.2, 0.25, 0.3, 0.35, 0.4, 0.45, 0.5, 0.6]
},
"imageblobslnk":NULL,"scoreslnk":2,"accesslnk":1,
"parnames":["theta interval for secondary particle"], "parvalues":["0.95-1.15"]
},
{
"trid":1,"testlnk":0,"referencelnk":45,"mcdetaillnk":1,
"beamlnk":49,"targetlnk":29,"observablelnk":8,"secondarylnk":-211,"reactionlnk":1,
"datatable":{
"dtid":1,"datatypeslnk":2,
"title":"Production of pi- in pi- on Cu interactions at 12GeV/c, 1.15<theta<1.35 [rad]",
"npoints":0,
"nbins":[8],
"axisTitle":["momentum of pi- [GeV/c]","Cross section [mb/(GeV/c/rad)]"],
"val":
[760, 890, 750, 610, 460, 360, 270, 210],
"errStatPlus":
[75, 45, 30, 25, 15, 15, 15, 15],
"errStatMinus":
[75, 45, 30, 25, 15, 15, 15, 15],
"errSysPlus":
[0., 0., 0., 0., 0., 0., 0., 0.],
"errSysMinus":
[0., 0., 0., 0., 0., 0., 0., 0.],
"binMin":
[0.1, 0.15, 0.2, 0.25, 0.3, 0.35, 0.4, 0.45],
"binMax":
[0.15, 0.2, 0.25, 0.3, 0.35, 0.4, 0.45, 0.5]
},
"imageblobslnk":NULL,"scoreslnk":2,"accesslnk":1,
"parnames":["theta interval for secondary particle"], "parvalues":["1.15-1.35"]
},
{
"trid":1,"testlnk":0,"referencelnk":45,"mcdetaillnk":1,
"beamlnk":49,"targetlnk":29,"observablelnk":8,"secondarylnk":-211,"reactionlnk":1,
"datatable":{
"dtid":1,"datatypeslnk":2,
"title":"Production of pi- in pi- on Cu interactions at 12GeV/c, 1.35<theta<1.55 [rad]",
"npoints":0,
"nbins":[8],
"axisTitle":["momentum of pi- [GeV/c]","Cross section [mb/(GeV/c/rad)]"],
"val":
[750, 740, 610, 540, 340, 210, 150, 100],
"errStatPlus":
[95, 40, 30, 30, 15, 15, 10, 5],
"errStatMinus":
[95, 40, 30, 30, 15, 15, 10, 5],
"errSysPlus":
[0., 0., 0., 0., 0., 0., 0., 0.],
"errSysMinus":
[0., 0., 0., 0., 0., 0., 0., 0.],
"binMin":
[0.1, 0.15, 0.2, 0.25, 0.3, 0.35, 0.4, 0.45],
"binMax":
[0.15, 0.2, 0.25, 0.3, 0.35, 0.4, 0.45, 0.5]
},
"imageblobslnk":NULL,"scoreslnk":2,"accesslnk":1,
"parnames":["theta interval for secondary particle"], "parvalues":["1.35-1.55"]
},
{
"trid":1,"testlnk":0,"referencelnk":45,"mcdetaillnk":1,
"beamlnk":49,"targetlnk":29,"observablelnk":8,"secondarylnk":-211,"reactionlnk":1,
"datatable":{
"dtid":1,"datatypeslnk":2,
"title":"Production of pi- in pi- on Cu interactions at 12GeV/c, 1.55<theta<1.75 [rad]",
"npoints":0,
"nbins":[8],
"axisTitle":["momentum of pi- [GeV/c]","Cross section [mb/(GeV/c/rad)]"],
"val":
[480, 590, 480, 300, 230, 150, 100, 70],
"errStatPlus":
[65, 30, 20, 10, 10, 10, 10, 5],
"errStatMinus":
[65, 30, 20, 10, 10, 10, 10, 5],
"errSysPlus":
[0., 0., 0., 0., 0., 0., 0., 0.],
"errSysMinus":
[0., 0., 0., 0., 0., 0., 0., 0.],
"binMin":
[0.1, 0.15, 0.2, 0.25, 0.3, 0.35, 0.4, 0.45],
"binMax":
[0.15, 0.2, 0.25, 0.3, 0.35, 0.4, 0.45, 0.5]
},
"imageblobslnk":NULL,"scoreslnk":2,"accesslnk":1,
"parnames":["theta interval for secondary particle"], "parvalues":["1.55-1.75"]
},
{
"trid":1,"testlnk":0,"referencelnk":45,"mcdetaillnk":1,
"beamlnk":49,"targetlnk":29,"observablelnk":8,"secondarylnk":-211,"reactionlnk":1,
"datatable":{
"dtid":1,"datatypeslnk":2,
"title":"Production of pi- in pi- on Cu interactions at 12GeV/c, 1.75<theta<1.95 [rad]",
"npoints":0,
"nbins":[8],
"axisTitle":["momentum of pi- [GeV/c]","Cross section [mb/(GeV/c/rad)]"],
"val":
[430, 570, 370, 200, 150, 80, 70, 60],
"errStatPlus":
[45, 30, 20, 10, 10, 5, 5, 5],
"errStatMinus":
[45, 30, 20, 10, 10, 5, 5, 5],
"errSysPlus":
[0., 0., 0., 0., 0., 0., 0., 0.],
"errSysMinus":
[0., 0., 0., 0., 0., 0., 0., 0.],
"binMin":
[0.1, 0.15, 0.2, 0.25, 0.3, 0.35, 0.4, 0.45],
"binMax":
[0.15, 0.2, 0.25, 0.3, 0.35, 0.4, 0.45, 0.5]
},
"imageblobslnk":NULL,"scoreslnk":2,"accesslnk":1,
"parnames":["theta interval for secondary particle"], "parvalues":["1.75-1.95"]
},
{
"trid":1,"testlnk":0,"referencelnk":45,"mcdetaillnk":1,
"beamlnk":49,"targetlnk":29,"observablelnk":8,"secondarylnk":-211,"reactionlnk":1,
"datatable":{
"dtid":1,"datatypeslnk":2,
"title":"Production of pi- in pi- on Cu interactions at 12GeV/c, 1.95<theta<2.15 [rad]",
"npoints":0,
"nbins":[8],
"axisTitle":["momentum of pi- [GeV/c]","Cross section [mb/(GeV/c/rad)]"],
"val":
[430, 460, 290, 160, 90, 40, 30, 30],
"errStatPlus":
[30, 20, 15, 10, 5, 5, 5, 5],
"errStatMinus":
[30, 20, 15, 10, 5, 5, 5, 5],
"errSysPlus":
[0., 0., 0., 0., 0., 0., 0., 0.],
"errSysMinus":
[0., 0., 0., 0., 0., 0., 0., 0.],
"binMin":
[0.1, 0.15, 0.2, 0.25, 0.3, 0.35, 0.4, 0.45],
"binMax":
[0.15, 0.2, 0.25, 0.3, 0.35, 0.4, 0.45, 0.5]
},
"imageblobslnk":NULL,"scoreslnk":2,"accesslnk":1,
"parnames":["theta interval for secondary particle"], "parvalues":["1.95-2.15"]
}
]}
