{"ResultList":[
{
"trid":1,"testlnk":0,"referencelnk":44,"mcdetaillnk":1,
"beamlnk":42,"targetlnk":4,"observablelnk":8,"secondarylnk":211,"reactionlnk":1,
"datatable":{
"dtid":1,"datatypeslnk":2,
"title":"Production of pi+ in pi+ on Be interactions at 3GeV/c, 0.05<theta<0.1 [rad]",
"npoints":0,
"nbins":[10],
"axisTitle":["momentum of pi+ [GeV/c]","Cross section [mb/(GeV/c/rad)]"],
"val":
[80, 46, 87, 220, -1000, -1000, -1000, -1000, -1000, -1000],
"errStatPlus":
[10, 4.5, 4.5, 25, -500, -500, -500, -500, -500, -500],
"errStatMinus":
[10, 4.5, 4.5, 25, -500, -500, -500, -500, -500, -500],
"errSysPlus":
[0., 0., 0., 0., 0., 0., 0., 0., 0., 0.],
"errSysMinus":
[0., 0., 0., 0., 0., 0., 0., 0., 0., 0.],
"binMin":
[0.5, 1, 1.5, 2, 2.5, 3, 3.5, 4, 5, 6.5],
"binMax":
[1, 1.5, 2, 2.5, 3, 3.5, 4, 5, 6.5, 8]
},
"imageblobslnk":NULL,"scoreslnk":2,"accesslnk":1,
"parnames":["theta interval for secondary particle"], "parvalues":["0.05-0.1"]
},
{
"trid":1,"testlnk":0,"referencelnk":44,"mcdetaillnk":1,
"beamlnk":42,"targetlnk":4,"observablelnk":8,"secondarylnk":211,"reactionlnk":1,
"datatable":{
"dtid":1,"datatypeslnk":2,
"title":"Production of pi+ in pi+ on Be interactions at 3GeV/c, 0.1<theta<0.15 [rad]",
"npoints":0,
"nbins":[10],
"axisTitle":["momentum of pi+ [GeV/c]","Cross section [mb/(GeV/c/rad)]"],
"val":
[70, 81, 160, 160, -1000, -1000, -1000, -1000, -1000, -1000],
"errStatPlus":
[10, 6.5, 10, 10, -500, -500, -500, -500, -500, -500],
"errStatMinus":
[10, 6.5, 10, 10, -500, -500, -500, -500, -500, -500],
"errSysPlus":
[0., 0., 0., 0., 0., 0., 0., 0., 0., 0.],
"errSysMinus":
[0., 0., 0., 0., 0., 0., 0., 0., 0., 0.],
"binMin":
[0.5, 1, 1.5, 2, 2.5, 3, 3.5, 4, 5, 6.5],
"binMax":
[1, 1.5, 2, 2.5, 3, 3.5, 4, 5, 6.5, 8]
},
"imageblobslnk":NULL,"scoreslnk":2,"accesslnk":1,
"parnames":["theta interval for secondary particle"], "parvalues":["0.1-0.15"]
},
{
"trid":1,"testlnk":0,"referencelnk":44,"mcdetaillnk":1,
"beamlnk":42,"targetlnk":4,"observablelnk":8,"secondarylnk":211,"reactionlnk":1,
"datatable":{
"dtid":1,"datatypeslnk":2,
"title":"Production of pi+ in pi+ on Be interactions at 3GeV/c, 0.15<theta<0.2 [rad]",
"npoints":0,
"nbins":[10],
"axisTitle":["momentum of pi+ [GeV/c]","Cross section [mb/(GeV/c/rad)]"],
"val":
[110, 98, 77, 90, -1000, -1000, -1000, -1000, -1000, -1000],
"errStatPlus":
[10, 7, 5.5, 10, -500, -500, -500, -500, -500, -500],
"errStatMinus":
[10, 7, 5.5, 10, -500, -500, -500, -500, -500, -500],
"errSysPlus":
[0., 0., 0., 0., 0., 0., 0., 0., 0., 0.],
"errSysMinus":
[0., 0., 0., 0., 0., 0., 0., 0., 0., 0.],
"binMin":
[0.5, 1, 1.5, 2, 2.5, 3, 3.5, 4, 5, 6.5],
"binMax":
[1, 1.5, 2, 2.5, 3, 3.5, 4, 5, 6.5, 8]
},
"imageblobslnk":NULL,"scoreslnk":2,"accesslnk":1,
"parnames":["theta interval for secondary particle"], "parvalues":["0.15-0.2"]
},
{
"trid":1,"testlnk":0,"referencelnk":44,"mcdetaillnk":1,
"beamlnk":42,"targetlnk":4,"observablelnk":8,"secondarylnk":211,"reactionlnk":1,
"datatable":{
"dtid":1,"datatypeslnk":2,
"title":"Production of pi+ in pi+ on Be interactions at 3GeV/c, 0.2<theta<0.25 [rad]",
"npoints":0,
"nbins":[10],
"axisTitle":["momentum of pi+ [GeV/c]","Cross section [mb/(GeV/c/rad)]"],
"val":
[70, 57, 26, 21, -1000, -1000, -1000, -1000, -1000, -1000],
"errStatPlus":
[10, 6.5, 3.5, 3.5, -500, -500, -500, -500, -500, -500],
"errStatMinus":
[10, 6.5, 3.5, 3.5, -500, -500, -500, -500, -500, -500],
"errSysPlus":
[0., 0., 0., 0., 0., 0., 0., 0., 0., 0.],
"errSysMinus":
[0., 0., 0., 0., 0., 0., 0., 0., 0., 0.],
"binMin":
[0.5, 1, 1.5, 2, 2.5, 3, 3.5, 4, 5, 6.5],
"binMax":
[1, 1.5, 2, 2.5, 3, 3.5, 4, 5, 6.5, 8]
},
"imageblobslnk":NULL,"scoreslnk":2,"accesslnk":1,
"parnames":["theta interval for secondary particle"], "parvalues":["0.2-0.25"]
},
{
"trid":1,"testlnk":0,"referencelnk":45,"mcdetaillnk":1,
"beamlnk":42,"targetlnk":4,"observablelnk":8,"secondarylnk":211,"reactionlnk":1,
"datatable":{
"dtid":1,"datatypeslnk":2,
"title":"Production of pi+ in pi+ on Be interactions at 3GeV/c, 0.35<theta<0.55 [rad]",
"npoints":0,
"nbins":[10],
"axisTitle":["momentum of pi+ [GeV/c]","Cross section [mb/(GeV/c/rad)]"],
"val":
[90, 140, 165, 199, 212, 240, 258, 257, 244, 211],
"errStatPlus":
[6.5, 7, 7, 7.5, 10, 7.5, 7.5, 8, 10.5, 16.5],
"errStatMinus":
[6.5, 7, 7, 7.5, 10, 7.5, 7.5, 8, 10.5, 16.5],
"errSysPlus":
[0., 0., 0., 0., 0., 0., 0., 0., 0., 0.],
"errSysMinus":
[0., 0., 0., 0., 0., 0., 0., 0., 0., 0.],
"binMin":
[0.15, 0.2, 0.25, 0.3, 0.35, 0.4, 0.45, 0.5, 0.6, 0.7],
"binMax":
[0.2, 0.25, 0.3, 0.35, 0.4, 0.45, 0.5, 0.6, 0.7, 0.8]
},
"imageblobslnk":NULL,"scoreslnk":2,"accesslnk":1,
"parnames":["theta interval for secondary particle"], "parvalues":["0.35-0.55"]
},
{
"trid":1,"testlnk":0,"referencelnk":45,"mcdetaillnk":1,
"beamlnk":42,"targetlnk":4,"observablelnk":8,"secondarylnk":211,"reactionlnk":1,
"datatable":{
"dtid":1,"datatypeslnk":2,
"title":"Production of pi+ in pi+ on Be interactions at 3GeV/c, 0.55<theta<0.75 [rad]",
"npoints":0,
"nbins":[11],
"axisTitle":["momentum of pi+ [GeV/c]","Cross section [mb/(GeV/c/rad)]"],
"val":
[104, 136, 193, 224, 218, 240, 250, 231, 204, 185, 131],
"errStatPlus":
[9.5, 5.5, 8, 8, 8, 8, 6.5, 6, 7, 10.5, 11],
"errStatMinus":
[9.5, 5.5, 8, 8, 8, 8, 6.5, 6, 7, 10.5, 11],
"errSysPlus":
[0., 0., 0., 0., 0., 0., 0., 0., 0., 0., 0.],
"errSysMinus":
[0., 0., 0., 0., 0., 0., 0., 0., 0., 0., 0.],
"binMin":
[0.1, 0.15, 0.2, 0.25, 0.3, 0.35, 0.4, 0.45, 0.5, 0.6, 0.7],
"binMax":
[0.15, 0.2, 0.25, 0.3, 0.35, 0.4, 0.45, 0.5, 0.6, 0.7, 0.8]
},
"imageblobslnk":NULL,"scoreslnk":2,"accesslnk":1,
"parnames":["theta interval for secondary particle"], "parvalues":["0.55-0.75"]
},
{
"trid":1,"testlnk":0,"referencelnk":45,"mcdetaillnk":1,
"beamlnk":42,"targetlnk":4,"observablelnk":8,"secondarylnk":211,"reactionlnk":1,
"datatable":{
"dtid":1,"datatypeslnk":2,
"title":"Production of pi+ in pi+ on Be interactions at 3GeV/c, 0.75<theta<0.95 [rad]",
"npoints":0,
"nbins":[10],
"axisTitle":["momentum of pi+ [GeV/c]","Cross section [mb/(GeV/c/rad)]"],
"val":
[82, 175, 210, 230, 221, 197, 175, 169, 138, 101],
"errStatPlus":
[6.5, 8.5, 7, 7.5, 6.5, 5, 4.5, 4.5, 5.5, 7],
"errStatMinus":
[6.5, 8.5, 7, 7.5, 6.5, 5, 4.5, 4.5, 5.5, 7],
"errSysPlus":
[0., 0., 0., 0., 0., 0., 0., 0., 0., 0.],
"errSysMinus":
[0., 0., 0., 0., 0., 0., 0., 0., 0., 0.],
"binMin":
[0.1, 0.15, 0.2, 0.25, 0.3, 0.35, 0.4, 0.45, 0.5, 0.6],
"binMax":
[0.15, 0.2, 0.25, 0.3, 0.35, 0.4, 0.45, 0.5, 0.6, 0.7]
},
"imageblobslnk":NULL,"scoreslnk":2,"accesslnk":1,
"parnames":["theta interval for secondary particle"], "parvalues":["0.75-0.95"]
},
{
"trid":1,"testlnk":0,"referencelnk":45,"mcdetaillnk":1,
"beamlnk":42,"targetlnk":4,"observablelnk":8,"secondarylnk":211,"reactionlnk":1,
"datatable":{
"dtid":1,"datatypeslnk":2,
"title":"Production of pi+ in pi+ on Be interactions at 3GeV/c, 0.95<theta<1.15 [rad]",
"npoints":0,
"nbins":[9],
"axisTitle":["momentum of pi+ [GeV/c]","Cross section [mb/(GeV/c/rad)]"],
"val":
[99, 185, 205, 165, 155, 143, 130, 113, 78],
"errStatPlus":
[6.5, 8.5, 5.5, 5.5, 4.5, 4, 3, 3, 4.5],
"errStatMinus":
[6.5, 8.5, 5.5, 5.5, 4.5, 4, 3, 3, 4.5],
"errSysPlus":
[0., 0., 0., 0., 0., 0., 0., 0., 0.],
"errSysMinus":
[0., 0., 0., 0., 0., 0., 0., 0., 0.],
"binMin":
[0.1, 0.15, 0.2, 0.25, 0.3, 0.35, 0.4, 0.45, 0.5],
"binMax":
[0.15, 0.2, 0.25, 0.3, 0.35, 0.4, 0.45, 0.5, 0.6]
},
"imageblobslnk":NULL,"scoreslnk":2,"accesslnk":1,
"parnames":["theta interval for secondary particle"], "parvalues":["0.95-1.15"]
},
{
"trid":1,"testlnk":0,"referencelnk":45,"mcdetaillnk":1,
"beamlnk":42,"targetlnk":4,"observablelnk":8,"secondarylnk":211,"reactionlnk":1,
"datatable":{
"dtid":1,"datatypeslnk":2,
"title":"Production of pi+ in pi+ on Be interactions at 3GeV/c, 1.15<theta<1.35 [rad]",
"npoints":0,
"nbins":[8],
"axisTitle":["momentum of pi+ [GeV/c]","Cross section [mb/(GeV/c/rad)]"],
"val":
[105, 180, 169, 135, 115, 87, 75, 62],
"errStatPlus":
[6, 9, 5.5, 4, 3.5, 3, 2.5, 2.5],
"errStatMinus":
[6, 9, 5.5, 4, 3.5, 3, 2.5, 2.5],
"errSysPlus":
[0., 0., 0., 0., 0., 0., 0., 0.],
"errSysMinus":
[0., 0., 0., 0., 0., 0., 0., 0.],
"binMin":
[0.1, 0.15, 0.2, 0.25, 0.3, 0.35, 0.4, 0.45],
"binMax":
[0.15, 0.2, 0.25, 0.3, 0.35, 0.4, 0.45, 0.5]
},
"imageblobslnk":NULL,"scoreslnk":2,"accesslnk":1,
"parnames":["theta interval for secondary particle"], "parvalues":["1.15-1.35"]
},
{
"trid":1,"testlnk":0,"referencelnk":45,"mcdetaillnk":1,
"beamlnk":42,"targetlnk":4,"observablelnk":8,"secondarylnk":211,"reactionlnk":1,
"datatable":{
"dtid":1,"datatypeslnk":2,
"title":"Production of pi+ in pi+ on Be interactions at 3GeV/c, 1.35<theta<1.55 [rad]",
"npoints":0,
"nbins":[8],
"axisTitle":["momentum of pi+ [GeV/c]","Cross section [mb/(GeV/c/rad)]"],
"val":
[118, 162, 138, 99, 76, 62, 45, 33],
"errStatPlus":
[6.5, 6.5, 5, 3.5, 2.5, 2, 2, 1.5],
"errStatMinus":
[6.5, 6.5, 5, 3.5, 2.5, 2, 2, 1.5],
"errSysPlus":
[0., 0., 0., 0., 0., 0., 0., 0.],
"errSysMinus":
[0., 0., 0., 0., 0., 0., 0., 0.],
"binMin":
[0.1, 0.15, 0.2, 0.25, 0.3, 0.35, 0.4, 0.45],
"binMax":
[0.15, 0.2, 0.25, 0.3, 0.35, 0.4, 0.45, 0.5]
},
"imageblobslnk":NULL,"scoreslnk":2,"accesslnk":1,
"parnames":["theta interval for secondary particle"], "parvalues":["1.35-1.55"]
},
{
"trid":1,"testlnk":0,"referencelnk":45,"mcdetaillnk":1,
"beamlnk":42,"targetlnk":4,"observablelnk":8,"secondarylnk":211,"reactionlnk":1,
"datatable":{
"dtid":1,"datatypeslnk":2,
"title":"Production of pi+ in pi+ on Be interactions at 3GeV/c, 1.55<theta<1.75 [rad]",
"npoints":0,
"nbins":[8],
"axisTitle":["momentum of pi+ [GeV/c]","Cross section [mb/(GeV/c/rad)]"],
"val":
[99, 142, 113, 85, 63, 40, 29, 17],
"errStatPlus":
[6, 5.5, 4.5, 3, 2.5, 1.5, 2, 1.5],
"errStatMinus":
[6, 5.5, 4.5, 3, 2.5, 1.5, 2, 1.5],
"errSysPlus":
[0., 0., 0., 0., 0., 0., 0., 0.],
"errSysMinus":
[0., 0., 0., 0., 0., 0., 0., 0.],
"binMin":
[0.1, 0.15, 0.2, 0.25, 0.3, 0.35, 0.4, 0.45],
"binMax":
[0.15, 0.2, 0.25, 0.3, 0.35, 0.4, 0.45, 0.5]
},
"imageblobslnk":NULL,"scoreslnk":2,"accesslnk":1,
"parnames":["theta interval for secondary particle"], "parvalues":["1.55-1.75"]
},
{
"trid":1,"testlnk":0,"referencelnk":45,"mcdetaillnk":1,
"beamlnk":42,"targetlnk":4,"observablelnk":8,"secondarylnk":211,"reactionlnk":1,
"datatable":{
"dtid":1,"datatypeslnk":2,
"title":"Production of pi+ in pi+ on Be interactions at 3GeV/c, 1.75<theta<1.95 [rad]",
"npoints":0,
"nbins":[8],
"axisTitle":["momentum of pi+ [GeV/c]","Cross section [mb/(GeV/c/rad)]"],
"val":
[95, 123, 78, 54, 44, 25, 15, 9],
"errStatPlus":
[6.5, 4.5, 4, 2.5, 2, 1.5, 1, 1],
"errStatMinus":
[6.5, 4.5, 4, 2.5, 2, 1.5, 1, 1],
"errSysPlus":
[0., 0., 0., 0., 0., 0., 0., 0.],
"errSysMinus":
[0., 0., 0., 0., 0., 0., 0., 0.],
"binMin":
[0.1, 0.15, 0.2, 0.25, 0.3, 0.35, 0.4, 0.45],
"binMax":
[0.15, 0.2, 0.25, 0.3, 0.35, 0.4, 0.45, 0.5]
},
"imageblobslnk":NULL,"scoreslnk":2,"accesslnk":1,
"parnames":["theta interval for secondary particle"], "parvalues":["1.75-1.95"]
},
{
"trid":1,"testlnk":0,"referencelnk":45,"mcdetaillnk":1,
"beamlnk":42,"targetlnk":4,"observablelnk":8,"secondarylnk":211,"reactionlnk":1,
"datatable":{
"dtid":1,"datatypeslnk":2,
"title":"Production of pi+ in pi+ on Be interactions at 3GeV/c, 1.95<theta<2.15 [rad]",
"npoints":0,
"nbins":[8],
"axisTitle":["momentum of pi+ [GeV/c]","Cross section [mb/(GeV/c/rad)]"],
"val":
[78, 99, 66, 42, 27, 19, 10, 4],
"errStatPlus":
[5, 4, 3.5, 2, 1.5, 1.5, 1, 1],
"errStatMinus":
[5, 4, 3.5, 2, 1.5, 1.5, 1, 1],
"errSysPlus":
[0., 0., 0., 0., 0., 0., 0., 0.],
"errSysMinus":
[0., 0., 0., 0., 0., 0., 0., 0.],
"binMin":
[0.1, 0.15, 0.2, 0.25, 0.3, 0.35, 0.4, 0.45],
"binMax":
[0.15, 0.2, 0.25, 0.3, 0.35, 0.4, 0.45, 0.5]
},
"imageblobslnk":NULL,"scoreslnk":2,"accesslnk":1,
"parnames":["theta interval for secondary particle"], "parvalues":["1.95-2.15"]
},
{
"trid":1,"testlnk":0,"referencelnk":44,"mcdetaillnk":1,
"beamlnk":43,"targetlnk":4,"observablelnk":8,"secondarylnk":211,"reactionlnk":1,
"datatable":{
"dtid":1,"datatypeslnk":2,
"title":"Production of pi+ in pi+ on Be interactions at 5GeV/c, 0.05<theta<0.1 [rad]",
"npoints":0,
"nbins":[10],
"axisTitle":["momentum of pi+ [GeV/c]","Cross section [mb/(GeV/c/rad)]"],
"val":
[120, 102, 110, 158, 161, 210, 251, 300, -1000, -1000],
"errStatPlus":
[10, 6.5, 6, 7, 6, 10, 7, 50, -500, -500],
"errStatMinus":
[10, 6.5, 6, 7, 6, 10, 7, 50, -500, -500],
"errSysPlus":
[0., 0., 0., 0., 0., 0., 0., 0., 0., 0.],
"errSysMinus":
[0., 0., 0., 0., 0., 0., 0., 0., 0., 0.],
"binMin":
[0.5, 1, 1.5, 2, 2.5, 3, 3.5, 4, 5, 6.5],
"binMax":
[1, 1.5, 2, 2.5, 3, 3.5, 4, 5, 6.5, 8]
},
"imageblobslnk":NULL,"scoreslnk":2,"accesslnk":1,
"parnames":["theta interval for secondary particle"], "parvalues":["0.05-0.1"]
},
{
"trid":1,"testlnk":0,"referencelnk":44,"mcdetaillnk":1,
"beamlnk":43,"targetlnk":4,"observablelnk":8,"secondarylnk":211,"reactionlnk":1,
"datatable":{
"dtid":1,"datatypeslnk":2,
"title":"Production of pi+ in pi+ on Be interactions at 5GeV/c, 0.1<theta<0.15 [rad]",
"npoints":0,
"nbins":[10],
"axisTitle":["momentum of pi+ [GeV/c]","Cross section [mb/(GeV/c/rad)]"],
"val":
[120, 114, 140, 140, 107, 128, 108, 100, -1000, -1000],
"errStatPlus":
[10, 7, 10, 10, 6, 6.5, 5.5, 20, -500, -500],
"errStatMinus":
[10, 7, 10, 10, 6, 6.5, 5.5, 20, -500, -500],
"errSysPlus":
[0., 0., 0., 0., 0., 0., 0., 0., 0., 0.],
"errSysMinus":
[0., 0., 0., 0., 0., 0., 0., 0., 0., 0.],
"binMin":
[0.5, 1, 1.5, 2, 2.5, 3, 3.5, 4, 5, 6.5],
"binMax":
[1, 1.5, 2, 2.5, 3, 3.5, 4, 5, 6.5, 8]
},
"imageblobslnk":NULL,"scoreslnk":2,"accesslnk":1,
"parnames":["theta interval for secondary particle"], "parvalues":["0.1-0.15"]
},
{
"trid":1,"testlnk":0,"referencelnk":44,"mcdetaillnk":1,
"beamlnk":43,"targetlnk":4,"observablelnk":8,"secondarylnk":211,"reactionlnk":1,
"datatable":{
"dtid":1,"datatypeslnk":2,
"title":"Production of pi+ in pi+ on Be interactions at 5GeV/c, 0.15<theta<0.2 [rad]",
"npoints":0,
"nbins":[10],
"axisTitle":["momentum of pi+ [GeV/c]","Cross section [mb/(GeV/c/rad)]"],
"val":
[140, 122, 79, 90, 39, 30, 23, 16, -1000, -1000],
"errStatPlus":
[10, 7.5, 5, 7.5, 3, 4, 3, 4.5, -500, -500],
"errStatMinus":
[10, 7.5, 5, 7.5, 3, 4, 3, 4.5, -500, -500],
"errSysPlus":
[0., 0., 0., 0., 0., 0., 0., 0., 0., 0.],
"errSysMinus":
[0., 0., 0., 0., 0., 0., 0., 0., 0., 0.],
"binMin":
[0.5, 1, 1.5, 2, 2.5, 3, 3.5, 4, 5, 6.5],
"binMax":
[1, 1.5, 2, 2.5, 3, 3.5, 4, 5, 6.5, 8]
},
"imageblobslnk":NULL,"scoreslnk":2,"accesslnk":1,
"parnames":["theta interval for secondary particle"], "parvalues":["0.15-0.2"]
},
{
"trid":1,"testlnk":0,"referencelnk":44,"mcdetaillnk":1,
"beamlnk":43,"targetlnk":4,"observablelnk":8,"secondarylnk":211,"reactionlnk":1,
"datatable":{
"dtid":1,"datatypeslnk":2,
"title":"Production of pi+ in pi+ on Be interactions at 5GeV/c, 0.2<theta<0.25 [rad]",
"npoints":0,
"nbins":[10],
"axisTitle":["momentum of pi+ [GeV/c]","Cross section [mb/(GeV/c/rad)]"],
"val":
[110, 53, 67, 42, 28, 19, 10, 5, -1000, -1000],
"errStatPlus":
[10, 5, 6.5, 4.5, 3.5, 3, 2, 1.5, -500, -500],
"errStatMinus":
[10, 5, 6.5, 4.5, 3.5, 3, 2, 1.5, -500, -500],
"errSysPlus":
[0., 0., 0., 0., 0., 0., 0., 0., 0., 0.],
"errSysMinus":
[0., 0., 0., 0., 0., 0., 0., 0., 0., 0.],
"binMin":
[0.5, 1, 1.5, 2, 2.5, 3, 3.5, 4, 5, 6.5],
"binMax":
[1, 1.5, 2, 2.5, 3, 3.5, 4, 5, 6.5, 8]
},
"imageblobslnk":NULL,"scoreslnk":2,"accesslnk":1,
"parnames":["theta interval for secondary particle"], "parvalues":["0.2-0.25"]
},
{
"trid":1,"testlnk":0,"referencelnk":45,"mcdetaillnk":1,
"beamlnk":43,"targetlnk":4,"observablelnk":8,"secondarylnk":211,"reactionlnk":1,
"datatable":{
"dtid":1,"datatypeslnk":2,
"title":"Production of pi+ in pi+ on Be interactions at 5GeV/c, 0.35<theta<0.55 [rad]",
"npoints":0,
"nbins":[10],
"axisTitle":["momentum of pi+ [GeV/c]","Cross section [mb/(GeV/c/rad)]"],
"val":
[105, 163, 202, 226, 249, 285, 292, 295, 310, 262],
"errStatPlus":
[8.5, 8.5, 8.5, 9.5, 9.5, 9.5, 7.5, 7.5, 13, 18.5],
"errStatMinus":
[8.5, 8.5, 8.5, 9.5, 9.5, 9.5, 7.5, 7.5, 13, 18.5],
"errSysPlus":
[0., 0., 0., 0., 0., 0., 0., 0., 0., 0.],
"errSysMinus":
[0., 0., 0., 0., 0., 0., 0., 0., 0., 0.],
"binMin":
[0.15, 0.2, 0.25, 0.3, 0.35, 0.4, 0.45, 0.5, 0.6, 0.7],
"binMax":
[0.2, 0.25, 0.3, 0.35, 0.4, 0.45, 0.5, 0.6, 0.7, 0.8]
},
"imageblobslnk":NULL,"scoreslnk":2,"accesslnk":1,
"parnames":["theta interval for secondary particle"], "parvalues":["0.35-0.55"]
},
{
"trid":1,"testlnk":0,"referencelnk":45,"mcdetaillnk":1,
"beamlnk":43,"targetlnk":4,"observablelnk":8,"secondarylnk":211,"reactionlnk":1,
"datatable":{
"dtid":1,"datatypeslnk":2,
"title":"Production of pi+ in pi+ on Be interactions at 5GeV/c, 0.55<theta<0.75 [rad]",
"npoints":0,
"nbins":[11],
"axisTitle":["momentum of pi+ [GeV/c]","Cross section [mb/(GeV/c/rad)]"],
"val":
[80, 143, 205, 246, 241, 268, 268, 259, 237, 172, 115],
"errStatPlus":
[9, 7, 9, 9, 9, 7.5, 7, 6, 8, 11, 11],
"errStatMinus":
[9, 7, 9, 9, 9, 7.5, 7, 6, 8, 11, 11],
"errSysPlus":
[0., 0., 0., 0., 0., 0., 0., 0., 0., 0., 0.],
"errSysMinus":
[0., 0., 0., 0., 0., 0., 0., 0., 0., 0., 0.],
"binMin":
[0.1, 0.15, 0.2, 0.25, 0.3, 0.35, 0.4, 0.45, 0.5, 0.6, 0.7],
"binMax":
[0.15, 0.2, 0.25, 0.3, 0.35, 0.4, 0.45, 0.5, 0.6, 0.7, 0.8]
},
"imageblobslnk":NULL,"scoreslnk":2,"accesslnk":1,
"parnames":["theta interval for secondary particle"], "parvalues":["0.55-0.75"]
},
{
"trid":1,"testlnk":0,"referencelnk":45,"mcdetaillnk":1,
"beamlnk":43,"targetlnk":4,"observablelnk":8,"secondarylnk":211,"reactionlnk":1,
"datatable":{
"dtid":1,"datatypeslnk":2,
"title":"Production of pi+ in pi+ on Be interactions at 5GeV/c, 0.75<theta<0.95 [rad]",
"npoints":0,
"nbins":[10],
"axisTitle":["momentum of pi+ [GeV/c]","Cross section [mb/(GeV/c/rad)]"],
"val":
[85, 179, 215, 217, 199, 189, 179, 172, 128, 76],
"errStatPlus":
[7.5, 8, 7, 6.5, 6.5, 5, 4, 4.5, 6.5, 7],
"errStatMinus":
[7.5, 8, 7, 6.5, 6.5, 5, 4, 4.5, 6.5, 7],
"errSysPlus":
[0., 0., 0., 0., 0., 0., 0., 0., 0., 0.],
"errSysMinus":
[0., 0., 0., 0., 0., 0., 0., 0., 0., 0.],
"binMin":
[0.1, 0.15, 0.2, 0.25, 0.3, 0.35, 0.4, 0.45, 0.5, 0.6],
"binMax":
[0.15, 0.2, 0.25, 0.3, 0.35, 0.4, 0.45, 0.5, 0.6, 0.7]
},
"imageblobslnk":NULL,"scoreslnk":2,"accesslnk":1,
"parnames":["theta interval for secondary particle"], "parvalues":["0.75-0.95"]
},
{
"trid":1,"testlnk":0,"referencelnk":45,"mcdetaillnk":1,
"beamlnk":43,"targetlnk":4,"observablelnk":8,"secondarylnk":211,"reactionlnk":1,
"datatable":{
"dtid":1,"datatypeslnk":2,
"title":"Production of pi+ in pi+ on Be interactions at 5GeV/c, 0.95<theta<1.15 [rad]",
"npoints":0,
"nbins":[9],
"axisTitle":["momentum of pi+ [GeV/c]","Cross section [mb/(GeV/c/rad)]"],
"val":
[92, 184, 202, 183, 149, 130, 110, 88, 59],
"errStatPlus":
[7, 7.5, 6, 5, 4, 4, 3, 3.5, 3.5],
"errStatMinus":
[7, 7.5, 6, 5, 4, 4, 3, 3.5, 3.5],
"errSysPlus":
[0., 0., 0., 0., 0., 0., 0., 0., 0.],
"errSysMinus":
[0., 0., 0., 0., 0., 0., 0., 0., 0.],
"binMin":
[0.1, 0.15, 0.2, 0.25, 0.3, 0.35, 0.4, 0.45, 0.5],
"binMax":
[0.15, 0.2, 0.25, 0.3, 0.35, 0.4, 0.45, 0.5, 0.6]
},
"imageblobslnk":NULL,"scoreslnk":2,"accesslnk":1,
"parnames":["theta interval for secondary particle"], "parvalues":["0.95-1.15"]
},
{
"trid":1,"testlnk":0,"referencelnk":45,"mcdetaillnk":1,
"beamlnk":43,"targetlnk":4,"observablelnk":8,"secondarylnk":211,"reactionlnk":1,
"datatable":{
"dtid":1,"datatypeslnk":2,
"title":"Production of pi+ in pi+ on Be interactions at 5GeV/c, 1.15<theta<1.35 [rad]",
"npoints":0,
"nbins":[8],
"axisTitle":["momentum of pi+ [GeV/c]","Cross section [mb/(GeV/c/rad)]"],
"val":
[127, 166, 168, 139, 102, 76, 69, 52],
"errStatPlus":
[7.5, 6.5, 5, 4, 3.5, 2.5, 2, 2.5],
"errStatMinus":
[7.5, 6.5, 5, 4, 3.5, 2.5, 2, 2.5],
"errSysPlus":
[0., 0., 0., 0., 0., 0., 0., 0.],
"errSysMinus":
[0., 0., 0., 0., 0., 0., 0., 0.],
"binMin":
[0.1, 0.15, 0.2, 0.25, 0.3, 0.35, 0.4, 0.45],
"binMax":
[0.15, 0.2, 0.25, 0.3, 0.35, 0.4, 0.45, 0.5]
},
"imageblobslnk":NULL,"scoreslnk":2,"accesslnk":1,
"parnames":["theta interval for secondary particle"], "parvalues":["1.15-1.35"]
},
{
"trid":1,"testlnk":0,"referencelnk":45,"mcdetaillnk":1,
"beamlnk":43,"targetlnk":4,"observablelnk":8,"secondarylnk":211,"reactionlnk":1,
"datatable":{
"dtid":1,"datatypeslnk":2,
"title":"Production of pi+ in pi+ on Be interactions at 5GeV/c, 1.35<theta<1.55 [rad]",
"npoints":0,
"nbins":[8],
"axisTitle":["momentum of pi+ [GeV/c]","Cross section [mb/(GeV/c/rad)]"],
"val":
[102, 146, 132, 92, 69, 49, 33, 22],
"errStatPlus":
[7, 5, 4, 3, 2.5, 2, 2, 1.5],
"errStatMinus":
[7, 5, 4, 3, 2.5, 2, 2, 1.5],
"errSysPlus":
[0., 0., 0., 0., 0., 0., 0., 0.],
"errSysMinus":
[0., 0., 0., 0., 0., 0., 0., 0.],
"binMin":
[0.1, 0.15, 0.2, 0.25, 0.3, 0.35, 0.4, 0.45],
"binMax":
[0.15, 0.2, 0.25, 0.3, 0.35, 0.4, 0.45, 0.5]
},
"imageblobslnk":NULL,"scoreslnk":2,"accesslnk":1,
"parnames":["theta interval for secondary particle"], "parvalues":["1.35-1.55"]
},
{
"trid":1,"testlnk":0,"referencelnk":45,"mcdetaillnk":1,
"beamlnk":43,"targetlnk":4,"observablelnk":8,"secondarylnk":211,"reactionlnk":1,
"datatable":{
"dtid":1,"datatypeslnk":2,
"title":"Production of pi+ in pi+ on Be interactions at 5GeV/c, 1.55<theta<1.75 [rad]",
"npoints":0,
"nbins":[8],
"axisTitle":["momentum of pi+ [GeV/c]","Cross section [mb/(GeV/c/rad)]"],
"val":
[90, 131, 110, 72, 54, 32, 21, 14],
"errStatPlus":
[5.5, 5, 4, 2.5, 2, 2, 1.5, 1],
"errStatMinus":
[5.5, 5, 4, 2.5, 2, 2, 1.5, 1],
"errSysPlus":
[0., 0., 0., 0., 0., 0., 0., 0.],
"errSysMinus":
[0., 0., 0., 0., 0., 0., 0., 0.],
"binMin":
[0.1, 0.15, 0.2, 0.25, 0.3, 0.35, 0.4, 0.45],
"binMax":
[0.15, 0.2, 0.25, 0.3, 0.35, 0.4, 0.45, 0.5]
},
"imageblobslnk":NULL,"scoreslnk":2,"accesslnk":1,
"parnames":["theta interval for secondary particle"], "parvalues":["1.55-1.75"]
},
{
"trid":1,"testlnk":0,"referencelnk":45,"mcdetaillnk":1,
"beamlnk":43,"targetlnk":4,"observablelnk":8,"secondarylnk":211,"reactionlnk":1,
"datatable":{
"dtid":1,"datatypeslnk":2,
"title":"Production of pi+ in pi+ on Be interactions at 5GeV/c, 1.75<theta<1.95 [rad]",
"npoints":0,
"nbins":[8],
"axisTitle":["momentum of pi+ [GeV/c]","Cross section [mb/(GeV/c/rad)]"],
"val":
[91, 113, 75, 43, 31, 18, 11, 6],
"errStatPlus":
[5.5, 4, 3.5, 2, 1.5, 1, 1, 0.5],
"errStatMinus":
[5.5, 4, 3.5, 2, 1.5, 1, 1, 0.5],
"errSysPlus":
[0., 0., 0., 0., 0., 0., 0., 0.],
"errSysMinus":
[0., 0., 0., 0., 0., 0., 0., 0.],
"binMin":
[0.1, 0.15, 0.2, 0.25, 0.3, 0.35, 0.4, 0.45],
"binMax":
[0.15, 0.2, 0.25, 0.3, 0.35, 0.4, 0.45, 0.5]
},
"imageblobslnk":NULL,"scoreslnk":2,"accesslnk":1,
"parnames":["theta interval for secondary particle"], "parvalues":["1.75-1.95"]
},
{
"trid":1,"testlnk":0,"referencelnk":45,"mcdetaillnk":1,
"beamlnk":43,"targetlnk":4,"observablelnk":8,"secondarylnk":211,"reactionlnk":1,
"datatable":{
"dtid":1,"datatypeslnk":2,
"title":"Production of pi+ in pi+ on Be interactions at 5GeV/c, 1.95<theta<2.15 [rad]",
"npoints":0,
"nbins":[8],
"axisTitle":["momentum of pi+ [GeV/c]","Cross section [mb/(GeV/c/rad)]"],
"val":
[72, 88, 56, 34, 20, 12, 8, 5],
"errStatPlus":
[4.5, 3, 2.5, 1.5, 1, 1, 0.5, 0.5],
"errStatMinus":
[4.5, 3, 2.5, 1.5, 1, 1, 0.5, 0.5],
"errSysPlus":
[0., 0., 0., 0., 0., 0., 0., 0.],
"errSysMinus":
[0., 0., 0., 0., 0., 0., 0., 0.],
"binMin":
[0.1, 0.15, 0.2, 0.25, 0.3, 0.35, 0.4, 0.45],
"binMax":
[0.15, 0.2, 0.25, 0.3, 0.35, 0.4, 0.45, 0.5]
},
"imageblobslnk":NULL,"scoreslnk":2,"accesslnk":1,
"parnames":["theta interval for secondary particle"], "parvalues":["1.95-2.15"]
},
{
"trid":1,"testlnk":0,"referencelnk":44,"mcdetaillnk":1,
"beamlnk":44,"targetlnk":4,"observablelnk":8,"secondarylnk":211,"reactionlnk":1,
"datatable":{
"dtid":1,"datatypeslnk":2,
"title":"Production of pi+ in pi+ on Be interactions at 8GeV/c, 0.05<theta<0.1 [rad]",
"npoints":0,
"nbins":[9],
"axisTitle":["momentum of pi+ [GeV/c]","Cross section [mb/(GeV/c/rad)]"],
"val":
[130, 160, 131, 158, 180, 140, 122, 161, 138],
"errStatPlus":
[10, 10, 7, 7.5, 10, 20, 7, 5, 3.5],
"errStatMinus":
[10, 10, 7, 7.5, 10, 20, 7, 5, 3.5],
"errSysPlus":
[0., 0., 0., 0., 0., 0., 0., 0., 0.],
"errSysMinus":
[0., 0., 0., 0., 0., 0., 0., 0., 0.],
"binMin":
[0.5, 1, 1.5, 2, 2.5, 3, 3.5, 4, 5],
"binMax":
[1, 1.5, 2, 2.5, 3, 3.5, 4, 5, 6.5]
},
"imageblobslnk":NULL,"scoreslnk":2,"accesslnk":1,
"parnames":["theta interval for secondary particle"], "parvalues":["0.05-0.1"]
},
{
"trid":1,"testlnk":0,"referencelnk":44,"mcdetaillnk":1,
"beamlnk":44,"targetlnk":4,"observablelnk":8,"secondarylnk":211,"reactionlnk":1,
"datatable":{
"dtid":1,"datatypeslnk":2,
"title":"Production of pi+ in pi+ on Be interactions at 8GeV/c, 0.1<theta<0.15 [rad]",
"npoints":0,
"nbins":[9],
"axisTitle":["momentum of pi+ [GeV/c]","Cross section [mb/(GeV/c/rad)]"],
"val":
[150, 140, 210, 160, 130, 102, 67, 51, 21],
"errStatPlus":
[10, 10, 10, 10, 7.5, 6, 4, 3, 2],
"errStatMinus":
[10, 10, 10, 10, 7.5, 6, 4, 3, 2],
"errSysPlus":
[0., 0., 0., 0., 0., 0., 0., 0., 0.],
"errSysMinus":
[0., 0., 0., 0., 0., 0., 0., 0., 0.],
"binMin":
[0.5, 1, 1.5, 2, 2.5, 3, 3.5, 4, 5],
"binMax":
[1, 1.5, 2, 2.5, 3, 3.5, 4, 5, 6.5]
},
"imageblobslnk":NULL,"scoreslnk":2,"accesslnk":1,
"parnames":["theta interval for secondary particle"], "parvalues":["0.1-0.15"]
},
{
"trid":1,"testlnk":0,"referencelnk":44,"mcdetaillnk":1,
"beamlnk":44,"targetlnk":4,"observablelnk":8,"secondarylnk":211,"reactionlnk":1,
"datatable":{
"dtid":1,"datatypeslnk":2,
"title":"Production of pi+ in pi+ on Be interactions at 8GeV/c, 0.15<theta<0.2 [rad]",
"npoints":0,
"nbins":[9],
"axisTitle":["momentum of pi+ [GeV/c]","Cross section [mb/(GeV/c/rad)]"],
"val":
[190, 160, 150, 110, 56, 46, 26, 16, 6],
"errStatPlus":
[15, 10, 10, 6.5, 4.5, 4, 2.5, 1.5, 1],
"errStatMinus":
[15, 10, 10, 6.5, 4.5, 4, 2.5, 1.5, 1],
"errSysPlus":
[0., 0., 0., 0., 0., 0., 0., 0., 0.],
"errSysMinus":
[0., 0., 0., 0., 0., 0., 0., 0., 0.],
"binMin":
[0.5, 1, 1.5, 2, 2.5, 3, 3.5, 4, 5],
"binMax":
[1, 1.5, 2, 2.5, 3, 3.5, 4, 5, 6.5]
},
"imageblobslnk":NULL,"scoreslnk":2,"accesslnk":1,
"parnames":["theta interval for secondary particle"], "parvalues":["0.15-0.2"]
},
{
"trid":1,"testlnk":0,"referencelnk":44,"mcdetaillnk":1,
"beamlnk":44,"targetlnk":4,"observablelnk":8,"secondarylnk":211,"reactionlnk":1,
"datatable":{
"dtid":1,"datatypeslnk":2,
"title":"Production of pi+ in pi+ on Be interactions at 8GeV/c, 0.2<theta<0.25 [rad]",
"npoints":0,
"nbins":[9],
"axisTitle":["momentum of pi+ [GeV/c]","Cross section [mb/(GeV/c/rad)]"],
"val":
[110, 110, 65, 81, 47, 26, 20, 12, 6],
"errStatPlus":
[10, 10, 6, 6, 10, 4, 2.5, 2, 1.5],
"errStatMinus":
[10, 10, 6, 6, 10, 4, 2.5, 2, 1.5],
"errSysPlus":
[0., 0., 0., 0., 0., 0., 0., 0., 0.],
"errSysMinus":
[0., 0., 0., 0., 0., 0., 0., 0., 0.],
"binMin":
[0.5, 1, 1.5, 2, 2.5, 3, 3.5, 4, 5],
"binMax":
[1, 1.5, 2, 2.5, 3, 3.5, 4, 5, 6.5]
},
"imageblobslnk":NULL,"scoreslnk":2,"accesslnk":1,
"parnames":["theta interval for secondary particle"], "parvalues":["0.2-0.25"]
},
{
"trid":1,"testlnk":0,"referencelnk":45,"mcdetaillnk":1,
"beamlnk":44,"targetlnk":4,"observablelnk":8,"secondarylnk":211,"reactionlnk":1,
"datatable":{
"dtid":1,"datatypeslnk":2,
"title":"Production of pi+ in pi+ on Be interactions at 8GeV/c, 0.35<theta<0.55 [rad]",
"npoints":0,
"nbins":[10],
"axisTitle":["momentum of pi+ [GeV/c]","Cross section [mb/(GeV/c/rad)]"],
"val":
[124, 191, 259, 257, 290, 290, 338, 354, 349, 300],
"errStatPlus":
[10, 10, 11, 10.5, 12, 9.5, 12, 10.5, 16.5, 22],
"errStatMinus":
[10, 10, 11, 10.5, 12, 9.5, 12, 10.5, 16.5, 22],
"errSysPlus":
[0., 0., 0., 0., 0., 0., 0., 0., 0., 0.],
"errSysMinus":
[0., 0., 0., 0., 0., 0., 0., 0., 0., 0.],
"binMin":
[0.15, 0.2, 0.25, 0.3, 0.35, 0.4, 0.45, 0.5, 0.6, 0.7],
"binMax":
[0.2, 0.25, 0.3, 0.35, 0.4, 0.45, 0.5, 0.6, 0.7, 0.8]
},
"imageblobslnk":NULL,"scoreslnk":2,"accesslnk":1,
"parnames":["theta interval for secondary particle"], "parvalues":["0.35-0.55"]
},
{
"trid":1,"testlnk":0,"referencelnk":45,"mcdetaillnk":1,
"beamlnk":44,"targetlnk":4,"observablelnk":8,"secondarylnk":211,"reactionlnk":1,
"datatable":{
"dtid":1,"datatypeslnk":2,
"title":"Production of pi+ in pi+ on Be interactions at 8GeV/c, 0.55<theta<0.75 [rad]",
"npoints":0,
"nbins":[11],
"axisTitle":["momentum of pi+ [GeV/c]","Cross section [mb/(GeV/c/rad)]"],
"val":
[107, 124, 195, 241, 245, 243, 241, 238, 223, 165, 117],
"errStatPlus":
[11.5, 6, 9, 10.5, 9, 6.5, 7, 7, 8.5, 10.5, 11.5],
"errStatMinus":
[11.5, 6, 9, 10.5, 9, 6.5, 7, 7, 8.5, 10.5, 11.5],
"errSysPlus":
[0., 0., 0., 0., 0., 0., 0., 0., 0., 0., 0.],
"errSysMinus":
[0., 0., 0., 0., 0., 0., 0., 0., 0., 0., 0.],
"binMin":
[0.1, 0.15, 0.2, 0.25, 0.3, 0.35, 0.4, 0.45, 0.5, 0.6, 0.7],
"binMax":
[0.15, 0.2, 0.25, 0.3, 0.35, 0.4, 0.45, 0.5, 0.6, 0.7, 0.8]
},
"imageblobslnk":NULL,"scoreslnk":2,"accesslnk":1,
"parnames":["theta interval for secondary particle"], "parvalues":["0.55-0.75"]
},
{
"trid":1,"testlnk":0,"referencelnk":45,"mcdetaillnk":1,
"beamlnk":44,"targetlnk":4,"observablelnk":8,"secondarylnk":211,"reactionlnk":1,
"datatable":{
"dtid":1,"datatypeslnk":2,
"title":"Production of pi+ in pi+ on Be interactions at 8GeV/c, 0.75<theta<0.95 [rad]",
"npoints":0,
"nbins":[10],
"axisTitle":["momentum of pi+ [GeV/c]","Cross section [mb/(GeV/c/rad)]"],
"val":
[77, 167, 209, 203, 183, 184, 167, 145, 101, 60],
"errStatPlus":
[6.5, 8.5, 7.5, 7, 5.5, 6, 5, 5, 6, 5],
"errStatMinus":
[6.5, 8.5, 7.5, 7, 5.5, 6, 5, 5, 6, 5],
"errSysPlus":
[0., 0., 0., 0., 0., 0., 0., 0., 0., 0.],
"errSysMinus":
[0., 0., 0., 0., 0., 0., 0., 0., 0., 0.],
"binMin":
[0.1, 0.15, 0.2, 0.25, 0.3, 0.35, 0.4, 0.45, 0.5, 0.6],
"binMax":
[0.15, 0.2, 0.25, 0.3, 0.35, 0.4, 0.45, 0.5, 0.6, 0.7]
},
"imageblobslnk":NULL,"scoreslnk":2,"accesslnk":1,
"parnames":["theta interval for secondary particle"], "parvalues":["0.75-0.95"]
},
{
"trid":1,"testlnk":0,"referencelnk":45,"mcdetaillnk":1,
"beamlnk":44,"targetlnk":4,"observablelnk":8,"secondarylnk":211,"reactionlnk":1,
"datatable":{
"dtid":1,"datatypeslnk":2,
"title":"Production of pi+ in pi+ on Be interactions at 8GeV/c, 0.95<theta<1.15 [rad]",
"npoints":0,
"nbins":[9],
"axisTitle":["momentum of pi+ [GeV/c]","Cross section [mb/(GeV/c/rad)]"],
"val":
[84, 166, 167, 162, 113, 101, 86, 68, 49],
"errStatPlus":
[6.5, 8, 5.5, 5.5, 4, 3.5, 3.5, 3, 3],
"errStatMinus":
[6.5, 8, 5.5, 5.5, 4, 3.5, 3.5, 3, 3],
"errSysPlus":
[0., 0., 0., 0., 0., 0., 0., 0., 0.],
"errSysMinus":
[0., 0., 0., 0., 0., 0., 0., 0., 0.],
"binMin":
[0.1, 0.15, 0.2, 0.25, 0.3, 0.35, 0.4, 0.45, 0.5],
"binMax":
[0.15, 0.2, 0.25, 0.3, 0.35, 0.4, 0.45, 0.5, 0.6]
},
"imageblobslnk":NULL,"scoreslnk":2,"accesslnk":1,
"parnames":["theta interval for secondary particle"], "parvalues":["0.95-1.15"]
},
{
"trid":1,"testlnk":0,"referencelnk":45,"mcdetaillnk":1,
"beamlnk":44,"targetlnk":4,"observablelnk":8,"secondarylnk":211,"reactionlnk":1,
"datatable":{
"dtid":1,"datatypeslnk":2,
"title":"Production of pi+ in pi+ on Be interactions at 8GeV/c, 1.15<theta<1.35 [rad]",
"npoints":0,
"nbins":[8],
"axisTitle":["momentum of pi+ [GeV/c]","Cross section [mb/(GeV/c/rad)]"],
"val":
[93, 151, 143, 116, 69, 57, 50, 38],
"errStatPlus":
[6, 7.5, 5, 4.5, 3.5, 2, 2, 2.5],
"errStatMinus":
[6, 7.5, 5, 4.5, 3.5, 2, 2, 2.5],
"errSysPlus":
[0., 0., 0., 0., 0., 0., 0., 0.],
"errSysMinus":
[0., 0., 0., 0., 0., 0., 0., 0.],
"binMin":
[0.1, 0.15, 0.2, 0.25, 0.3, 0.35, 0.4, 0.45],
"binMax":
[0.15, 0.2, 0.25, 0.3, 0.35, 0.4, 0.45, 0.5]
},
"imageblobslnk":NULL,"scoreslnk":2,"accesslnk":1,
"parnames":["theta interval for secondary particle"], "parvalues":["1.15-1.35"]
},
{
"trid":1,"testlnk":0,"referencelnk":45,"mcdetaillnk":1,
"beamlnk":44,"targetlnk":4,"observablelnk":8,"secondarylnk":211,"reactionlnk":1,
"datatable":{
"dtid":1,"datatypeslnk":2,
"title":"Production of pi+ in pi+ on Be interactions at 8GeV/c, 1.35<theta<1.55 [rad]",
"npoints":0,
"nbins":[8],
"axisTitle":["momentum of pi+ [GeV/c]","Cross section [mb/(GeV/c/rad)]"],
"val":
[94, 134, 104, 82, 57, 44, 30, 19],
"errStatPlus":
[6.5, 6, 4, 4, 2.5, 2, 2, 1.5],
"errStatMinus":
[6.5, 6, 4, 4, 2.5, 2, 2, 1.5],
"errSysPlus":
[0., 0., 0., 0., 0., 0., 0., 0.],
"errSysMinus":
[0., 0., 0., 0., 0., 0., 0., 0.],
"binMin":
[0.1, 0.15, 0.2, 0.25, 0.3, 0.35, 0.4, 0.45],
"binMax":
[0.15, 0.2, 0.25, 0.3, 0.35, 0.4, 0.45, 0.5]
},
"imageblobslnk":NULL,"scoreslnk":2,"accesslnk":1,
"parnames":["theta interval for secondary particle"], "parvalues":["1.35-1.55"]
},
{
"trid":1,"testlnk":0,"referencelnk":45,"mcdetaillnk":1,
"beamlnk":44,"targetlnk":4,"observablelnk":8,"secondarylnk":211,"reactionlnk":1,
"datatable":{
"dtid":1,"datatypeslnk":2,
"title":"Production of pi+ in pi+ on Be interactions at 8GeV/c, 1.55<theta<1.75 [rad]",
"npoints":0,
"nbins":[8],
"axisTitle":["momentum of pi+ [GeV/c]","Cross section [mb/(GeV/c/rad)]"],
"val":
[70, 123, 85, 57, 41, 33, 19, 10],
"errStatPlus":
[5.5, 5, 3.5, 3, 2, 2, 1.5, 1],
"errStatMinus":
[5.5, 5, 3.5, 3, 2, 2, 1.5, 1],
"errSysPlus":
[0., 0., 0., 0., 0., 0., 0., 0.],
"errSysMinus":
[0., 0., 0., 0., 0., 0., 0., 0.],
"binMin":
[0.1, 0.15, 0.2, 0.25, 0.3, 0.35, 0.4, 0.45],
"binMax":
[0.15, 0.2, 0.25, 0.3, 0.35, 0.4, 0.45, 0.5]
},
"imageblobslnk":NULL,"scoreslnk":2,"accesslnk":1,
"parnames":["theta interval for secondary particle"], "parvalues":["1.55-1.75"]
},
{
"trid":1,"testlnk":0,"referencelnk":45,"mcdetaillnk":1,
"beamlnk":44,"targetlnk":4,"observablelnk":8,"secondarylnk":211,"reactionlnk":1,
"datatable":{
"dtid":1,"datatypeslnk":2,
"title":"Production of pi+ in pi+ on Be interactions at 8GeV/c, 1.75<theta<1.95 [rad]",
"npoints":0,
"nbins":[8],
"axisTitle":["momentum of pi+ [GeV/c]","Cross section [mb/(GeV/c/rad)]"],
"val":
[81, 88, 61, 37, 34, 25, 11, 5],
"errStatPlus":
[5.5, 4, 3, 2.5, 2, 2, 1.5, 1],
"errStatMinus":
[5.5, 4, 3, 2.5, 2, 2, 1.5, 1],
"errSysPlus":
[0., 0., 0., 0., 0., 0., 0., 0.],
"errSysMinus":
[0., 0., 0., 0., 0., 0., 0., 0.],
"binMin":
[0.1, 0.15, 0.2, 0.25, 0.3, 0.35, 0.4, 0.45],
"binMax":
[0.15, 0.2, 0.25, 0.3, 0.35, 0.4, 0.45, 0.5]
},
"imageblobslnk":NULL,"scoreslnk":2,"accesslnk":1,
"parnames":["theta interval for secondary particle"], "parvalues":["1.75-1.95"]
},
{
"trid":1,"testlnk":0,"referencelnk":45,"mcdetaillnk":1,
"beamlnk":44,"targetlnk":4,"observablelnk":8,"secondarylnk":211,"reactionlnk":1,
"datatable":{
"dtid":1,"datatypeslnk":2,
"title":"Production of pi+ in pi+ on Be interactions at 8GeV/c, 1.95<theta<2.15 [rad]",
"npoints":0,
"nbins":[8],
"axisTitle":["momentum of pi+ [GeV/c]","Cross section [mb/(GeV/c/rad)]"],
"val":
[51, 75, 44, 24, 18, 14, 5, 2],
"errStatPlus":
[4.5, 4, 3, 1.5, 1.5, 1.5, 1, 0.5],
"errStatMinus":
[4.5, 4, 3, 1.5, 1.5, 1.5, 1, 0.5],
"errSysPlus":
[0., 0., 0., 0., 0., 0., 0., 0.],
"errSysMinus":
[0., 0., 0., 0., 0., 0., 0., 0.],
"binMin":
[0.1, 0.15, 0.2, 0.25, 0.3, 0.35, 0.4, 0.45],
"binMax":
[0.15, 0.2, 0.25, 0.3, 0.35, 0.4, 0.45, 0.5]
},
"imageblobslnk":NULL,"scoreslnk":2,"accesslnk":1,
"parnames":["theta interval for secondary particle"], "parvalues":["1.95-2.15"]
},
{
"trid":1,"testlnk":0,"referencelnk":44,"mcdetaillnk":1,
"beamlnk":45,"targetlnk":4,"observablelnk":8,"secondarylnk":211,"reactionlnk":1,
"datatable":{
"dtid":1,"datatypeslnk":2,
"title":"Production of pi+ in pi+ on Be interactions at 12GeV/c, 0.05<theta<0.1 [rad]",
"npoints":0,
"nbins":[10],
"axisTitle":["momentum of pi+ [GeV/c]","Cross section [mb/(GeV/c/rad)]"],
"val":
[150, 160, 160, 200, 180, 190, 200, 150, 47, 182],
"errStatPlus":
[20, 15, 15, 15, 15, 15, 15, 10, 5.5, 10],
"errStatMinus":
[20, 15, 15, 15, 15, 15, 15, 10, 5.5, 10],
"errSysPlus":
[0., 0., 0., 0., 0., 0., 0., 0., 0., 0.],
"errSysMinus":
[0., 0., 0., 0., 0., 0., 0., 0., 0., 0.],
"binMin":
[0.5, 1, 1.5, 2, 2.5, 3, 3.5, 4, 5, 6.5],
"binMax":
[1, 1.5, 2, 2.5, 3, 3.5, 4, 5, 6.5, 8]
},
"imageblobslnk":NULL,"scoreslnk":2,"accesslnk":1,
"parnames":["theta interval for secondary particle"], "parvalues":["0.05-0.1"]
},
{
"trid":1,"testlnk":0,"referencelnk":44,"mcdetaillnk":1,
"beamlnk":45,"targetlnk":4,"observablelnk":8,"secondarylnk":211,"reactionlnk":1,
"datatable":{
"dtid":1,"datatypeslnk":2,
"title":"Production of pi+ in pi+ on Be interactions at 12GeV/c, 0.1<theta<0.15 [rad]",
"npoints":0,
"nbins":[10],
"axisTitle":["momentum of pi+ [GeV/c]","Cross section [mb/(GeV/c/rad)]"],
"val":
[130, 180, 190, 190, 150, 120, 130, 91, 34, 14],
"errStatPlus":
[15, 15, 20, 15, 10, 10, 10, 7, 4, 2],
"errStatMinus":
[15, 15, 20, 15, 10, 10, 10, 7, 4, 2],
"errSysPlus":
[0., 0., 0., 0., 0., 0., 0., 0., 0., 0.],
"errSysMinus":
[0., 0., 0., 0., 0., 0., 0., 0., 0., 0.],
"binMin":
[0.5, 1, 1.5, 2, 2.5, 3, 3.5, 4, 5, 6.5],
"binMax":
[1, 1.5, 2, 2.5, 3, 3.5, 4, 5, 6.5, 8]
},
"imageblobslnk":NULL,"scoreslnk":2,"accesslnk":1,
"parnames":["theta interval for secondary particle"], "parvalues":["0.1-0.15"]
},
{
"trid":1,"testlnk":0,"referencelnk":44,"mcdetaillnk":1,
"beamlnk":45,"targetlnk":4,"observablelnk":8,"secondarylnk":211,"reactionlnk":1,
"datatable":{
"dtid":1,"datatypeslnk":2,
"title":"Production of pi+ in pi+ on Be interactions at 12GeV/c, 0.15<theta<0.2 [rad]",
"npoints":0,
"nbins":[10],
"axisTitle":["momentum of pi+ [GeV/c]","Cross section [mb/(GeV/c/rad)]"],
"val":
[240, 230, 110, 80, 70, 60, 42, 23, 8, 2],
"errStatPlus":
[25, 20, 10, 10, 10, 10, 6, 4, 2, 1],
"errStatMinus":
[25, 20, 10, 10, 10, 10, 6, 4, 2, 1],
"errSysPlus":
[0., 0., 0., 0., 0., 0., 0., 0., 0., 0.],
"errSysMinus":
[0., 0., 0., 0., 0., 0., 0., 0., 0., 0.],
"binMin":
[0.5, 1, 1.5, 2, 2.5, 3, 3.5, 4, 5, 6.5],
"binMax":
[1, 1.5, 2, 2.5, 3, 3.5, 4, 5, 6.5, 8]
},
"imageblobslnk":NULL,"scoreslnk":2,"accesslnk":1,
"parnames":["theta interval for secondary particle"], "parvalues":["0.15-0.2"]
},
{
"trid":1,"testlnk":0,"referencelnk":44,"mcdetaillnk":1,
"beamlnk":45,"targetlnk":4,"observablelnk":8,"secondarylnk":211,"reactionlnk":1,
"datatable":{
"dtid":1,"datatypeslnk":2,
"title":"Production of pi+ in pi+ on Be interactions at 12GeV/c, 0.2<theta<0.25 [rad]",
"npoints":0,
"nbins":[10],
"axisTitle":["momentum of pi+ [GeV/c]","Cross section [mb/(GeV/c/rad)]"],
"val":
[90, 90, 60, 70, 60, 30, 16, 11, 2, 0],
"errStatPlus":
[15, 15, 15, 15, 15, 10, 7.5, 7, 2.5, 5.5],
"errStatMinus":
[15, 15, 15, 15, 15, 10, 7.5, 7, 2.5, 5.5],
"errSysPlus":
[0., 0., 0., 0., 0., 0., 0., 0., 0., 0.],
"errSysMinus":
[0., 0., 0., 0., 0., 0., 0., 0., 0., 0.],
"binMin":
[0.5, 1, 1.5, 2, 2.5, 3, 3.5, 4, 5, 6.5],
"binMax":
[1, 1.5, 2, 2.5, 3, 3.5, 4, 5, 6.5, 8]
},
"imageblobslnk":NULL,"scoreslnk":2,"accesslnk":1,
"parnames":["theta interval for secondary particle"], "parvalues":["0.2-0.25"]
},
{
"trid":1,"testlnk":0,"referencelnk":45,"mcdetaillnk":1,
"beamlnk":45,"targetlnk":4,"observablelnk":8,"secondarylnk":211,"reactionlnk":1,
"datatable":{
"dtid":1,"datatypeslnk":2,
"title":"Production of pi+ in pi+ on Be interactions at 12GeV/c, 0.35<theta<0.55 [rad]",
"npoints":0,
"nbins":[10],
"axisTitle":["momentum of pi+ [GeV/c]","Cross section [mb/(GeV/c/rad)]"],
"val":
[101, 168, 213, 244, 287, 309, 314, 303, 299, 220],
"errStatPlus":
[12.5, 11, 12.5, 12, 16, 11, 10.5, 10.5, 15, 20.5],
"errStatMinus":
[12.5, 11, 12.5, 12, 16, 11, 10.5, 10.5, 15, 20.5],
"errSysPlus":
[0., 0., 0., 0., 0., 0., 0., 0., 0., 0.],
"errSysMinus":
[0., 0., 0., 0., 0., 0., 0., 0., 0., 0.],
"binMin":
[0.15, 0.2, 0.25, 0.3, 0.35, 0.4, 0.45, 0.5, 0.6, 0.7],
"binMax":
[0.2, 0.25, 0.3, 0.35, 0.4, 0.45, 0.5, 0.6, 0.7, 0.8]
},
"imageblobslnk":NULL,"scoreslnk":2,"accesslnk":1,
"parnames":["theta interval for secondary particle"], "parvalues":["0.35-0.55"]
},
{
"trid":1,"testlnk":0,"referencelnk":45,"mcdetaillnk":1,
"beamlnk":45,"targetlnk":4,"observablelnk":8,"secondarylnk":211,"reactionlnk":1,
"datatable":{
"dtid":1,"datatypeslnk":2,
"title":"Production of pi+ in pi+ on Be interactions at 12GeV/c, 0.55<theta<0.75 [rad]",
"npoints":0,
"nbins":[11],
"axisTitle":["momentum of pi+ [GeV/c]","Cross section [mb/(GeV/c/rad)]"],
"val":
[104, 152, 218, 193, 226, 265, 236, 219, 194, 144, 97],
"errStatPlus":
[15.5, 9, 11.5, 8.5, 13, 10.5, 8.5, 8, 8.5, 10, 11],
"errStatMinus":
[15.5, 9, 11.5, 8.5, 13, 10.5, 8.5, 8, 8.5, 10, 11],
"errSysPlus":
[0., 0., 0., 0., 0., 0., 0., 0., 0., 0., 0.],
"errSysMinus":
[0., 0., 0., 0., 0., 0., 0., 0., 0., 0., 0.],
"binMin":
[0.1, 0.15, 0.2, 0.25, 0.3, 0.35, 0.4, 0.45, 0.5, 0.6, 0.7],
"binMax":
[0.15, 0.2, 0.25, 0.3, 0.35, 0.4, 0.45, 0.5, 0.6, 0.7, 0.8]
},
"imageblobslnk":NULL,"scoreslnk":2,"accesslnk":1,
"parnames":["theta interval for secondary particle"], "parvalues":["0.55-0.75"]
},
{
"trid":1,"testlnk":0,"referencelnk":45,"mcdetaillnk":1,
"beamlnk":45,"targetlnk":4,"observablelnk":8,"secondarylnk":211,"reactionlnk":1,
"datatable":{
"dtid":1,"datatypeslnk":2,
"title":"Production of pi+ in pi+ on Be interactions at 12GeV/c, 0.75<theta<0.95 [rad]",
"npoints":0,
"nbins":[10],
"axisTitle":["momentum of pi+ [GeV/c]","Cross section [mb/(GeV/c/rad)]"],
"val":
[79, 138, 177, 156, 171, 157, 150, 135, 92, 60],
"errStatPlus":
[9, 8.5, 9.5, 7, 8.5, 6, 6, 6.5, 5.5, 5],
"errStatMinus":
[9, 8.5, 9.5, 7, 8.5, 6, 6, 6.5, 5.5, 5],
"errSysPlus":
[0., 0., 0., 0., 0., 0., 0., 0., 0., 0.],
"errSysMinus":
[0., 0., 0., 0., 0., 0., 0., 0., 0., 0.],
"binMin":
[0.1, 0.15, 0.2, 0.25, 0.3, 0.35, 0.4, 0.45, 0.5, 0.6],
"binMax":
[0.15, 0.2, 0.25, 0.3, 0.35, 0.4, 0.45, 0.5, 0.6, 0.7]
},
"imageblobslnk":NULL,"scoreslnk":2,"accesslnk":1,
"parnames":["theta interval for secondary particle"], "parvalues":["0.75-0.95"]
},
{
"trid":1,"testlnk":0,"referencelnk":45,"mcdetaillnk":1,
"beamlnk":45,"targetlnk":4,"observablelnk":8,"secondarylnk":211,"reactionlnk":1,
"datatable":{
"dtid":1,"datatypeslnk":2,
"title":"Production of pi+ in pi+ on Be interactions at 12GeV/c, 0.95<theta<1.15 [rad]",
"npoints":0,
"nbins":[9],
"axisTitle":["momentum of pi+ [GeV/c]","Cross section [mb/(GeV/c/rad)]"],
"val":
[70, 162, 161, 135, 125, 126, 99, 72, 48],
"errStatPlus":
[7, 9.5, 8, 6, 6, 6, 5, 4.5, 4],
"errStatMinus":
[7, 9.5, 8, 6, 6, 6, 5, 4.5, 4],
"errSysPlus":
[0., 0., 0., 0., 0., 0., 0., 0., 0.],
"errSysMinus":
[0., 0., 0., 0., 0., 0., 0., 0., 0.],
"binMin":
[0.1, 0.15, 0.2, 0.25, 0.3, 0.35, 0.4, 0.45, 0.5],
"binMax":
[0.15, 0.2, 0.25, 0.3, 0.35, 0.4, 0.45, 0.5, 0.6]
},
"imageblobslnk":NULL,"scoreslnk":2,"accesslnk":1,
"parnames":["theta interval for secondary particle"], "parvalues":["0.95-1.15"]
},
{
"trid":1,"testlnk":0,"referencelnk":45,"mcdetaillnk":1,
"beamlnk":45,"targetlnk":4,"observablelnk":8,"secondarylnk":211,"reactionlnk":1,
"datatable":{
"dtid":1,"datatypeslnk":2,
"title":"Production of pi+ in pi+ on Be interactions at 12GeV/c, 1.15<theta<1.35 [rad]",
"npoints":0,
"nbins":[8],
"axisTitle":["momentum of pi+ [GeV/c]","Cross section [mb/(GeV/c/rad)]"],
"val":
[76, 144, 126, 112, 69, 48, 43, 35],
"errStatPlus":
[7.5, 9.5, 6.5, 6, 4.5, 3, 2.5, 3],
"errStatMinus":
[7.5, 9.5, 6.5, 6, 4.5, 3, 2.5, 3],
"errSysPlus":
[0., 0., 0., 0., 0., 0., 0., 0.],
"errSysMinus":
[0., 0., 0., 0., 0., 0., 0., 0.],
"binMin":
[0.1, 0.15, 0.2, 0.25, 0.3, 0.35, 0.4, 0.45],
"binMax":
[0.15, 0.2, 0.25, 0.3, 0.35, 0.4, 0.45, 0.5]
},
"imageblobslnk":NULL,"scoreslnk":2,"accesslnk":1,
"parnames":["theta interval for secondary particle"], "parvalues":["1.15-1.35"]
},
{
"trid":1,"testlnk":0,"referencelnk":45,"mcdetaillnk":1,
"beamlnk":45,"targetlnk":4,"observablelnk":8,"secondarylnk":211,"reactionlnk":1,
"datatable":{
"dtid":1,"datatypeslnk":2,
"title":"Production of pi+ in pi+ on Be interactions at 12GeV/c, 1.35<theta<1.55 [rad]",
"npoints":0,
"nbins":[8],
"axisTitle":["momentum of pi+ [GeV/c]","Cross section [mb/(GeV/c/rad)]"],
"val":
[83, 119, 65, 70, 51, 43, 34, 20],
"errStatPlus":
[7.5, 7.5, 4.5, 4.5, 3.5, 3, 3, 2.5],
"errStatMinus":
[7.5, 7.5, 4.5, 4.5, 3.5, 3, 3, 2.5],
"errSysPlus":
[0., 0., 0., 0., 0., 0., 0., 0.],
"errSysMinus":
[0., 0., 0., 0., 0., 0., 0., 0.],
"binMin":
[0.1, 0.15, 0.2, 0.25, 0.3, 0.35, 0.4, 0.45],
"binMax":
[0.15, 0.2, 0.25, 0.3, 0.35, 0.4, 0.45, 0.5]
},
"imageblobslnk":NULL,"scoreslnk":2,"accesslnk":1,
"parnames":["theta interval for secondary particle"], "parvalues":["1.35-1.55"]
},
{
"trid":1,"testlnk":0,"referencelnk":45,"mcdetaillnk":1,
"beamlnk":45,"targetlnk":4,"observablelnk":8,"secondarylnk":211,"reactionlnk":1,
"datatable":{
"dtid":1,"datatypeslnk":2,
"title":"Production of pi+ in pi+ on Be interactions at 12GeV/c, 1.55<theta<1.75 [rad]",
"npoints":0,
"nbins":[8],
"axisTitle":["momentum of pi+ [GeV/c]","Cross section [mb/(GeV/c/rad)]"],
"val":
[87, 86, 92, 49, 35, 26, 14, 7],
"errStatPlus":
[7, 7, 6, 3.5, 3, 2.5, 2, 1.5],
"errStatMinus":
[7, 7, 6, 3.5, 3, 2.5, 2, 1.5],
"errSysPlus":
[0., 0., 0., 0., 0., 0., 0., 0.],
"errSysMinus":
[0., 0., 0., 0., 0., 0., 0., 0.],
"binMin":
[0.1, 0.15, 0.2, 0.25, 0.3, 0.35, 0.4, 0.45],
"binMax":
[0.15, 0.2, 0.25, 0.3, 0.35, 0.4, 0.45, 0.5]
},
"imageblobslnk":NULL,"scoreslnk":2,"accesslnk":1,
"parnames":["theta interval for secondary particle"], "parvalues":["1.55-1.75"]
},
{
"trid":1,"testlnk":0,"referencelnk":45,"mcdetaillnk":1,
"beamlnk":45,"targetlnk":4,"observablelnk":8,"secondarylnk":211,"reactionlnk":1,
"datatable":{
"dtid":1,"datatypeslnk":2,
"title":"Production of pi+ in pi+ on Be interactions at 12GeV/c, 1.75<theta<1.95 [rad]",
"npoints":0,
"nbins":[8],
"axisTitle":["momentum of pi+ [GeV/c]","Cross section [mb/(GeV/c/rad)]"],
"val":
[63, 83, 68, 32, 14, 14, 8, 4],
"errStatPlus":
[6.5, 6, 5, 4, 1.5, 2, 1.5, 1],
"errStatMinus":
[6.5, 6, 5, 4, 1.5, 2, 1.5, 1],
"errSysPlus":
[0., 0., 0., 0., 0., 0., 0., 0.],
"errSysMinus":
[0., 0., 0., 0., 0., 0., 0., 0.],
"binMin":
[0.1, 0.15, 0.2, 0.25, 0.3, 0.35, 0.4, 0.45],
"binMax":
[0.15, 0.2, 0.25, 0.3, 0.35, 0.4, 0.45, 0.5]
},
"imageblobslnk":NULL,"scoreslnk":2,"accesslnk":1,
"parnames":["theta interval for secondary particle"], "parvalues":["1.75-1.95"]
},
{
"trid":1,"testlnk":0,"referencelnk":45,"mcdetaillnk":1,
"beamlnk":45,"targetlnk":4,"observablelnk":8,"secondarylnk":211,"reactionlnk":1,
"datatable":{
"dtid":1,"datatypeslnk":2,
"title":"Production of pi+ in pi+ on Be interactions at 12GeV/c, 1.95<theta<2.15 [rad]",
"npoints":0,
"nbins":[8],
"axisTitle":["momentum of pi+ [GeV/c]","Cross section [mb/(GeV/c/rad)]"],
"val":
[43, 74, 53, 21, 18, 9, 5, 3],
"errStatPlus":
[6.5, 5.5, 4.5, 3, 2.5, 2, 1, 1],
"errStatMinus":
[6.5, 5.5, 4.5, 3, 2.5, 2, 1, 1],
"errSysPlus":
[0., 0., 0., 0., 0., 0., 0., 0.],
"errSysMinus":
[0., 0., 0., 0., 0., 0., 0., 0.],
"binMin":
[0.1, 0.15, 0.2, 0.25, 0.3, 0.35, 0.4, 0.45],
"binMax":
[0.15, 0.2, 0.25, 0.3, 0.35, 0.4, 0.45, 0.5]
},
"imageblobslnk":NULL,"scoreslnk":2,"accesslnk":1,
"parnames":["theta interval for secondary particle"], "parvalues":["1.95-2.15"]
},
{
"trid":1,"testlnk":0,"referencelnk":44,"mcdetaillnk":1,
"beamlnk":42,"targetlnk":4,"observablelnk":8,"secondarylnk":-211,"reactionlnk":1,
"datatable":{
"dtid":1,"datatypeslnk":2,
"title":"Production of pi- in pi+ on Be interactions at 3GeV/c, 0.05<theta<0.1 [rad]",
"npoints":0,
"nbins":[10],
"axisTitle":["momentum of pi- [GeV/c]","Cross section [mb/(GeV/c/rad)]"],
"val":
[60, 48, 37, 60, -1000, -1000, -1000, -1000, -1000, -1000],
"errStatPlus":
[6.5, 4.5, 3.5, 10, -500, -500, -500, -500, -500, -500],
"errStatMinus":
[6.5, 4.5, 3.5, 10, -500, -500, -500, -500, -500, -500],
"errSysPlus":
[0., 0., 0., 0., 0., 0., 0., 0., 0., 0.],
"errSysMinus":
[0., 0., 0., 0., 0., 0., 0., 0., 0., 0.],
"binMin":
[0.5, 1, 1.5, 2, 2.5, 3, 3.5, 4, 5, 6.5],
"binMax":
[1, 1.5, 2, 2.5, 3, 3.5, 4, 5, 6.5, 8]
},
"imageblobslnk":NULL,"scoreslnk":2,"accesslnk":1,
"parnames":["theta interval for secondary particle"], "parvalues":["0.05-0.1"]
},
{
"trid":1,"testlnk":0,"referencelnk":44,"mcdetaillnk":1,
"beamlnk":42,"targetlnk":4,"observablelnk":8,"secondarylnk":-211,"reactionlnk":1,
"datatable":{
"dtid":1,"datatypeslnk":2,
"title":"Production of pi- in pi+ on Be interactions at 3GeV/c, 0.1<theta<0.15 [rad]",
"npoints":0,
"nbins":[10],
"axisTitle":["momentum of pi- [GeV/c]","Cross section [mb/(GeV/c/rad)]"],
"val":
[70, 41, 35, 21, -1000, -1000, -1000, -1000, -1000, -1000],
"errStatPlus":
[7, 4, 3.5, 3, -500, -500, -500, -500, -500, -500],
"errStatMinus":
[7, 4, 3.5, 3, -500, -500, -500, -500, -500, -500],
"errSysPlus":
[0., 0., 0., 0., 0., 0., 0., 0., 0., 0.],
"errSysMinus":
[0., 0., 0., 0., 0., 0., 0., 0., 0., 0.],
"binMin":
[0.5, 1, 1.5, 2, 2.5, 3, 3.5, 4, 5, 6.5],
"binMax":
[1, 1.5, 2, 2.5, 3, 3.5, 4, 5, 6.5, 8]
},
"imageblobslnk":NULL,"scoreslnk":2,"accesslnk":1,
"parnames":["theta interval for secondary particle"], "parvalues":["0.1-0.15"]
},
{
"trid":1,"testlnk":0,"referencelnk":44,"mcdetaillnk":1,
"beamlnk":42,"targetlnk":4,"observablelnk":8,"secondarylnk":-211,"reactionlnk":1,
"datatable":{
"dtid":1,"datatypeslnk":2,
"title":"Production of pi- in pi+ on Be interactions at 3GeV/c, 0.15<theta<0.2 [rad]",
"npoints":0,
"nbins":[10],
"axisTitle":["momentum of pi- [GeV/c]","Cross section [mb/(GeV/c/rad)]"],
"val":
[80, 59, 24, 8, -1000, -1000, -1000, -1000, -1000, -1000],
"errStatPlus":
[10, 5.5, 3, 1.5, -500, -500, -500, -500, -500, -500],
"errStatMinus":
[10, 5.5, 3, 1.5, -500, -500, -500, -500, -500, -500],
"errSysPlus":
[0., 0., 0., 0., 0., 0., 0., 0., 0., 0.],
"errSysMinus":
[0., 0., 0., 0., 0., 0., 0., 0., 0., 0.],
"binMin":
[0.5, 1, 1.5, 2, 2.5, 3, 3.5, 4, 5, 6.5],
"binMax":
[1, 1.5, 2, 2.5, 3, 3.5, 4, 5, 6.5, 8]
},
"imageblobslnk":NULL,"scoreslnk":2,"accesslnk":1,
"parnames":["theta interval for secondary particle"], "parvalues":["0.15-0.2"]
},
{
"trid":1,"testlnk":0,"referencelnk":44,"mcdetaillnk":1,
"beamlnk":42,"targetlnk":4,"observablelnk":8,"secondarylnk":-211,"reactionlnk":1,
"datatable":{
"dtid":1,"datatypeslnk":2,
"title":"Production of pi- in pi+ on Be interactions at 3GeV/c, 0.2<theta<0.25 [rad]",
"npoints":0,
"nbins":[10],
"axisTitle":["momentum of pi- [GeV/c]","Cross section [mb/(GeV/c/rad)]"],
"val":
[48, 46, 12, 2, -1000, -1000, -1000, -1000, -1000, -1000],
"errStatPlus":
[6.5, 6, 2.5, 1, -500, -500, -500, -500, -500, -500],
"errStatMinus":
[6.5, 6, 2.5, 1, -500, -500, -500, -500, -500, -500],
"errSysPlus":
[0., 0., 0., 0., 0., 0., 0., 0., 0., 0.],
"errSysMinus":
[0., 0., 0., 0., 0., 0., 0., 0., 0., 0.],
"binMin":
[0.5, 1, 1.5, 2, 2.5, 3, 3.5, 4, 5, 6.5],
"binMax":
[1, 1.5, 2, 2.5, 3, 3.5, 4, 5, 6.5, 8]
},
"imageblobslnk":NULL,"scoreslnk":2,"accesslnk":1,
"parnames":["theta interval for secondary particle"], "parvalues":["0.2-0.25"]
},
{
"trid":1,"testlnk":0,"referencelnk":45,"mcdetaillnk":1,
"beamlnk":42,"targetlnk":4,"observablelnk":8,"secondarylnk":-211,"reactionlnk":1,
"datatable":{
"dtid":1,"datatypeslnk":2,
"title":"Production of pi- in pi+ on Be interactions at 3GeV/c, 0.35<theta<0.55 [rad]",
"npoints":0,
"nbins":[10],
"axisTitle":["momentum of pi- [GeV/c]","Cross section [mb/(GeV/c/rad)]"],
"val":
[88, 105, 120, 101, 115, 120, 103, 114, 117, 107],
"errStatPlus":
[6, 5, 4.5, 4, 5, 4, 3.5, 4, 5, 6.5],
"errStatMinus":
[6, 5, 4.5, 4, 5, 4, 3.5, 4, 5, 6.5],
"errSysPlus":
[0., 0., 0., 0., 0., 0., 0., 0., 0., 0.],
"errSysMinus":
[0., 0., 0., 0., 0., 0., 0., 0., 0., 0.],
"binMin":
[0.15, 0.2, 0.25, 0.3, 0.35, 0.4, 0.45, 0.5, 0.6, 0.7],
"binMax":
[0.2, 0.25, 0.3, 0.35, 0.4, 0.45, 0.5, 0.6, 0.7, 0.8]
},
"imageblobslnk":NULL,"scoreslnk":2,"accesslnk":1,
"parnames":["theta interval for secondary particle"], "parvalues":["0.35-0.55"]
},
{
"trid":1,"testlnk":0,"referencelnk":45,"mcdetaillnk":1,
"beamlnk":42,"targetlnk":4,"observablelnk":8,"secondarylnk":-211,"reactionlnk":1,
"datatable":{
"dtid":1,"datatypeslnk":2,
"title":"Production of pi- in pi+ on Be interactions at 3GeV/c, 0.55<theta<0.75 [rad]",
"npoints":0,
"nbins":[11],
"axisTitle":["momentum of pi- [GeV/c]","Cross section [mb/(GeV/c/rad)]"],
"val":
[81, 113, 114, 128, 120, 113, 112, 107, 103, 94, 70],
"errStatPlus":
[9, 4, 5, 5, 4, 4, 3.5, 3, 3.5, 5, 5.5],
"errStatMinus":
[9, 4, 5, 5, 4, 4, 3.5, 3, 3.5, 5, 5.5],
"errSysPlus":
[0., 0., 0., 0., 0., 0., 0., 0., 0., 0., 0.],
"errSysMinus":
[0., 0., 0., 0., 0., 0., 0., 0., 0., 0., 0.],
"binMin":
[0.1, 0.15, 0.2, 0.25, 0.3, 0.35, 0.4, 0.45, 0.5, 0.6, 0.7],
"binMax":
[0.15, 0.2, 0.25, 0.3, 0.35, 0.4, 0.45, 0.5, 0.6, 0.7, 0.8]
},
"imageblobslnk":NULL,"scoreslnk":2,"accesslnk":1,
"parnames":["theta interval for secondary particle"], "parvalues":["0.55-0.75"]
},
{
"trid":1,"testlnk":0,"referencelnk":45,"mcdetaillnk":1,
"beamlnk":42,"targetlnk":4,"observablelnk":8,"secondarylnk":-211,"reactionlnk":1,
"datatable":{
"dtid":1,"datatypeslnk":2,
"title":"Production of pi- in pi+ on Be interactions at 3GeV/c, 0.75<theta<0.95 [rad]",
"npoints":0,
"nbins":[10],
"axisTitle":["momentum of pi- [GeV/c]","Cross section [mb/(GeV/c/rad)]"],
"val":
[70, 108, 110, 126, 100, 88, 85, 76, 66, 47],
"errStatPlus":
[5, 4.5, 4.5, 4.5, 3.5, 3, 2.5, 2, 2.5, 3.5],
"errStatMinus":
[5, 4.5, 4.5, 4.5, 3.5, 3, 2.5, 2, 2.5, 3.5],
"errSysPlus":
[0., 0., 0., 0., 0., 0., 0., 0., 0., 0.],
"errSysMinus":
[0., 0., 0., 0., 0., 0., 0., 0., 0., 0.],
"binMin":
[0.1, 0.15, 0.2, 0.25, 0.3, 0.35, 0.4, 0.45, 0.5, 0.6],
"binMax":
[0.15, 0.2, 0.25, 0.3, 0.35, 0.4, 0.45, 0.5, 0.6, 0.7]
},
"imageblobslnk":NULL,"scoreslnk":2,"accesslnk":1,
"parnames":["theta interval for secondary particle"], "parvalues":["0.75-0.95"]
},
{
"trid":1,"testlnk":0,"referencelnk":45,"mcdetaillnk":1,
"beamlnk":42,"targetlnk":4,"observablelnk":8,"secondarylnk":-211,"reactionlnk":1,
"datatable":{
"dtid":1,"datatypeslnk":2,
"title":"Production of pi- in pi+ on Be interactions at 3GeV/c, 0.95<theta<1.15 [rad]",
"npoints":0,
"nbins":[9],
"axisTitle":["momentum of pi- [GeV/c]","Cross section [mb/(GeV/c/rad)]"],
"val":
[58, 99, 89, 87, 89, 70, 55, 47, 41],
"errStatPlus":
[4.5, 4, 3.5, 3.5, 3, 2.5, 2, 1.5, 1.5],
"errStatMinus":
[4.5, 4, 3.5, 3.5, 3, 2.5, 2, 1.5, 1.5],
"errSysPlus":
[0., 0., 0., 0., 0., 0., 0., 0., 0.],
"errSysMinus":
[0., 0., 0., 0., 0., 0., 0., 0., 0.],
"binMin":
[0.1, 0.15, 0.2, 0.25, 0.3, 0.35, 0.4, 0.45, 0.5],
"binMax":
[0.15, 0.2, 0.25, 0.3, 0.35, 0.4, 0.45, 0.5, 0.6]
},
"imageblobslnk":NULL,"scoreslnk":2,"accesslnk":1,
"parnames":["theta interval for secondary particle"], "parvalues":["0.95-1.15"]
},
{
"trid":1,"testlnk":0,"referencelnk":45,"mcdetaillnk":1,
"beamlnk":42,"targetlnk":4,"observablelnk":8,"secondarylnk":-211,"reactionlnk":1,
"datatable":{
"dtid":1,"datatypeslnk":2,
"title":"Production of pi- in pi+ on Be interactions at 3GeV/c, 1.15<theta<1.35 [rad]",
"npoints":0,
"nbins":[8],
"axisTitle":["momentum of pi- [GeV/c]","Cross section [mb/(GeV/c/rad)]"],
"val":
[66, 80, 82, 68, 56, 46, 37, 28],
"errStatPlus":
[4, 3.5, 4, 3, 2, 2, 1.5, 1.5],
"errStatMinus":
[4, 3.5, 4, 3, 2, 2, 1.5, 1.5],
"errSysPlus":
[0., 0., 0., 0., 0., 0., 0., 0.],
"errSysMinus":
[0., 0., 0., 0., 0., 0., 0., 0.],
"binMin":
[0.1, 0.15, 0.2, 0.25, 0.3, 0.35, 0.4, 0.45],
"binMax":
[0.15, 0.2, 0.25, 0.3, 0.35, 0.4, 0.45, 0.5]
},
"imageblobslnk":NULL,"scoreslnk":2,"accesslnk":1,
"parnames":["theta interval for secondary particle"], "parvalues":["1.15-1.35"]
},
{
"trid":1,"testlnk":0,"referencelnk":45,"mcdetaillnk":1,
"beamlnk":42,"targetlnk":4,"observablelnk":8,"secondarylnk":-211,"reactionlnk":1,
"datatable":{
"dtid":1,"datatypeslnk":2,
"title":"Production of pi- in pi+ on Be interactions at 3GeV/c, 1.35<theta<1.55 [rad]",
"npoints":0,
"nbins":[8],
"axisTitle":["momentum of pi- [GeV/c]","Cross section [mb/(GeV/c/rad)]"],
"val":
[61, 74, 63, 48, 40, 30, 25, 21],
"errStatPlus":
[4, 3.5, 2.5, 2, 1.5, 1.5, 1, 1],
"errStatMinus":
[4, 3.5, 2.5, 2, 1.5, 1.5, 1, 1],
"errSysPlus":
[0., 0., 0., 0., 0., 0., 0., 0.],
"errSysMinus":
[0., 0., 0., 0., 0., 0., 0., 0.],
"binMin":
[0.1, 0.15, 0.2, 0.25, 0.3, 0.35, 0.4, 0.45],
"binMax":
[0.15, 0.2, 0.25, 0.3, 0.35, 0.4, 0.45, 0.5]
},
"imageblobslnk":NULL,"scoreslnk":2,"accesslnk":1,
"parnames":["theta interval for secondary particle"], "parvalues":["1.35-1.55"]
},
{
"trid":1,"testlnk":0,"referencelnk":45,"mcdetaillnk":1,
"beamlnk":42,"targetlnk":4,"observablelnk":8,"secondarylnk":-211,"reactionlnk":1,
"datatable":{
"dtid":1,"datatypeslnk":2,
"title":"Production of pi- in pi+ on Be interactions at 3GeV/c, 1.55<theta<1.75 [rad]",
"npoints":0,
"nbins":[8],
"axisTitle":["momentum of pi- [GeV/c]","Cross section [mb/(GeV/c/rad)]"],
"val":
[49, 66, 48, 40, 32, 23, 18, 13],
"errStatPlus":
[3.5, 3.5, 2.5, 2, 1.5, 1, 1, 1],
"errStatMinus":
[3.5, 3.5, 2.5, 2, 1.5, 1, 1, 1],
"errSysPlus":
[0., 0., 0., 0., 0., 0., 0., 0.],
"errSysMinus":
[0., 0., 0., 0., 0., 0., 0., 0.],
"binMin":
[0.1, 0.15, 0.2, 0.25, 0.3, 0.35, 0.4, 0.45],
"binMax":
[0.15, 0.2, 0.25, 0.3, 0.35, 0.4, 0.45, 0.5]
},
"imageblobslnk":NULL,"scoreslnk":2,"accesslnk":1,
"parnames":["theta interval for secondary particle"], "parvalues":["1.55-1.75"]
},
{
"trid":1,"testlnk":0,"referencelnk":45,"mcdetaillnk":1,
"beamlnk":42,"targetlnk":4,"observablelnk":8,"secondarylnk":-211,"reactionlnk":1,
"datatable":{
"dtid":1,"datatypeslnk":2,
"title":"Production of pi- in pi+ on Be interactions at 3GeV/c, 1.75<theta<1.95 [rad]",
"npoints":0,
"nbins":[8],
"axisTitle":["momentum of pi- [GeV/c]","Cross section [mb/(GeV/c/rad)]"],
"val":
[27, 46, 40, 30, 27, 17, 11, 8],
"errStatPlus":
[2.5, 3, 2, 1.5, 1.5, 1, 1, 0.5],
"errStatMinus":
[2.5, 3, 2, 1.5, 1.5, 1, 1, 0.5],
"errSysPlus":
[0., 0., 0., 0., 0., 0., 0., 0.],
"errSysMinus":
[0., 0., 0., 0., 0., 0., 0., 0.],
"binMin":
[0.1, 0.15, 0.2, 0.25, 0.3, 0.35, 0.4, 0.45],
"binMax":
[0.15, 0.2, 0.25, 0.3, 0.35, 0.4, 0.45, 0.5]
},
"imageblobslnk":NULL,"scoreslnk":2,"accesslnk":1,
"parnames":["theta interval for secondary particle"], "parvalues":["1.75-1.95"]
},
{
"trid":1,"testlnk":0,"referencelnk":45,"mcdetaillnk":1,
"beamlnk":42,"targetlnk":4,"observablelnk":8,"secondarylnk":-211,"reactionlnk":1,
"datatable":{
"dtid":1,"datatypeslnk":2,
"title":"Production of pi- in pi+ on Be interactions at 3GeV/c, 1.95<theta<2.15 [rad]",
"npoints":0,
"nbins":[8],
"axisTitle":["momentum of pi- [GeV/c]","Cross section [mb/(GeV/c/rad)]"],
"val":
[22, 32, 27, 25, 14, 7, 6, 4],
"errStatPlus":
[2.5, 2.5, 2, 1.5, 1.5, 0.5, 0.5, 0.5],
"errStatMinus":
[2.5, 2.5, 2, 1.5, 1.5, 0.5, 0.5, 0.5],
"errSysPlus":
[0., 0., 0., 0., 0., 0., 0., 0.],
"errSysMinus":
[0., 0., 0., 0., 0., 0., 0., 0.],
"binMin":
[0.1, 0.15, 0.2, 0.25, 0.3, 0.35, 0.4, 0.45],
"binMax":
[0.15, 0.2, 0.25, 0.3, 0.35, 0.4, 0.45, 0.5]
},
"imageblobslnk":NULL,"scoreslnk":2,"accesslnk":1,
"parnames":["theta interval for secondary particle"], "parvalues":["1.95-2.15"]
},
{
"trid":1,"testlnk":0,"referencelnk":44,"mcdetaillnk":1,
"beamlnk":43,"targetlnk":4,"observablelnk":8,"secondarylnk":-211,"reactionlnk":1,
"datatable":{
"dtid":1,"datatypeslnk":2,
"title":"Production of pi- in pi+ on Be interactions at 5GeV/c, 0.05<theta<0.1 [rad]",
"npoints":0,
"nbins":[10],
"axisTitle":["momentum of pi- [GeV/c]","Cross section [mb/(GeV/c/rad)]"],
"val":
[81, 106, 62, 64, 50, 52, 63, 33, -1000, -1000],
"errStatPlus":
[7, 6.5, 4, 4, 3.5, 4, 3.5, 4, -500, -500],
"errStatMinus":
[7, 6.5, 4, 4, 3.5, 4, 3.5, 4, -500, -500],
"errSysPlus":
[0., 0., 0., 0., 0., 0., 0., 0., 0., 0.],
"errSysMinus":
[0., 0., 0., 0., 0., 0., 0., 0., 0., 0.],
"binMin":
[0.5, 1, 1.5, 2, 2.5, 3, 3.5, 4, 5, 6.5],
"binMax":
[1, 1.5, 2, 2.5, 3, 3.5, 4, 5, 6.5, 8]
},
"imageblobslnk":NULL,"scoreslnk":2,"accesslnk":1,
"parnames":["theta interval for secondary particle"], "parvalues":["0.05-0.1"]
},
{
"trid":1,"testlnk":0,"referencelnk":44,"mcdetaillnk":1,
"beamlnk":43,"targetlnk":4,"observablelnk":8,"secondarylnk":-211,"reactionlnk":1,
"datatable":{
"dtid":1,"datatypeslnk":2,
"title":"Production of pi- in pi+ on Be interactions at 5GeV/c, 0.1<theta<0.15 [rad]",
"npoints":0,
"nbins":[10],
"axisTitle":["momentum of pi- [GeV/c]","Cross section [mb/(GeV/c/rad)]"],
"val":
[81, 59, 67, 56, 37, 25, 15, 5, -1000, -1000],
"errStatPlus":
[7.5, 4.5, 4.5, 4, 3, 2, 1.5, 1, -500, -500],
"errStatMinus":
[7.5, 4.5, 4.5, 4, 3, 2, 1.5, 1, -500, -500],
"errSysPlus":
[0., 0., 0., 0., 0., 0., 0., 0., 0., 0.],
"errSysMinus":
[0., 0., 0., 0., 0., 0., 0., 0., 0., 0.],
"binMin":
[0.5, 1, 1.5, 2, 2.5, 3, 3.5, 4, 5, 6.5],
"binMax":
[1, 1.5, 2, 2.5, 3, 3.5, 4, 5, 6.5, 8]
},
"imageblobslnk":NULL,"scoreslnk":2,"accesslnk":1,
"parnames":["theta interval for secondary particle"], "parvalues":["0.1-0.15"]
},
{
"trid":1,"testlnk":0,"referencelnk":44,"mcdetaillnk":1,
"beamlnk":43,"targetlnk":4,"observablelnk":8,"secondarylnk":-211,"reactionlnk":1,
"datatable":{
"dtid":1,"datatypeslnk":2,
"title":"Production of pi- in pi+ on Be interactions at 5GeV/c, 0.15<theta<0.2 [rad]",
"npoints":0,
"nbins":[10],
"axisTitle":["momentum of pi- [GeV/c]","Cross section [mb/(GeV/c/rad)]"],
"val":
[86, 86, 68, 34, 25, 6, 2, 1, -1000, -1000],
"errStatPlus":
[7, 6, 5, 3, 2.5, 1, 0.5, 0.5, -500, -500],
"errStatMinus":
[7, 6, 5, 3, 2.5, 1, 0.5, 0.5, -500, -500],
"errSysPlus":
[0., 0., 0., 0., 0., 0., 0., 0., 0., 0.],
"errSysMinus":
[0., 0., 0., 0., 0., 0., 0., 0., 0., 0.],
"binMin":
[0.5, 1, 1.5, 2, 2.5, 3, 3.5, 4, 5, 6.5],
"binMax":
[1, 1.5, 2, 2.5, 3, 3.5, 4, 5, 6.5, 8]
},
"imageblobslnk":NULL,"scoreslnk":2,"accesslnk":1,
"parnames":["theta interval for secondary particle"], "parvalues":["0.15-0.2"]
},
{
"trid":1,"testlnk":0,"referencelnk":44,"mcdetaillnk":1,
"beamlnk":43,"targetlnk":4,"observablelnk":8,"secondarylnk":-211,"reactionlnk":1,
"datatable":{
"dtid":1,"datatypeslnk":2,
"title":"Production of pi- in pi+ on Be interactions at 5GeV/c, 0.2<theta<0.25 [rad]",
"npoints":0,
"nbins":[10],
"axisTitle":["momentum of pi- [GeV/c]","Cross section [mb/(GeV/c/rad)]"],
"val":
[110, 59, 38, 17, 3, 2, 2, 1, -1000, -1000],
"errStatPlus":
[10, 5.5, 4.5, 3, 0.5, 0.5, 0.5, 0.5, -500, -500],
"errStatMinus":
[10, 5.5, 4.5, 3, 0.5, 0.5, 0.5, 0.5, -500, -500],
"errSysPlus":
[0., 0., 0., 0., 0., 0., 0., 0., 0., 0.],
"errSysMinus":
[0., 0., 0., 0., 0., 0., 0., 0., 0., 0.],
"binMin":
[0.5, 1, 1.5, 2, 2.5, 3, 3.5, 4, 5, 6.5],
"binMax":
[1, 1.5, 2, 2.5, 3, 3.5, 4, 5, 6.5, 8]
},
"imageblobslnk":NULL,"scoreslnk":2,"accesslnk":1,
"parnames":["theta interval for secondary particle"], "parvalues":["0.2-0.25"]
},
{
"trid":1,"testlnk":0,"referencelnk":45,"mcdetaillnk":1,
"beamlnk":43,"targetlnk":4,"observablelnk":8,"secondarylnk":-211,"reactionlnk":1,
"datatable":{
"dtid":1,"datatypeslnk":2,
"title":"Production of pi- in pi+ on Be interactions at 5GeV/c, 0.35<theta<0.55 [rad]",
"npoints":0,
"nbins":[10],
"axisTitle":["momentum of pi- [GeV/c]","Cross section [mb/(GeV/c/rad)]"],
"val":
[106, 133, 152, 152, 153, 150, 148, 157, 152, 124],
"errStatPlus":
[8.5, 6.5, 5.5, 6, 4.5, 4.5, 4, 5, 6, 8.5],
"errStatMinus":
[8.5, 6.5, 5.5, 6, 4.5, 4.5, 4, 5, 6, 8.5],
"errSysPlus":
[0., 0., 0., 0., 0., 0., 0., 0., 0., 0.],
"errSysMinus":
[0., 0., 0., 0., 0., 0., 0., 0., 0., 0.],
"binMin":
[0.15, 0.2, 0.25, 0.3, 0.35, 0.4, 0.45, 0.5, 0.6, 0.7],
"binMax":
[0.2, 0.25, 0.3, 0.35, 0.4, 0.45, 0.5, 0.6, 0.7, 0.8]
},
"imageblobslnk":NULL,"scoreslnk":2,"accesslnk":1,
"parnames":["theta interval for secondary particle"], "parvalues":["0.35-0.55"]
},
{
"trid":1,"testlnk":0,"referencelnk":45,"mcdetaillnk":1,
"beamlnk":43,"targetlnk":4,"observablelnk":8,"secondarylnk":-211,"reactionlnk":1,
"datatable":{
"dtid":1,"datatypeslnk":2,
"title":"Production of pi- in pi+ on Be interactions at 5GeV/c, 0.55<theta<0.75 [rad]",
"npoints":0,
"nbins":[11],
"axisTitle":["momentum of pi- [GeV/c]","Cross section [mb/(GeV/c/rad)]"],
"val":
[65, 118, 135, 128, 122, 118, 114, 113, 116, 92, 66],
"errStatPlus":
[8.5, 5.5, 4.5, 4.5, 4.5, 3.5, 3, 3.5, 3.5, 5, 5.5],
"errStatMinus":
[8.5, 5.5, 4.5, 4.5, 4.5, 3.5, 3, 3.5, 3.5, 5, 5.5],
"errSysPlus":
[0., 0., 0., 0., 0., 0., 0., 0., 0., 0., 0.],
"errSysMinus":
[0., 0., 0., 0., 0., 0., 0., 0., 0., 0., 0.],
"binMin":
[0.1, 0.15, 0.2, 0.25, 0.3, 0.35, 0.4, 0.45, 0.5, 0.6, 0.7],
"binMax":
[0.15, 0.2, 0.25, 0.3, 0.35, 0.4, 0.45, 0.5, 0.6, 0.7, 0.8]
},
"imageblobslnk":NULL,"scoreslnk":2,"accesslnk":1,
"parnames":["theta interval for secondary particle"], "parvalues":["0.55-0.75"]
},
{
"trid":1,"testlnk":0,"referencelnk":45,"mcdetaillnk":1,
"beamlnk":43,"targetlnk":4,"observablelnk":8,"secondarylnk":-211,"reactionlnk":1,
"datatable":{
"dtid":1,"datatypeslnk":2,
"title":"Production of pi- in pi+ on Be interactions at 5GeV/c, 0.75<theta<0.95 [rad]",
"npoints":0,
"nbins":[10],
"axisTitle":["momentum of pi- [GeV/c]","Cross section [mb/(GeV/c/rad)]"],
"val":
[65, 121, 110, 108, 104, 94, 87, 80, 69, 52],
"errStatPlus":
[6, 5, 3.5, 3.5, 3.5, 2.5, 2.5, 2, 2.5, 3],
"errStatMinus":
[6, 5, 3.5, 3.5, 3.5, 2.5, 2.5, 2, 2.5, 3],
"errSysPlus":
[0., 0., 0., 0., 0., 0., 0., 0., 0., 0.],
"errSysMinus":
[0., 0., 0., 0., 0., 0., 0., 0., 0., 0.],
"binMin":
[0.1, 0.15, 0.2, 0.25, 0.3, 0.35, 0.4, 0.45, 0.5, 0.6],
"binMax":
[0.15, 0.2, 0.25, 0.3, 0.35, 0.4, 0.45, 0.5, 0.6, 0.7]
},
"imageblobslnk":NULL,"scoreslnk":2,"accesslnk":1,
"parnames":["theta interval for secondary particle"], "parvalues":["0.75-0.95"]
},
{
"trid":1,"testlnk":0,"referencelnk":45,"mcdetaillnk":1,
"beamlnk":43,"targetlnk":4,"observablelnk":8,"secondarylnk":-211,"reactionlnk":1,
"datatable":{
"dtid":1,"datatypeslnk":2,
"title":"Production of pi- in pi+ on Be interactions at 5GeV/c, 0.95<theta<1.15 [rad]",
"npoints":0,
"nbins":[9],
"axisTitle":["momentum of pi- [GeV/c]","Cross section [mb/(GeV/c/rad)]"],
"val":
[63, 115, 100, 94, 90, 77, 62, 49, 37],
"errStatPlus":
[4.5, 5, 3, 3.5, 2.5, 2, 2, 2, 1.5],
"errStatMinus":
[4.5, 5, 3, 3.5, 2.5, 2, 2, 2, 1.5],
"errSysPlus":
[0., 0., 0., 0., 0., 0., 0., 0., 0.],
"errSysMinus":
[0., 0., 0., 0., 0., 0., 0., 0., 0.],
"binMin":
[0.1, 0.15, 0.2, 0.25, 0.3, 0.35, 0.4, 0.45, 0.5],
"binMax":
[0.15, 0.2, 0.25, 0.3, 0.35, 0.4, 0.45, 0.5, 0.6]
},
"imageblobslnk":NULL,"scoreslnk":2,"accesslnk":1,
"parnames":["theta interval for secondary particle"], "parvalues":["0.95-1.15"]
},
{
"trid":1,"testlnk":0,"referencelnk":45,"mcdetaillnk":1,
"beamlnk":43,"targetlnk":4,"observablelnk":8,"secondarylnk":-211,"reactionlnk":1,
"datatable":{
"dtid":1,"datatypeslnk":2,
"title":"Production of pi- in pi+ on Be interactions at 5GeV/c, 1.15<theta<1.35 [rad]",
"npoints":0,
"nbins":[8],
"axisTitle":["momentum of pi- [GeV/c]","Cross section [mb/(GeV/c/rad)]"],
"val":
[71, 94, 80, 79, 65, 48, 33, 27],
"errStatPlus":
[4, 4, 2.5, 2.5, 2, 2, 1.5, 1],
"errStatMinus":
[4, 4, 2.5, 2.5, 2, 2, 1.5, 1],
"errSysPlus":
[0., 0., 0., 0., 0., 0., 0., 0.],
"errSysMinus":
[0., 0., 0., 0., 0., 0., 0., 0.],
"binMin":
[0.1, 0.15, 0.2, 0.25, 0.3, 0.35, 0.4, 0.45],
"binMax":
[0.15, 0.2, 0.25, 0.3, 0.35, 0.4, 0.45, 0.5]
},
"imageblobslnk":NULL,"scoreslnk":2,"accesslnk":1,
"parnames":["theta interval for secondary particle"], "parvalues":["1.15-1.35"]
},
{
"trid":1,"testlnk":0,"referencelnk":45,"mcdetaillnk":1,
"beamlnk":43,"targetlnk":4,"observablelnk":8,"secondarylnk":-211,"reactionlnk":1,
"datatable":{
"dtid":1,"datatypeslnk":2,
"title":"Production of pi- in pi+ on Be interactions at 5GeV/c, 1.35<theta<1.55 [rad]",
"npoints":0,
"nbins":[8],
"axisTitle":["momentum of pi- [GeV/c]","Cross section [mb/(GeV/c/rad)]"],
"val":
[65, 87, 71, 47, 47, 35, 26, 20],
"errStatPlus":
[4.5, 3.5, 2.5, 1.5, 2, 1.5, 1, 1],
"errStatMinus":
[4.5, 3.5, 2.5, 1.5, 2, 1.5, 1, 1],
"errSysPlus":
[0., 0., 0., 0., 0., 0., 0., 0.],
"errSysMinus":
[0., 0., 0., 0., 0., 0., 0., 0.],
"binMin":
[0.1, 0.15, 0.2, 0.25, 0.3, 0.35, 0.4, 0.45],
"binMax":
[0.15, 0.2, 0.25, 0.3, 0.35, 0.4, 0.45, 0.5]
},
"imageblobslnk":NULL,"scoreslnk":2,"accesslnk":1,
"parnames":["theta interval for secondary particle"], "parvalues":["1.35-1.55"]
},
{
"trid":1,"testlnk":0,"referencelnk":45,"mcdetaillnk":1,
"beamlnk":43,"targetlnk":4,"observablelnk":8,"secondarylnk":-211,"reactionlnk":1,
"datatable":{
"dtid":1,"datatypeslnk":2,
"title":"Production of pi- in pi+ on Be interactions at 5GeV/c, 1.55<theta<1.75 [rad]",
"npoints":0,
"nbins":[8],
"axisTitle":["momentum of pi- [GeV/c]","Cross section [mb/(GeV/c/rad)]"],
"val":
[59, 70, 61, 40, 31, 23, 18, 12],
"errStatPlus":
[4, 3, 2.5, 1.5, 1.5, 1, 1, 0.5],
"errStatMinus":
[4, 3, 2.5, 1.5, 1.5, 1, 1, 0.5],
"errSysPlus":
[0., 0., 0., 0., 0., 0., 0., 0.],
"errSysMinus":
[0., 0., 0., 0., 0., 0., 0., 0.],
"binMin":
[0.1, 0.15, 0.2, 0.25, 0.3, 0.35, 0.4, 0.45],
"binMax":
[0.15, 0.2, 0.25, 0.3, 0.35, 0.4, 0.45, 0.5]
},
"imageblobslnk":NULL,"scoreslnk":2,"accesslnk":1,
"parnames":["theta interval for secondary particle"], "parvalues":["1.55-1.75"]
},
{
"trid":1,"testlnk":0,"referencelnk":45,"mcdetaillnk":1,
"beamlnk":43,"targetlnk":4,"observablelnk":8,"secondarylnk":-211,"reactionlnk":1,
"datatable":{
"dtid":1,"datatypeslnk":2,
"title":"Production of pi- in pi+ on Be interactions at 5GeV/c, 1.75<theta<1.95 [rad]",
"npoints":0,
"nbins":[8],
"axisTitle":["momentum of pi- [GeV/c]","Cross section [mb/(GeV/c/rad)]"],
"val":
[43, 56, 46, 32, 20, 16, 12, 9],
"errStatPlus":
[2.5, 2.5, 2, 1.5, 1, 1, 0.5, 0.5],
"errStatMinus":
[2.5, 2.5, 2, 1.5, 1, 1, 0.5, 0.5],
"errSysPlus":
[0., 0., 0., 0., 0., 0., 0., 0.],
"errSysMinus":
[0., 0., 0., 0., 0., 0., 0., 0.],
"binMin":
[0.1, 0.15, 0.2, 0.25, 0.3, 0.35, 0.4, 0.45],
"binMax":
[0.15, 0.2, 0.25, 0.3, 0.35, 0.4, 0.45, 0.5]
},
"imageblobslnk":NULL,"scoreslnk":2,"accesslnk":1,
"parnames":["theta interval for secondary particle"], "parvalues":["1.75-1.95"]
},
{
"trid":1,"testlnk":0,"referencelnk":45,"mcdetaillnk":1,
"beamlnk":43,"targetlnk":4,"observablelnk":8,"secondarylnk":-211,"reactionlnk":1,
"datatable":{
"dtid":1,"datatypeslnk":2,
"title":"Production of pi- in pi+ on Be interactions at 5GeV/c, 1.95<theta<21.5 [rad]",
"npoints":0,
"nbins":[8],
"axisTitle":["momentum of pi- [GeV/c]","Cross section [mb/(GeV/c/rad)]"],
"val":
[33, 51, 34, 25, 17, 10, 6, 5],
"errStatPlus":
[2.5, 2.5, 1.5, 1.5, 1, 1, 0.5, 0.5],
"errStatMinus":
[2.5, 2.5, 1.5, 1.5, 1, 1, 0.5, 0.5],
"errSysPlus":
[0., 0., 0., 0., 0., 0., 0., 0.],
"errSysMinus":
[0., 0., 0., 0., 0., 0., 0., 0.],
"binMin":
[0.1, 0.15, 0.2, 0.25, 0.3, 0.35, 0.4, 0.45],
"binMax":
[0.15, 0.2, 0.25, 0.3, 0.35, 0.4, 0.45, 0.5]
},
"imageblobslnk":NULL,"scoreslnk":2,"accesslnk":1,
"parnames":["theta interval for secondary particle"], "parvalues":["1.95-21.5"]
},
{
"trid":1,"testlnk":0,"referencelnk":44,"mcdetaillnk":1,
"beamlnk":44,"targetlnk":4,"observablelnk":8,"secondarylnk":-211,"reactionlnk":1,
"datatable":{
"dtid":1,"datatypeslnk":2,
"title":"Production of pi- in pi+ on Be interactions at 8GeV/c, 0.05<theta<0.1 [rad]",
"npoints":0,
"nbins":[9],
"axisTitle":["momentum of pi- [GeV/c]","Cross section [mb/(GeV/c/rad)]"],
"val":
[110, 140, 118, 114, 83, 93, 65, 50, 26],
"errStatPlus":
[10, 10, 6.5, 6, 4.5, 5, 3.5, 2.5, 1.5],
"errStatMinus":
[10, 10, 6.5, 6, 4.5, 5, 3.5, 2.5, 1.5],
"errSysPlus":
[0., 0., 0., 0., 0., 0., 0., 0., 0.],
"errSysMinus":
[0., 0., 0., 0., 0., 0., 0., 0., 0.],
"binMin":
[0.5, 1, 1.5, 2, 2.5, 3, 3.5, 4, 5],
"binMax":
[1, 1.5, 2, 2.5, 3, 3.5, 4, 5, 6.5]
},
"imageblobslnk":NULL,"scoreslnk":2,"accesslnk":1,
"parnames":["theta interval for secondary particle"], "parvalues":["0.05-0.1"]
},
{
"trid":1,"testlnk":0,"referencelnk":44,"mcdetaillnk":1,
"beamlnk":44,"targetlnk":4,"observablelnk":8,"secondarylnk":-211,"reactionlnk":1,
"datatable":{
"dtid":1,"datatypeslnk":2,
"title":"Production of pi- in pi+ on Be interactions at 8GeV/c, 0.1<theta<0.15 [rad]",
"npoints":0,
"nbins":[9],
"axisTitle":["momentum of pi- [GeV/c]","Cross section [mb/(GeV/c/rad)]"],
"val":
[150, 118, 101, 93, 61, 44, 36, 20, 3],
"errStatPlus":
[10, 7, 6, 5.5, 4.5, 3, 2.5, 2, 0.5],
"errStatMinus":
[10, 7, 6, 5.5, 4.5, 3, 2.5, 2, 0.5],
"errSysPlus":
[0., 0., 0., 0., 0., 0., 0., 0., 0.],
"errSysMinus":
[0., 0., 0., 0., 0., 0., 0., 0., 0.],
"binMin":
[0.5, 1, 1.5, 2, 2.5, 3, 3.5, 4, 5],
"binMax":
[1, 1.5, 2, 2.5, 3, 3.5, 4, 5, 6.5]
},
"imageblobslnk":NULL,"scoreslnk":2,"accesslnk":1,
"parnames":["theta interval for secondary particle"], "parvalues":["0.1-0.15"]
},
{
"trid":1,"testlnk":0,"referencelnk":44,"mcdetaillnk":1,
"beamlnk":44,"targetlnk":4,"observablelnk":8,"secondarylnk":-211,"reactionlnk":1,
"datatable":{
"dtid":1,"datatypeslnk":2,
"title":"Production of pi- in pi+ on Be interactions at 8GeV/c, 0.15<theta<0.2 [rad]",
"npoints":0,
"nbins":[8],
"axisTitle":["momentum of pi- [GeV/c]","Cross section [mb/(GeV/c/rad)]"],
"val":
[130, 120, 99, 85, 50, 26, 17, 4],
"errStatPlus":
[10, 10, 6.5, 6, 4, 2.5, 2, 0.5],
"errStatMinus":
[10, 10, 6.5, 6, 4, 2.5, 2, 0.5],
"errSysPlus":
[0., 0., 0., 0., 0., 0., 0., 0.],
"errSysMinus":
[0., 0., 0., 0., 0., 0., 0., 0.],
"binMin":
[0.5, 1, 1.5, 2, 2.5, 3, 3.5, 4],
"binMax":
[1, 1.5, 2, 2.5, 3, 3.5, 4, 5]
},
"imageblobslnk":NULL,"scoreslnk":2,"accesslnk":1,
"parnames":["theta interval for secondary particle"], "parvalues":["0.15-0.2"]
},
{
"trid":1,"testlnk":0,"referencelnk":44,"mcdetaillnk":1,
"beamlnk":44,"targetlnk":4,"observablelnk":8,"secondarylnk":-211,"reactionlnk":1,
"datatable":{
"dtid":1,"datatypeslnk":2,
"title":"Production of pi- in pi+ on Be interactions at 8GeV/c, 0.2<theta<0.25 [rad]",
"npoints":0,
"nbins":[9],
"axisTitle":["momentum of pi- [GeV/c]","Cross section [mb/(GeV/c/rad)]"],
"val":
[100, 110, 130, 52, 25, 12, 4, 1, 0],
"errStatPlus":
[10, 10, 10, 5.5, 3.5, 4, 2.5, 2, 2],
"errStatMinus":
[10, 10, 10, 5.5, 3.5, 4, 2.5, 2, 2],
"errSysPlus":
[0., 0., 0., 0., 0., 0., 0., 0., 0.],
"errSysMinus":
[0., 0., 0., 0., 0., 0., 0., 0., 0.],
"binMin":
[0.5, 1, 1.5, 2, 2.5, 3, 3.5, 4, 5],
"binMax":
[1, 1.5, 2, 2.5, 3, 3.5, 4, 5, 6.5]
},
"imageblobslnk":NULL,"scoreslnk":2,"accesslnk":1,
"parnames":["theta interval for secondary particle"], "parvalues":["0.2-0.25"]
},
{
"trid":1,"testlnk":0,"referencelnk":45,"mcdetaillnk":1,
"beamlnk":44,"targetlnk":4,"observablelnk":8,"secondarylnk":-211,"reactionlnk":1,
"datatable":{
"dtid":1,"datatypeslnk":2,
"title":"Production of pi- in pi+ on Be interactions at 8GeV/c, 0.35<theta<0.55 [rad]",
"npoints":0,
"nbins":[10],
"axisTitle":["momentum of pi- [GeV/c]","Cross section [mb/(GeV/c/rad)]"],
"val":
[112, 136, 146, 132, 128, 153, 160, 159, 148, 148],
"errStatPlus":
[9, 6.5, 7.5, 5, 5.5, 8.5, 5, 5.5, 7, 8.5],
"errStatMinus":
[9, 6.5, 7.5, 5, 5.5, 8.5, 5, 5.5, 7, 8.5],
"errSysPlus":
[0., 0., 0., 0., 0., 0., 0., 0., 0., 0.],
"errSysMinus":
[0., 0., 0., 0., 0., 0., 0., 0., 0., 0.],
"binMin":
[0.15, 0.2, 0.25, 0.3, 0.35, 0.4, 0.45, 0.5, 0.6, 0.7],
"binMax":
[0.2, 0.25, 0.3, 0.35, 0.4, 0.45, 0.5, 0.6, 0.7, 0.8]
},
"imageblobslnk":NULL,"scoreslnk":2,"accesslnk":1,
"parnames":["theta interval for secondary particle"], "parvalues":["0.35-0.55"]
},
{
"trid":1,"testlnk":0,"referencelnk":45,"mcdetaillnk":1,
"beamlnk":44,"targetlnk":4,"observablelnk":8,"secondarylnk":-211,"reactionlnk":1,
"datatable":{
"dtid":1,"datatypeslnk":2,
"title":"Production of pi- in pi+ on Be interactions at 8GeV/c, 0.55<theta<0.75 [rad]",
"npoints":0,
"nbins":[11],
"axisTitle":["momentum of pi- [GeV/c]","Cross section [mb/(GeV/c/rad)]"],
"val":
[82, 108, 148, 133, 141, 124, 120, 116, 112, 103, 81],
"errStatPlus":
[10, 5.5, 7, 5, 5.5, 4, 4.5, 4, 4, 5, 7],
"errStatMinus":
[10, 5.5, 7, 5, 5.5, 4, 4.5, 4, 4, 5, 7],
"errSysPlus":
[0., 0., 0., 0., 0., 0., 0., 0., 0., 0., 0.],
"errSysMinus":
[0., 0., 0., 0., 0., 0., 0., 0., 0., 0., 0.],
"binMin":
[0.1, 0.15, 0.2, 0.25, 0.3, 0.35, 0.4, 0.45, 0.5, 0.6, 0.7],
"binMax":
[0.15, 0.2, 0.25, 0.3, 0.35, 0.4, 0.45, 0.5, 0.6, 0.7, 0.8]
},
"imageblobslnk":NULL,"scoreslnk":2,"accesslnk":1,
"parnames":["theta interval for secondary particle"], "parvalues":["0.55-0.75"]
},
{
"trid":1,"testlnk":0,"referencelnk":45,"mcdetaillnk":1,
"beamlnk":44,"targetlnk":4,"observablelnk":8,"secondarylnk":-211,"reactionlnk":1,
"datatable":{
"dtid":1,"datatypeslnk":2,
"title":"Production of pi- in pi+ on Be interactions at 8GeV/c, 0.75<theta<0.95 [rad]",
"npoints":0,
"nbins":[10],
"axisTitle":["momentum of pi- [GeV/c]","Cross section [mb/(GeV/c/rad)]"],
"val":
[55, 110, 114, 123, 96, 91, 79, 70, 70, 57],
"errStatPlus":
[5, 5.5, 5.5, 5, 3.5, 3.5, 2.5, 2.5, 2.5, 3],
"errStatMinus":
[5, 5.5, 5.5, 5, 3.5, 3.5, 2.5, 2.5, 2.5, 3],
"errSysPlus":
[0., 0., 0., 0., 0., 0., 0., 0., 0., 0.],
"errSysMinus":
[0., 0., 0., 0., 0., 0., 0., 0., 0., 0.],
"binMin":
[0.1, 0.15, 0.2, 0.25, 0.3, 0.35, 0.4, 0.45, 0.5, 0.6],
"binMax":
[0.15, 0.2, 0.25, 0.3, 0.35, 0.4, 0.45, 0.5, 0.6, 0.7]
},
"imageblobslnk":NULL,"scoreslnk":2,"accesslnk":1,
"parnames":["theta interval for secondary particle"], "parvalues":["0.75-0.95"]
},
{
"trid":1,"testlnk":0,"referencelnk":45,"mcdetaillnk":1,
"beamlnk":44,"targetlnk":4,"observablelnk":8,"secondarylnk":-211,"reactionlnk":1,
"datatable":{
"dtid":1,"datatypeslnk":2,
"title":"Production of pi- in pi+ on Be interactions at 8GeV/c, 0.95<theta<1.15 [rad]",
"npoints":0,
"nbins":[9],
"axisTitle":["momentum of pi- [GeV/c]","Cross section [mb/(GeV/c/rad)]"],
"val":
[72, 102, 95, 101, 85, 70, 52, 45, 39],
"errStatPlus":
[5.5, 4.5, 4, 4, 3, 2.5, 2, 1.5, 1.5],
"errStatMinus":
[5.5, 4.5, 4, 4, 3, 2.5, 2, 1.5, 1.5],
"errSysPlus":
[0., 0., 0., 0., 0., 0., 0., 0., 0.],
"errSysMinus":
[0., 0., 0., 0., 0., 0., 0., 0., 0.],
"binMin":
[0.1, 0.15, 0.2, 0.25, 0.3, 0.35, 0.4, 0.45, 0.5],
"binMax":
[0.15, 0.2, 0.25, 0.3, 0.35, 0.4, 0.45, 0.5, 0.6]
},
"imageblobslnk":NULL,"scoreslnk":2,"accesslnk":1,
"parnames":["theta interval for secondary particle"], "parvalues":["0.95-1.15"]
},
{
"trid":1,"testlnk":0,"referencelnk":45,"mcdetaillnk":1,
"beamlnk":44,"targetlnk":4,"observablelnk":8,"secondarylnk":-211,"reactionlnk":1,
"datatable":{
"dtid":1,"datatypeslnk":2,
"title":"Production of pi- in pi+ on Be interactions at 8GeV/c, 1.15<theta<1.35 [rad]",
"npoints":0,
"nbins":[8],
"axisTitle":["momentum of pi- [GeV/c]","Cross section [mb/(GeV/c/rad)]"],
"val":
[59, 88, 83, 73, 59, 35, 28, 25],
"errStatPlus":
[4, 5, 3.5, 3.5, 3.5, 2, 1.5, 1.5],
"errStatMinus":
[4, 5, 3.5, 3.5, 3.5, 2, 1.5, 1.5],
"errSysPlus":
[0., 0., 0., 0., 0., 0., 0., 0.],
"errSysMinus":
[0., 0., 0., 0., 0., 0., 0., 0.],
"binMin":
[0.1, 0.15, 0.2, 0.25, 0.3, 0.35, 0.4, 0.45],
"binMax":
[0.15, 0.2, 0.25, 0.3, 0.35, 0.4, 0.45, 0.5]
},
"imageblobslnk":NULL,"scoreslnk":2,"accesslnk":1,
"parnames":["theta interval for secondary particle"], "parvalues":["1.15-1.35"]
},
{
"trid":1,"testlnk":0,"referencelnk":45,"mcdetaillnk":1,
"beamlnk":44,"targetlnk":4,"observablelnk":8,"secondarylnk":-211,"reactionlnk":1,
"datatable":{
"dtid":1,"datatypeslnk":2,
"title":"Production of pi- in pi+ on Be interactions at 8GeV/c, 1.35<theta<1.55 [rad]",
"npoints":0,
"nbins":[8],
"axisTitle":["momentum of pi- [GeV/c]","Cross section [mb/(GeV/c/rad)]"],
"val":
[57, 84, 72, 67, 44, 31, 24, 19],
"errStatPlus":
[4, 4.5, 3, 3, 2, 1.5, 1.5, 1],
"errStatMinus":
[4, 4.5, 3, 3, 2, 1.5, 1.5, 1],
"errSysPlus":
[0., 0., 0., 0., 0., 0., 0., 0.],
"errSysMinus":
[0., 0., 0., 0., 0., 0., 0., 0.],
"binMin":
[0.1, 0.15, 0.2, 0.25, 0.3, 0.35, 0.4, 0.45],
"binMax":
[0.15, 0.2, 0.25, 0.3, 0.35, 0.4, 0.45, 0.5]
},
"imageblobslnk":NULL,"scoreslnk":2,"accesslnk":1,
"parnames":["theta interval for secondary particle"], "parvalues":["1.35-1.55"]
},
{
"trid":1,"testlnk":0,"referencelnk":45,"mcdetaillnk":1,
"beamlnk":44,"targetlnk":4,"observablelnk":8,"secondarylnk":-211,"reactionlnk":1,
"datatable":{
"dtid":1,"datatypeslnk":2,
"title":"Production of pi- in pi+ on Be interactions at 8GeV/c, 1.55<theta<1.75 [rad]",
"npoints":0,
"nbins":[8],
"axisTitle":["momentum of pi- [GeV/c]","Cross section [mb/(GeV/c/rad)]"],
"val":
[54, 60, 64, 43, 26, 21, 18, 14],
"errStatPlus":
[4.5, 3, 3, 3, 1.5, 1.5, 1, 1],
"errStatMinus":
[4.5, 3, 3, 3, 1.5, 1.5, 1, 1],
"errSysPlus":
[0., 0., 0., 0., 0., 0., 0., 0.],
"errSysMinus":
[0., 0., 0., 0., 0., 0., 0., 0.],
"binMin":
[0.1, 0.15, 0.2, 0.25, 0.3, 0.35, 0.4, 0.45],
"binMax":
[0.15, 0.2, 0.25, 0.3, 0.35, 0.4, 0.45, 0.5]
},
"imageblobslnk":NULL,"scoreslnk":2,"accesslnk":1,
"parnames":["theta interval for secondary particle"], "parvalues":["1.55-1.75"]
},
{
"trid":1,"testlnk":0,"referencelnk":45,"mcdetaillnk":1,
"beamlnk":44,"targetlnk":4,"observablelnk":8,"secondarylnk":-211,"reactionlnk":1,
"datatable":{
"dtid":1,"datatypeslnk":2,
"title":"Production of pi- in pi+ on Be interactions at 8GeV/c, 1.75<theta<1.95 [rad]",
"npoints":0,
"nbins":[8],
"axisTitle":["momentum of pi- [GeV/c]","Cross section [mb/(GeV/c/rad)]"],
"val":
[38, 47, 51, 34, 18, 10, 11, 9],
"errStatPlus":
[3.5, 3, 2.5, 2, 2, 1, 1, 1],
"errStatMinus":
[3.5, 3, 2.5, 2, 2, 1, 1, 1],
"errSysPlus":
[0., 0., 0., 0., 0., 0., 0., 0.],
"errSysMinus":
[0., 0., 0., 0., 0., 0., 0., 0.],
"binMin":
[0.1, 0.15, 0.2, 0.25, 0.3, 0.35, 0.4, 0.45],
"binMax":
[0.15, 0.2, 0.25, 0.3, 0.35, 0.4, 0.45, 0.5]
},
"imageblobslnk":NULL,"scoreslnk":2,"accesslnk":1,
"parnames":["theta interval for secondary particle"], "parvalues":["1.75-1.95"]
},
{
"trid":1,"testlnk":0,"referencelnk":45,"mcdetaillnk":1,
"beamlnk":44,"targetlnk":4,"observablelnk":8,"secondarylnk":-211,"reactionlnk":1,
"datatable":{
"dtid":1,"datatypeslnk":2,
"title":"Production of pi- in pi+ on Be interactions at 8GeV/c, 1.95<theta<2.15 [rad]",
"npoints":0,
"nbins":[8],
"axisTitle":["momentum of pi- [GeV/c]","Cross section [mb/(GeV/c/rad)]"],
"val":
[33, 46, 31, 20, 14, 12, 9, 4],
"errStatPlus":
[2.5, 3, 2, 1.5, 1, 1, 1, 0.5],
"errStatMinus":
[2.5, 3, 2, 1.5, 1, 1, 1, 0.5],
"errSysPlus":
[0., 0., 0., 0., 0., 0., 0., 0.],
"errSysMinus":
[0., 0., 0., 0., 0., 0., 0., 0.],
"binMin":
[0.1, 0.15, 0.2, 0.25, 0.3, 0.35, 0.4, 0.45],
"binMax":
[0.15, 0.2, 0.25, 0.3, 0.35, 0.4, 0.45, 0.5]
},
"imageblobslnk":NULL,"scoreslnk":2,"accesslnk":1,
"parnames":["theta interval for secondary particle"], "parvalues":["1.95-2.15"]
},
{
"trid":1,"testlnk":0,"referencelnk":44,"mcdetaillnk":1,
"beamlnk":45,"targetlnk":4,"observablelnk":8,"secondarylnk":-211,"reactionlnk":1,
"datatable":{
"dtid":1,"datatypeslnk":2,
"title":"Production of pi- in pi+ on Be interactions at 12GeV/c, 0.05<theta<0.1 [rad]",
"npoints":0,
"nbins":[10],
"axisTitle":["momentum of pi- [GeV/c]","Cross section [mb/(GeV/c/rad)]"],
"val":
[50, 150, 120, 100, 140, 120, 100, 66, 39, 19],
"errStatPlus":
[10, 15, 10, 10, 15, 10, 10, 6, 3.5, 2],
"errStatMinus":
[10, 15, 10, 10, 15, 10, 10, 6, 3.5, 2],
"errSysPlus":
[0., 0., 0., 0., 0., 0., 0., 0., 0., 0.],
"errSysMinus":
[0., 0., 0., 0., 0., 0., 0., 0., 0., 0.],
"binMin":
[0.5, 1, 1.5, 2, 2.5, 3, 3.5, 4, 5, 6.5],
"binMax":
[1, 1.5, 2, 2.5, 3, 3.5, 4, 5, 6.5, 8]
},
"imageblobslnk":NULL,"scoreslnk":2,"accesslnk":1,
"parnames":["theta interval for secondary particle"], "parvalues":["0.05-0.1"]
},
{
"trid":1,"testlnk":0,"referencelnk":44,"mcdetaillnk":1,
"beamlnk":45,"targetlnk":4,"observablelnk":8,"secondarylnk":-211,"reactionlnk":1,
"datatable":{
"dtid":1,"datatypeslnk":2,
"title":"Production of pi- in pi+ on Be interactions at 12GeV/c, 0.1<theta<0.15 [rad]",
"npoints":0,
"nbins":[10],
"axisTitle":["momentum of pi- [GeV/c]","Cross section [mb/(GeV/c/rad)]"],
"val":
[200, 150, 180, 140, 90, 64, 64, 37, 16, 4],
"errStatPlus":
[25, 15, 15, 15, 10, 7, 7, 4.5, 2.5, 1],
"errStatMinus":
[25, 15, 15, 15, 10, 7, 7, 4.5, 2.5, 1],
"errSysPlus":
[0., 0., 0., 0., 0., 0., 0., 0., 0., 0.],
"errSysMinus":
[0., 0., 0., 0., 0., 0., 0., 0., 0., 0.],
"binMin":
[0.5, 1, 1.5, 2, 2.5, 3, 3.5, 4, 5, 6.5],
"binMax":
[1, 1.5, 2, 2.5, 3, 3.5, 4, 5, 6.5, 8]
},
"imageblobslnk":NULL,"scoreslnk":2,"accesslnk":1,
"parnames":["theta interval for secondary particle"], "parvalues":["0.1-0.15"]
},
{
"trid":1,"testlnk":0,"referencelnk":44,"mcdetaillnk":1,
"beamlnk":45,"targetlnk":4,"observablelnk":8,"secondarylnk":-211,"reactionlnk":1,
"datatable":{
"dtid":1,"datatypeslnk":2,
"title":"Production of pi- in pi+ on Be interactions at 12GeV/c, 0.15<theta<0.2 [rad]",
"npoints":0,
"nbins":[10],
"axisTitle":["momentum of pi- [GeV/c]","Cross section [mb/(GeV/c/rad)]"],
"val":
[140, 120, 90, 130, 50, 34, 19, 12, 1, 0],
"errStatPlus":
[20, 15, 10, 15, 10, 6.5, 4, 3.5, 1, 0.5],
"errStatMinus":
[20, 15, 10, 15, 10, 6.5, 4, 3.5, 1, 0.5],
"errSysPlus":
[0., 0., 0., 0., 0., 0., 0., 0., 0., 0.],
"errSysMinus":
[0., 0., 0., 0., 0., 0., 0., 0., 0., 0.],
"binMin":
[0.5, 1, 1.5, 2, 2.5, 3, 3.5, 4, 5, 6.5],
"binMax":
[1, 1.5, 2, 2.5, 3, 3.5, 4, 5, 6.5, 8]
},
"imageblobslnk":NULL,"scoreslnk":2,"accesslnk":1,
"parnames":["theta interval for secondary particle"], "parvalues":["0.15-0.2"]
},
{
"trid":1,"testlnk":0,"referencelnk":44,"mcdetaillnk":1,
"beamlnk":45,"targetlnk":4,"observablelnk":8,"secondarylnk":-211,"reactionlnk":1,
"datatable":{
"dtid":1,"datatypeslnk":2,
"title":"Production of pi- in pi+ on Be interactions at 12GeV/c, 0.2<theta<0.25 [rad]",
"npoints":0,
"nbins":[10],
"axisTitle":["momentum of pi- [GeV/c]","Cross section [mb/(GeV/c/rad)]"],
"val":
[120, 100, 140, 70, 40, 16, 4, 2, 0, 0],
"errStatPlus":
[20, 15, 25, 15, 15, 11.5, 4, 3, 0.5, 3],
"errStatMinus":
[20, 15, 25, 15, 15, 11.5, 4, 3, 0.5, 3],
"errSysPlus":
[0., 0., 0., 0., 0., 0., 0., 0., 0., 0.],
"errSysMinus":
[0., 0., 0., 0., 0., 0., 0., 0., 0., 0.],
"binMin":
[0.5, 1, 1.5, 2, 2.5, 3, 3.5, 4, 5, 6.5],
"binMax":
[1, 1.5, 2, 2.5, 3, 3.5, 4, 5, 6.5, 8]
},
"imageblobslnk":NULL,"scoreslnk":2,"accesslnk":1,
"parnames":["theta interval for secondary particle"], "parvalues":["0.2-0.25"]
},
{
"trid":1,"testlnk":0,"referencelnk":45,"mcdetaillnk":1,
"beamlnk":45,"targetlnk":4,"observablelnk":8,"secondarylnk":-211,"reactionlnk":1,
"datatable":{
"dtid":1,"datatypeslnk":2,
"title":"Production of pi- in pi+ on Be interactions at 12GeV/c, 0.35<theta<0.55 [rad]",
"npoints":0,
"nbins":[10],
"axisTitle":["momentum of pi- [GeV/c]","Cross section [mb/(GeV/c/rad)]"],
"val":
[123, 136, 164, 118, 150, 150, 141, 144, 153, 139],
"errStatPlus":
[16, 10, 10, 6.5, 11, 7, 7, 6.5, 7.5, 9.5],
"errStatMinus":
[16, 10, 10, 6.5, 11, 7, 7, 6.5, 7.5, 9.5],
"errSysPlus":
[0., 0., 0., 0., 0., 0., 0., 0., 0., 0.],
"errSysMinus":
[0., 0., 0., 0., 0., 0., 0., 0., 0., 0.],
"binMin":
[0.15, 0.2, 0.25, 0.3, 0.35, 0.4, 0.45, 0.5, 0.6, 0.7],
"binMax":
[0.2, 0.25, 0.3, 0.35, 0.4, 0.45, 0.5, 0.6, 0.7, 0.8]
},
"imageblobslnk":NULL,"scoreslnk":2,"accesslnk":1,
"parnames":["theta interval for secondary particle"], "parvalues":["0.35-0.55"]
},
{
"trid":1,"testlnk":0,"referencelnk":45,"mcdetaillnk":1,
"beamlnk":45,"targetlnk":4,"observablelnk":8,"secondarylnk":-211,"reactionlnk":1,
"datatable":{
"dtid":1,"datatypeslnk":2,
"title":"Production of pi- in pi+ on Be interactions at 12GeV/c, 0.55<theta<0.75 [rad]",
"npoints":0,
"nbins":[11],
"axisTitle":["momentum of pi- [GeV/c]","Cross section [mb/(GeV/c/rad)]"],
"val":
[77, 76, 162, 159, 120, 145, 127, 127, 113, 97, 73],
"errStatPlus":
[11, 6.5, 13, 8, 6, 8, 5.5, 6, 5, 7, 6],
"errStatMinus":
[11, 6.5, 13, 8, 6, 8, 5.5, 6, 5, 7, 6],
"errSysPlus":
[0., 0., 0., 0., 0., 0., 0., 0., 0., 0., 0.],
"errSysMinus":
[0., 0., 0., 0., 0., 0., 0., 0., 0., 0., 0.],
"binMin":
[0.1, 0.15, 0.2, 0.25, 0.3, 0.35, 0.4, 0.45, 0.5, 0.6, 0.7],
"binMax":
[0.15, 0.2, 0.25, 0.3, 0.35, 0.4, 0.45, 0.5, 0.6, 0.7, 0.8]
},
"imageblobslnk":NULL,"scoreslnk":2,"accesslnk":1,
"parnames":["theta interval for secondary particle"], "parvalues":["0.55-0.75"]
},
{
"trid":1,"testlnk":0,"referencelnk":45,"mcdetaillnk":1,
"beamlnk":45,"targetlnk":4,"observablelnk":8,"secondarylnk":-211,"reactionlnk":1,
"datatable":{
"dtid":1,"datatypeslnk":2,
"title":"Production of pi- in pi+ on Be interactions at 12GeV/c, 0.75<theta<0.95 [rad]",
"npoints":0,
"nbins":[10],
"axisTitle":["momentum of pi- [GeV/c]","Cross section [mb/(GeV/c/rad)]"],
"val":
[111, 86, 126, 124, 101, 110, 94, 73, 67, 59],
"errStatPlus":
[10.5, 6, 9.5, 6.5, 5.5, 5.5, 4.5, 4, 3.5, 3.5],
"errStatMinus":
[10.5, 6, 9.5, 6.5, 5.5, 5.5, 4.5, 4, 3.5, 3.5],
"errSysPlus":
[0., 0., 0., 0., 0., 0., 0., 0., 0., 0.],
"errSysMinus":
[0., 0., 0., 0., 0., 0., 0., 0., 0., 0.],
"binMin":
[0.1, 0.15, 0.2, 0.25, 0.3, 0.35, 0.4, 0.45, 0.5, 0.6],
"binMax":
[0.15, 0.2, 0.25, 0.3, 0.35, 0.4, 0.45, 0.5, 0.6, 0.7]
},
"imageblobslnk":NULL,"scoreslnk":2,"accesslnk":1,
"parnames":["theta interval for secondary particle"], "parvalues":["0.75-0.95"]
},
{
"trid":1,"testlnk":0,"referencelnk":45,"mcdetaillnk":1,
"beamlnk":45,"targetlnk":4,"observablelnk":8,"secondarylnk":-211,"reactionlnk":1,
"datatable":{
"dtid":1,"datatypeslnk":2,
"title":"Production of pi- in pi+ on Be interactions at 12GeV/c, 0.95<theta<1.15 [rad]",
"npoints":0,
"nbins":[9],
"axisTitle":["momentum of pi- [GeV/c]","Cross section [mb/(GeV/c/rad)]"],
"val":
[50, 87, 126, 91, 59, 70, 66, 55, 39],
"errStatPlus":
[5.5, 6.5, 7.5, 5, 3.5, 4.5, 3.5, 3, 3],
"errStatMinus":
[5.5, 6.5, 7.5, 5, 3.5, 4.5, 3.5, 3, 3],
"errSysPlus":
[0., 0., 0., 0., 0., 0., 0., 0., 0.],
"errSysMinus":
[0., 0., 0., 0., 0., 0., 0., 0., 0.],
"binMin":
[0.1, 0.15, 0.2, 0.25, 0.3, 0.35, 0.4, 0.45, 0.5],
"binMax":
[0.15, 0.2, 0.25, 0.3, 0.35, 0.4, 0.45, 0.5, 0.6]
},
"imageblobslnk":NULL,"scoreslnk":2,"accesslnk":1,
"parnames":["theta interval for secondary particle"], "parvalues":["0.95-1.15"]
},
{
"trid":1,"testlnk":0,"referencelnk":45,"mcdetaillnk":1,
"beamlnk":45,"targetlnk":4,"observablelnk":8,"secondarylnk":-211,"reactionlnk":1,
"datatable":{
"dtid":1,"datatypeslnk":2,
"title":"Production of pi- in pi+ on Be interactions at 12GeV/c, 1.15<theta<1.35 [rad]",
"npoints":0,
"nbins":[8],
"axisTitle":["momentum of pi- [GeV/c]","Cross section [mb/(GeV/c/rad)]"],
"val":
[43, 85, 86, 63, 56, 60, 36, 28],
"errStatPlus":
[5, 6, 5.5, 4.5, 4, 4, 3, 2],
"errStatMinus":
[5, 6, 5.5, 4.5, 4, 4, 3, 2],
"errSysPlus":
[0., 0., 0., 0., 0., 0., 0., 0.],
"errSysMinus":
[0., 0., 0., 0., 0., 0., 0., 0.],
"binMin":
[0.1, 0.15, 0.2, 0.25, 0.3, 0.35, 0.4, 0.45],
"binMax":
[0.15, 0.2, 0.25, 0.3, 0.35, 0.4, 0.45, 0.5]
},
"imageblobslnk":NULL,"scoreslnk":2,"accesslnk":1,
"parnames":["theta interval for secondary particle"], "parvalues":["1.15-1.35"]
},
{
"trid":1,"testlnk":0,"referencelnk":45,"mcdetaillnk":1,
"beamlnk":45,"targetlnk":4,"observablelnk":8,"secondarylnk":-211,"reactionlnk":1,
"datatable":{
"dtid":1,"datatypeslnk":2,
"title":"Production of pi- in pi+ on Be interactions at 12GeV/c, 1.35<theta<1.55 [rad]",
"npoints":0,
"nbins":[8],
"axisTitle":["momentum of pi- [GeV/c]","Cross section [mb/(GeV/c/rad)]"],
"val":
[60, 84, 68, 46, 32, 29, 26, 22],
"errStatPlus":
[6.5, 6, 5, 3.5, 2.5, 2, 2, 2],
"errStatMinus":
[6.5, 6, 5, 3.5, 2.5, 2, 2, 2],
"errSysPlus":
[0., 0., 0., 0., 0., 0., 0., 0.],
"errSysMinus":
[0., 0., 0., 0., 0., 0., 0., 0.],
"binMin":
[0.1, 0.15, 0.2, 0.25, 0.3, 0.35, 0.4, 0.45],
"binMax":
[0.15, 0.2, 0.25, 0.3, 0.35, 0.4, 0.45, 0.5]
},
"imageblobslnk":NULL,"scoreslnk":2,"accesslnk":1,
"parnames":["theta interval for secondary particle"], "parvalues":["1.35-1.55"]
},
{
"trid":1,"testlnk":0,"referencelnk":45,"mcdetaillnk":1,
"beamlnk":45,"targetlnk":4,"observablelnk":8,"secondarylnk":-211,"reactionlnk":1,
"datatable":{
"dtid":1,"datatypeslnk":2,
"title":"Production of pi- in pi+ on Be interactions at 12GeV/c, 1.55<theta<1.75 [rad]",
"npoints":0,
"nbins":[8],
"axisTitle":["momentum of pi- [GeV/c]","Cross section [mb/(GeV/c/rad)]"],
"val":
[62, 52, 55, 40, 35, 25, 19, 12],
"errStatPlus":
[6, 4.5, 4.5, 3, 3, 2, 2, 1.5],
"errStatMinus":
[6, 4.5, 4.5, 3, 3, 2, 2, 1.5],
"errSysPlus":
[0., 0., 0., 0., 0., 0., 0., 0.],
"errSysMinus":
[0., 0., 0., 0., 0., 0., 0., 0.],
"binMin":
[0.1, 0.15, 0.2, 0.25, 0.3, 0.35, 0.4, 0.45],
"binMax":
[0.15, 0.2, 0.25, 0.3, 0.35, 0.4, 0.45, 0.5]
},
"imageblobslnk":NULL,"scoreslnk":2,"accesslnk":1,
"parnames":["theta interval for secondary particle"], "parvalues":["1.55-1.75"]
},
{
"trid":1,"testlnk":0,"referencelnk":45,"mcdetaillnk":1,
"beamlnk":45,"targetlnk":4,"observablelnk":8,"secondarylnk":-211,"reactionlnk":1,
"datatable":{
"dtid":1,"datatypeslnk":2,
"title":"Production of pi- in pi+ on Be interactions at 12GeV/c, 1.75<theta<1.95 [rad]",
"npoints":0,
"nbins":[8],
"axisTitle":["momentum of pi- [GeV/c]","Cross section [mb/(GeV/c/rad)]"],
"val":
[57, 52, 41, 32, 16, 10, 10, 7],
"errStatPlus":
[6, 4.5, 3.5, 3.5, 2, 1.5, 1.5, 1],
"errStatMinus":
[6, 4.5, 3.5, 3.5, 2, 1.5, 1.5, 1],
"errSysPlus":
[0., 0., 0., 0., 0., 0., 0., 0.],
"errSysMinus":
[0., 0., 0., 0., 0., 0., 0., 0.],
"binMin":
[0.1, 0.15, 0.2, 0.25, 0.3, 0.35, 0.4, 0.45],
"binMax":
[0.15, 0.2, 0.25, 0.3, 0.35, 0.4, 0.45, 0.5]
},
"imageblobslnk":NULL,"scoreslnk":2,"accesslnk":1,
"parnames":["theta interval for secondary particle"], "parvalues":["1.75-1.95"]
},
{
"trid":1,"testlnk":0,"referencelnk":45,"mcdetaillnk":1,
"beamlnk":45,"targetlnk":4,"observablelnk":8,"secondarylnk":-211,"reactionlnk":1,
"datatable":{
"dtid":1,"datatypeslnk":2,
"title":"Production of pi- in pi+ on Be interactions at 12GeV/c, 1.95<theta<2.15 [rad]",
"npoints":0,
"nbins":[8],
"axisTitle":["momentum of pi- [GeV/c]","Cross section [mb/(GeV/c/rad)]"],
"val":
[39, 57, 36, 19, 14, 10, 9, 8],
"errStatPlus":
[4.5, 5, 3.5, 2.5, 2, 1.5, 1.5, 1.5],
"errStatMinus":
[4.5, 5, 3.5, 2.5, 2, 1.5, 1.5, 1.5],
"errSysPlus":
[0., 0., 0., 0., 0., 0., 0., 0.],
"errSysMinus":
[0., 0., 0., 0., 0., 0., 0., 0.],
"binMin":
[0.1, 0.15, 0.2, 0.25, 0.3, 0.35, 0.4, 0.45],
"binMax":
[0.15, 0.2, 0.25, 0.3, 0.35, 0.4, 0.45, 0.5]
},
"imageblobslnk":NULL,"scoreslnk":2,"accesslnk":1,
"parnames":["theta interval for secondary particle"], "parvalues":["1.95-2.15"]
}
]}
