{"ResultList":[
{
"trid":1,"testlnk":0,"referencelnk":17,"mcdetaillnk":1,
"beamlnk":57,"targetlnk":22,"observablelnk":9,"secondarylnk":2212,"reactionlnk":1,
"datatable":{
"dtid":1,"datatypeslnk":1,
"title":"Production of proton in proton-Ti interactions at 7.5GeV/c, theta=59.1 [deg]",
"npoints":0,
"nbins":[9],
"axisTitle":["kinetic energy of proton [GeV]","E(d3sigma/dp3) [mb/GeV**2]"],
"val":
[2183, 1696, 1330, 1079, 842.6, 658, 492.1, 395.6, 340.4],
"errStatPlus":
[61.6, 24.015, 20.725, 18.755, 16.63, 14.81, 11.29, 9.535, 12.655],
"errStatMinus":
[61.6, 24.015, 20.725, 18.755, 16.63, 14.81, 11.29, 9.535, 12.655],
"errSysPlus":
[65.49, 50.88, 39.9, 32.37, 21.065, 16.45, 12.3025, 9.89, 8.51],
"errSysMinus":
[65.49, 50.88, 39.9, 32.37, 21.065, 16.45, 12.3025, 9.89, 8.51],
"binMin":
[0.06, 0.08, 0.1, 0.12, 0.14, 0.16, 0.18, 0.2, 0.22],
"binMax":
[0.08, 0.1, 0.12, 0.14, 0.16, 0.18, 0.2, 0.22, 0.24]
},
"imageblobslnk":NULL,"scoreslnk":2,"accesslnk":1,
"parnames":["theta [deg] of secondary particle"],"parvalues":["59.1"]
},
{
"trid":1,"testlnk":0,"referencelnk":17,"mcdetaillnk":1,
"beamlnk":57,"targetlnk":22,"observablelnk":9,"secondarylnk":2212,"reactionlnk":1,
"datatable":{
"dtid":1,"datatypeslnk":1,
"title":"Production of proton in proton-Ti interactions at 7.5GeV/c, theta=89.0 [deg]",
"npoints":0,
"nbins":[9],
"axisTitle":["kinetic energy of proton [GeV]","E(d3sigma/dp3) [mb/GeV**2]"],
"val":
[1687, 1212, 819.5, 583.1, 436.2, 269.9, 195.9, 137.3, 102.3],
"errStatPlus":
[45.415, 13.7, 11.005, 11.04, 13.59, 7.47, 6.815, 6.645, 6.105],
"errStatMinus":
[45.415, 13.7, 11.005, 11.04, 13.59, 7.47, 6.815, 6.645, 6.105],
"errSysPlus":
[50.61, 36.36, 24.585, 17.493, 10.905, 6.7475, 4.8975, 3.4325, 2.5575],
"errSysMinus":
[50.61, 36.36, 24.585, 17.493, 10.905, 6.7475, 4.8975, 3.4325, 2.5575],
"binMin":
[0.06, 0.08, 0.1, 0.12, 0.14, 0.16, 0.18, 0.2, 0.22],
"binMax":
[0.08, 0.1, 0.12, 0.14, 0.16, 0.18, 0.2, 0.22, 0.24]
},
"imageblobslnk":NULL,"scoreslnk":2,"accesslnk":1,
"parnames":["theta [deg] of secondary particle"],"parvalues":["89.0"]
},
{
"trid":1,"testlnk":0,"referencelnk":17,"mcdetaillnk":1,
"beamlnk":57,"targetlnk":22,"observablelnk":9,"secondarylnk":2212,"reactionlnk":1,
"datatable":{
"dtid":1,"datatypeslnk":1,
"title":"Production of proton in proton-Ti interactions at 7.5GeV/c, theta=119.0 [deg]",
"npoints":0,
"nbins":[8],
"axisTitle":["kinetic energy of proton [GeV]","E(d3sigma/dp3) [mb/GeV**2]"],
"val":
[737.5, 421.3, 278.7, 181.8, 112.8, 69.21, 39.09, 29.02],
"errStatPlus":
[15.515, 7.61, 6.71, 10.185, 4.096, 3.1875, 3.4595, 3.2545],
"errStatMinus":
[15.515, 7.61, 6.71, 10.185, 4.096, 3.1875, 3.4595, 3.2545],
"errSysPlus":
[22.125, 12.639, 8.361, 4.545, 2.82, 1.73025, 0.97725, 0.7255],
"errSysMinus":
[22.125, 12.639, 8.361, 4.545, 2.82, 1.73025, 0.97725, 0.7255],
"binMin":
[0.08, 0.1, 0.12, 0.14, 0.16, 0.18, 0.2, 0.22],
"binMax":
[0.1, 0.12, 0.14, 0.16, 0.18, 0.2, 0.22, 0.24]
},
"imageblobslnk":NULL,"scoreslnk":2,"accesslnk":1,
"parnames":["theta [deg] of secondary particle"],"parvalues":["119.0"]
},
{
"trid":1,"testlnk":0,"referencelnk":17,"mcdetaillnk":1,
"beamlnk":57,"targetlnk":22,"observablelnk":9,"secondarylnk":2212,"reactionlnk":1,
"datatable":{
"dtid":1,"datatypeslnk":1,
"title":"Production of proton in proton-Ti interactions at 7.5GeV/c, theta=159.6 [deg]",
"npoints":0,
"nbins":[9],
"axisTitle":["kinetic energy of proton [GeV]","E(d3sigma/dp3) [mb/GeV**2]"],
"val":
[762.3, 471.5, 253.2, 149.7, 87.46, 41.43, 15.6, 15.18, 9.638],
"errStatPlus":
[27.96, 15.225, 10.71, 7.925, 5.92, 4.096, 2.452, 2.3695, 1.867],
"errStatMinus":
[27.96, 15.225, 10.71, 7.925, 5.92, 4.096, 2.452, 2.3695, 1.867],
"errSysPlus":
[22.869, 14.145, 7.596, 4.491, 2.1865, 1.03575, 0.39, 0.3795, 0.24095],
"errSysMinus":
[22.869, 14.145, 7.596, 4.491, 2.1865, 1.03575, 0.39, 0.3795, 0.24095],
"binMin":
[0.06, 0.08, 0.1, 0.12, 0.14, 0.16, 0.18, 0.2, 0.22],
"binMax":
[0.08, 0.1, 0.12, 0.14, 0.16, 0.18, 0.2, 0.22, 0.24]
},
"imageblobslnk":NULL,"scoreslnk":2,"accesslnk":1,
"parnames":["theta [deg] of secondary particle"],"parvalues":["159.6"]
}
]}
