{"ResultList":[
{
"trid":1,"testlnk":0,"referencelnk":17,"mcdetaillnk":1,
"beamlnk":50,"targetlnk":29,"observablelnk":9,"secondarylnk":2212,"reactionlnk":1,
"datatable":{
"dtid":1,"datatypeslnk":1,
"title":"Production of proton in proton-Cu interactions at 1GeV/c, theta=59.1 [deg]",
"npoints":0,
"nbins":[8],
"axisTitle":["kinetic energy of proton [GeV]","E(d3sigma/dp3) [mb/GeV**2]"],
"val":
[1694, 1180, 851.4, 680.7, 518.2, 325.7, 277.3, 192.7],
"errStatPlus":
[71.7, 51.65, 36.32, 31.71, 26.645, 19.82, 17.635, 15.33],
"errStatMinus":
[71.7, 51.65, 36.32, 31.71, 26.645, 19.82, 17.635, 15.33],
"errSysPlus":
[50.82, 35.4, 25.542, 17.0175, 12.955, 8.1425, 6.9325, 4.8175],
"errSysMinus":
[50.82, 35.4, 25.542, 17.0175, 12.955, 8.1425, 6.9325, 4.8175],
"binMin":
[0.08, 0.1, 0.12, 0.14, 0.16, 0.18, 0.2, 0.22],
"binMax":
[0.1, 0.12, 0.14, 0.16, 0.18, 0.2, 0.22, 0.24]
},
"imageblobslnk":NULL,"scoreslnk":2,"accesslnk":1,
"parnames":["theta [deg] of secondary particle"],"parvalues":["59.1"]
},
{
"trid":1,"testlnk":0,"referencelnk":17,"mcdetaillnk":1,
"beamlnk":50,"targetlnk":29,"observablelnk":9,"secondarylnk":2212,"reactionlnk":1,
"datatable":{
"dtid":1,"datatypeslnk":1,
"title":"Production of proton in proton-Cu interactions at 1GeV/c, theta=89.0 [deg]",
"npoints":0,
"nbins":[8],
"axisTitle":["kinetic energy of proton [GeV]","E(d3sigma/dp3) [mb/GeV**2]"],
"val":
[596.6, 321.7, 174.5, 136.8, 55.25, 27.19, 21.23, 7.252],
"errStatPlus":
[21.375, 15.005, 10.975, 9.85, 5.965, 3.846, 3.36, 1.904],
"errStatMinus":
[21.375, 15.005, 10.975, 9.85, 5.965, 3.846, 3.36, 1.904],
"errSysPlus":
[17.898, 9.651, 5.235, 3.42, 1.38125, 0.67975, 0.53075, 0.1813],
"errSysMinus":
[17.898, 9.651, 5.235, 3.42, 1.38125, 0.67975, 0.53075, 0.1813],
"binMin":
[0.08, 0.1, 0.12, 0.14, 0.16, 0.18, 0.2, 0.22],
"binMax":
[0.1, 0.12, 0.14, 0.16, 0.18, 0.2, 0.22, 0.24]
},
"imageblobslnk":NULL,"scoreslnk":2,"accesslnk":1,
"parnames":["theta [deg] of secondary particle"],"parvalues":["89.0"]
},
{
"trid":1,"testlnk":0,"referencelnk":17,"mcdetaillnk":1,
"beamlnk":50,"targetlnk":29,"observablelnk":9,"secondarylnk":2212,"reactionlnk":1,
"datatable":{
"dtid":1,"datatypeslnk":1,
"title":"Production of proton in proton-Cu interactions at 1GeV/c, theta=119.0 [deg]",
"npoints":0,
"nbins":[6],
"axisTitle":["kinetic energy of proton [GeV]","E(d3sigma/dp3) [mb/GeV**2]"],
"val":
[200.5, 69.18, 34.31, 18.18, 5.284, 1.577],
"errStatPlus":
[13.085, 6.845, 4.663, 3.2475, 1.7325, 0.7725],
"errStatMinus":
[13.085, 6.845, 4.663, 3.2475, 1.7325, 0.7725],
"errSysPlus":
[6.015, 2.0754, 1.0293, 0.4545, 0.1321, 0.039425],
"errSysMinus":
[6.015, 2.0754, 1.0293, 0.4545, 0.1321, 0.039425],
"binMin":
[0.08, 0.1, 0.12, 0.14, 0.16, 0.22],
"binMax":
[0.1, 0.12, 0.14, 0.16, 0.18, 0.24]
},
"imageblobslnk":NULL,"scoreslnk":2,"accesslnk":1,
"parnames":["theta [deg] of secondary particle"],"parvalues":["119.0"]
},
{
"trid":1,"testlnk":0,"referencelnk":17,"mcdetaillnk":1,
"beamlnk":50,"targetlnk":29,"observablelnk":9,"secondarylnk":2212,"reactionlnk":1,
"datatable":{
"dtid":1,"datatypeslnk":1,
"title":"Production of proton in proton-Cu interactions at 1GeV/c, theta=159.6 [deg]",
"npoints":0,
"nbins":[4],
"axisTitle":["kinetic energy of proton [GeV]","E(d3sigma/dp3) [mb/GeV**2]"],
"val":
[91.72, 31.82, 18.95, 21.92],
"errStatPlus":
[15.14, 8.53, 6.35, 6.69],
"errStatMinus":
[15.14, 8.53, 6.35, 6.69],
"errSysPlus":
[2.7516, 0.9546, 0.5685, 0.548],
"errSysMinus":
[2.7516, 0.9546, 0.5685, 0.548],
"binMin":
[0.08, 0.1, 0.12, 0.14],
"binMax":
[0.1, 0.12, 0.14, 0.16]
},
"imageblobslnk":NULL,"scoreslnk":2,"accesslnk":1,
"parnames":["theta [deg] of secondary particle"],"parvalues":["159.6"]
},
{
"trid":1,"testlnk":0,"referencelnk":17,"mcdetaillnk":1,
"beamlnk":51,"targetlnk":29,"observablelnk":9,"secondarylnk":2212,"reactionlnk":1,
"datatable":{
"dtid":1,"datatypeslnk":1,
"title":"Production of proton in proton-Cu interactions at 1.4GeV/c, theta=59.1 [deg]",
"npoints":0,
"nbins":[8],
"axisTitle":["kinetic energy of proton [GeV]","E(d3sigma/dp3) [mb/GeV**2]"],
"val":
[1764, 1203, 922.1, 733, 552.5, 529.8, 404, 282.6],
"errStatPlus":
[64.6, 43.64, 30.12, 27.185, 22.29, 20.41, 17.855, 17.035],
"errStatMinus":
[64.6, 43.64, 30.12, 27.185, 22.29, 20.41, 17.855, 17.035],
"errSysPlus":
[52.92, 36.09, 27.663, 18.325, 13.8125, 13.245, 10.1, 7.065],
"errSysMinus":
[52.92, 36.09, 27.663, 18.325, 13.8125, 13.245, 10.1, 7.065],
"binMin":
[0.08, 0.1, 0.12, 0.14, 0.16, 0.18, 0.2, 0.22],
"binMax":
[0.1, 0.12, 0.14, 0.16, 0.18, 0.2, 0.22, 0.24]
},
"imageblobslnk":NULL,"scoreslnk":2,"accesslnk":1,
"parnames":["theta [deg] of secondary particle"],"parvalues":["59.1"]
},
{
"trid":1,"testlnk":0,"referencelnk":17,"mcdetaillnk":1,
"beamlnk":51,"targetlnk":29,"observablelnk":9,"secondarylnk":2212,"reactionlnk":1,
"datatable":{
"dtid":1,"datatypeslnk":1,
"title":"Production of proton in proton-Cu interactions at 1.4GeV/c, theta=89.0 [deg]",
"npoints":0,
"nbins":[8],
"axisTitle":["kinetic energy of proton [GeV]","E(d3sigma/dp3) [mb/GeV**2]"],
"val":
[864.9, 580.9, 289.5, 223.1, 113.5, 78.57, 54.79, 29.79],
"errStatPlus":
[20.605, 16.105, 11.38, 11.075, 6.78, 5.495, 4.688, 3.3645],
"errStatMinus":
[20.605, 16.105, 11.38, 11.075, 6.78, 5.495, 4.688, 3.3645],
"errSysPlus":
[25.947, 17.427, 8.685, 5.5775, 2.8375, 1.96425, 1.36975, 0.74475],
"errSysMinus":
[25.947, 17.427, 8.685, 5.5775, 2.8375, 1.96425, 1.36975, 0.74475],
"binMin":
[0.08, 0.1, 0.12, 0.14, 0.16, 0.18, 0.2, 0.22],
"binMax":
[0.1, 0.12, 0.14, 0.16, 0.18, 0.2, 0.22, 0.24]
},
"imageblobslnk":NULL,"scoreslnk":2,"accesslnk":1,
"parnames":["theta [deg] of secondary particle"],"parvalues":["89.0"]
},
{
"trid":1,"testlnk":0,"referencelnk":17,"mcdetaillnk":1,
"beamlnk":51,"targetlnk":29,"observablelnk":9,"secondarylnk":2212,"reactionlnk":1,
"datatable":{
"dtid":1,"datatypeslnk":1,
"title":"Production of proton in proton-Cu interactions at 1.4GeV/c, theta=119.0 [deg]",
"npoints":0,
"nbins":[8],
"axisTitle":["kinetic energy of proton [GeV]","E(d3sigma/dp3) [mb/GeV**2]"],
"val":
[379.1, 216.2, 117.8, 49.13, 33.84, 13.81, 5.496, 5.442],
"errStatPlus":
[14.975, 9.59, 6.955, 4.7475, 3.522, 2.1255, 1.298, 1.238],
"errStatMinus":
[14.975, 9.59, 6.955, 4.7475, 3.522, 2.1255, 1.298, 1.238],
"errSysPlus":
[11.373, 6.486, 3.534, 1.22825, 0.846, 0.34525, 0.1374, 0.13605],
"errSysMinus":
[11.373, 6.486, 3.534, 1.22825, 0.846, 0.34525, 0.1374, 0.13605],
"binMin":
[0.08, 0.1, 0.12, 0.14, 0.16, 0.18, 0.2, 0.22],
"binMax":
[0.1, 0.12, 0.14, 0.16, 0.18, 0.2, 0.22, 0.24]
},
"imageblobslnk":NULL,"scoreslnk":2,"accesslnk":1,
"parnames":["theta [deg] of secondary particle"],"parvalues":["119.0"]
},
{
"trid":1,"testlnk":0,"referencelnk":17,"mcdetaillnk":1,
"beamlnk":51,"targetlnk":29,"observablelnk":9,"secondarylnk":2212,"reactionlnk":1,
"datatable":{
"dtid":1,"datatypeslnk":1,
"title":"Production of proton in proton-Cu interactions at 1.4GeV/c, theta=159.6 [deg]",
"npoints":0,
"nbins":[7],
"axisTitle":["kinetic energy of proton [GeV]","E(d3sigma/dp3) [mb/GeV**2]"],
"val":
[166.5, 85.03, 67.29, 29.83, 13.43, 5.196, 4.708],
"errStatPlus":
[16.14, 11.05, 9.5, 6.155, 4.0415, 2.3715, 2.2885],
"errStatMinus":
[16.14, 11.05, 9.5, 6.155, 4.0415, 2.3715, 2.2885],
"errSysPlus":
[4.995, 2.5509, 2.0187, 0.74575, 0.33575, 0.1299, 0.1177],
"errSysMinus":
[4.995, 2.5509, 2.0187, 0.74575, 0.33575, 0.1299, 0.1177],
"binMin":
[0.08, 0.1, 0.12, 0.14, 0.16, 0.18, 0.22],
"binMax":
[0.1, 0.12, 0.14, 0.16, 0.18, 0.2, 0.24]
},
"imageblobslnk":NULL,"scoreslnk":2,"accesslnk":1,
"parnames":["theta [deg] of secondary particle"],"parvalues":["159.6"]
},
{
"trid":1,"testlnk":0,"referencelnk":17,"mcdetaillnk":1,
"beamlnk":52,"targetlnk":29,"observablelnk":9,"secondarylnk":2212,"reactionlnk":1,
"datatable":{
"dtid":1,"datatypeslnk":1,
"title":"Production of proton in proton-Cu interactions at 2GeV/c, theta=59.1 [deg]",
"npoints":0,
"nbins":[8],
"axisTitle":["kinetic energy of proton [GeV]","E(d3sigma/dp3) [mb/GeV**2]"],
"val":
[2040, 1553, 1224, 887.7, 784.4, 568.3, 428.4, 353.5],
"errStatPlus":
[67.1, 47.765, 30.155, 27.585, 23.6, 18.26, 16.75, 18.93],
"errStatMinus":
[67.1, 47.765, 30.155, 27.585, 23.6, 18.26, 16.75, 18.93],
"errSysPlus":
[61.2, 46.59, 36.72, 22.1925, 19.61, 14.2075, 10.71, 8.8375],
"errSysMinus":
[61.2, 46.59, 36.72, 22.1925, 19.61, 14.2075, 10.71, 8.8375],
"binMin":
[0.08, 0.1, 0.12, 0.14, 0.16, 0.18, 0.2, 0.22],
"binMax":
[0.1, 0.12, 0.14, 0.16, 0.18, 0.2, 0.22, 0.24]
},
"imageblobslnk":NULL,"scoreslnk":2,"accesslnk":1,
"parnames":["theta [deg] of secondary particle"],"parvalues":["59.1"]
},
{
"trid":1,"testlnk":0,"referencelnk":17,"mcdetaillnk":1,
"beamlnk":52,"targetlnk":29,"observablelnk":9,"secondarylnk":2212,"reactionlnk":1,
"datatable":{
"dtid":1,"datatypeslnk":1,
"title":"Production of proton in proton-Cu interactions at 2GeV/c, theta=89.0 [deg]",
"npoints":0,
"nbins":[8],
"axisTitle":["kinetic energy of proton [GeV]","E(d3sigma/dp3) [mb/GeV**2]"],
"val":
[1176, 759.1, 544.7, 368.6, 224.8, 138.1, 122.8, 73.07],
"errStatPlus":
[20.73, 16.08, 14.43, 14.16, 8.88, 6.945, 7.3, 5.53],
"errStatMinus":
[20.73, 16.08, 14.43, 14.16, 8.88, 6.945, 7.3, 5.53],
"errSysPlus":
[35.28, 22.773, 16.341, 9.215, 5.62, 3.4525, 3.07, 1.82675],
"errSysMinus":
[35.28, 22.773, 16.341, 9.215, 5.62, 3.4525, 3.07, 1.82675],
"binMin":
[0.08, 0.1, 0.12, 0.14, 0.16, 0.18, 0.2, 0.22],
"binMax":
[0.1, 0.12, 0.14, 0.16, 0.18, 0.2, 0.22, 0.24]
},
"imageblobslnk":NULL,"scoreslnk":2,"accesslnk":1,
"parnames":["theta [deg] of secondary particle"],"parvalues":["89.0"]
},
{
"trid":1,"testlnk":0,"referencelnk":17,"mcdetaillnk":1,
"beamlnk":52,"targetlnk":29,"observablelnk":9,"secondarylnk":2212,"reactionlnk":1,
"datatable":{
"dtid":1,"datatypeslnk":1,
"title":"Production of proton in proton-Cu interactions at 2GeV/c, theta=119.0 [deg]",
"npoints":0,
"nbins":[8],
"axisTitle":["kinetic energy of proton [GeV]","E(d3sigma/dp3) [mb/GeV**2]"],
"val":
[561.7, 349.9, 171.8, 90.16, 55.07, 60.88, 26, 15.72],
"errStatPlus":
[16.87, 10.635, 7.445, 6.58, 3.95, 4.136, 3.092, 2.273],
"errStatMinus":
[16.87, 10.635, 7.445, 6.58, 3.95, 4.136, 3.092, 2.273],
"errSysPlus":
[16.851, 10.497, 5.154, 2.254, 1.37675, 1.522, 0.65, 0.393],
"errSysMinus":
[16.851, 10.497, 5.154, 2.254, 1.37675, 1.522, 0.65, 0.393],
"binMin":
[0.08, 0.1, 0.12, 0.14, 0.16, 0.18, 0.2, 0.22],
"binMax":
[0.1, 0.12, 0.14, 0.16, 0.18, 0.2, 0.22, 0.24]
},
"imageblobslnk":NULL,"scoreslnk":2,"accesslnk":1,
"parnames":["theta [deg] of secondary particle"],"parvalues":["119.0"]
},
{
"trid":1,"testlnk":0,"referencelnk":17,"mcdetaillnk":1,
"beamlnk":52,"targetlnk":29,"observablelnk":9,"secondarylnk":2212,"reactionlnk":1,
"datatable":{
"dtid":1,"datatypeslnk":1,
"title":"Production of proton in proton-Cu interactions at 2GeV/c, theta=159.6 [deg]",
"npoints":0,
"nbins":[7],
"axisTitle":["kinetic energy of proton [GeV]","E(d3sigma/dp3) [mb/GeV**2]"],
"val":
[363.9, 168.6, 72.7, 46.45, 20.15, 12.6, 6.822],
"errStatPlus":
[20.69, 14.215, 8.535, 6.645, 4.2815, 3.2685, 2.36],
"errStatMinus":
[20.69, 14.215, 8.535, 6.645, 4.2815, 3.2685, 2.36],
"errSysPlus":
[10.917, 5.058, 2.181, 1.16125, 0.50375, 0.315, 0.17055],
"errSysMinus":
[10.917, 5.058, 2.181, 1.16125, 0.50375, 0.315, 0.17055],
"binMin":
[0.08, 0.1, 0.12, 0.14, 0.16, 0.18, 0.2],
"binMax":
[0.1, 0.12, 0.14, 0.16, 0.18, 0.2, 0.22]
},
"imageblobslnk":NULL,"scoreslnk":2,"accesslnk":1,
"parnames":["theta [deg] of secondary particle"],"parvalues":["159.6"]
},
{
"trid":1,"testlnk":0,"referencelnk":17,"mcdetaillnk":1,
"beamlnk":37,"targetlnk":29,"observablelnk":9,"secondarylnk":2212,"reactionlnk":1,
"datatable":{
"dtid":1,"datatypeslnk":1,
"title":"Production of proton in proton-Cu interactions at 3GeV/c, theta=59.1 [deg]",
"npoints":0,
"nbins":[8],
"axisTitle":["kinetic energy of proton [GeV]","E(d3sigma/dp3) [mb/GeV**2]"],
"val":
[2243, 1746, 1271, 965, 859.2, 662.3, 477, 394],
"errStatPlus":
[70.5, 50.15, 29.235, 28.11, 23.575, 18.635, 17.125, 20.18],
"errStatMinus":
[70.5, 50.15, 29.235, 28.11, 23.575, 18.635, 17.125, 20.18],
"errSysPlus":
[67.29, 52.38, 38.13, 24.125, 21.48, 16.5575, 11.925, 9.85],
"errSysMinus":
[67.29, 52.38, 38.13, 24.125, 21.48, 16.5575, 11.925, 9.85],
"binMin":
[0.08, 0.1, 0.12, 0.14, 0.16, 0.18, 0.2, 0.22],
"binMax":
[0.1, 0.12, 0.14, 0.16, 0.18, 0.2, 0.22, 0.24]
},
"imageblobslnk":NULL,"scoreslnk":2,"accesslnk":1,
"parnames":["theta [deg] of secondary particle"],"parvalues":["59.1"]
},
{
"trid":1,"testlnk":0,"referencelnk":17,"mcdetaillnk":1,
"beamlnk":37,"targetlnk":29,"observablelnk":9,"secondarylnk":2212,"reactionlnk":1,
"datatable":{
"dtid":1,"datatypeslnk":1,
"title":"Production of proton in proton-Cu interactions at 3GeV/c, theta=89.0 [deg]",
"npoints":0,
"nbins":[8],
"axisTitle":["kinetic energy of proton [GeV]","E(d3sigma/dp3) [mb/GeV**2]"],
"val":
[1558, 984.2, 697.1, 433.2, 290.2, 188.8, 155, 103.5],
"errStatPlus":
[22.455, 17.27, 16.045, 15.55, 9.965, 8.09, 8.445, 7.025],
"errStatMinus":
[22.455, 17.27, 16.045, 15.55, 9.965, 8.09, 8.445, 7.025],
"errSysPlus":
[46.74, 29.526, 20.913, 10.83, 7.255, 4.72, 3.875, 2.5875],
"errSysMinus":
[46.74, 29.526, 20.913, 10.83, 7.255, 4.72, 3.875, 2.5875],
"binMin":
[0.08, 0.1, 0.12, 0.14, 0.16, 0.18, 0.2, 0.22],
"binMax":
[0.1, 0.12, 0.14, 0.16, 0.18, 0.2, 0.22, 0.24]
},
"imageblobslnk":NULL,"scoreslnk":2,"accesslnk":1,
"parnames":["theta [deg] of secondary particle"],"parvalues":["89.0"]
},
{
"trid":1,"testlnk":0,"referencelnk":17,"mcdetaillnk":1,
"beamlnk":37,"targetlnk":29,"observablelnk":9,"secondarylnk":2212,"reactionlnk":1,
"datatable":{
"dtid":1,"datatypeslnk":1,
"title":"Production of proton in proton-Cu interactions at 3GeV/c, theta=119.0 [deg]",
"npoints":0,
"nbins":[8],
"axisTitle":["kinetic energy of proton [GeV]","E(d3sigma/dp3) [mb/GeV**2]"],
"val":
[785, 471.2, 287.2, 188.5, 106.3, 66.08, 39.5, 22.9],
"errStatPlus":
[20.14, 11.61, 9.275, 11.53, 5.43, 4.1135, 3.999, 2.9555],
"errStatMinus":
[20.14, 11.61, 9.275, 11.53, 5.43, 4.1135, 3.999, 2.9555],
"errSysPlus":
[23.55, 14.136, 8.616, 4.7125, 2.6575, 1.652, 0.9875, 0.5725],
"errSysMinus":
[23.55, 14.136, 8.616, 4.7125, 2.6575, 1.652, 0.9875, 0.5725],
"binMin":
[0.08, 0.1, 0.12, 0.14, 0.16, 0.18, 0.2, 0.22],
"binMax":
[0.1, 0.12, 0.14, 0.16, 0.18, 0.2, 0.22, 0.24]
},
"imageblobslnk":NULL,"scoreslnk":2,"accesslnk":1,
"parnames":["theta [deg] of secondary particle"],"parvalues":["119.0"]
},
{
"trid":1,"testlnk":0,"referencelnk":17,"mcdetaillnk":1,
"beamlnk":37,"targetlnk":29,"observablelnk":9,"secondarylnk":2212,"reactionlnk":1,
"datatable":{
"dtid":1,"datatypeslnk":1,
"title":"Production of proton in proton-Cu interactions at 3GeV/c, theta=159.6 [deg]",
"npoints":0,
"nbins":[7],
"axisTitle":["kinetic energy of proton [GeV]","E(d3sigma/dp3) [mb/GeV**2]"],
"val":
[488.8, 258.3, 178.9, 91.56, 48.08, 23.11, 12.38],
"errStatPlus":
[22.64, 15.96, 12.765, 9.4, 6.32, 4.6885, 3.014],
"errStatMinus":
[22.64, 15.96, 12.765, 9.4, 6.32, 4.6885, 3.014],
"errSysPlus":
[14.664, 7.749, 5.367, 2.289, 1.202, 0.57775, 0.3095],
"errSysMinus":
[14.664, 7.749, 5.367, 2.289, 1.202, 0.57775, 0.3095],
"binMin":
[0.08, 0.1, 0.12, 0.14, 0.16, 0.18, 0.2],
"binMax":
[0.1, 0.12, 0.14, 0.16, 0.18, 0.2, 0.22]
},
"imageblobslnk":NULL,"scoreslnk":2,"accesslnk":1,
"parnames":["theta [deg] of secondary particle"],"parvalues":["159.6"]
},
{
"trid":1,"testlnk":0,"referencelnk":17,"mcdetaillnk":1,
"beamlnk":38,"targetlnk":29,"observablelnk":9,"secondarylnk":2212,"reactionlnk":1,
"datatable":{
"dtid":1,"datatypeslnk":1,
"title":"Production of proton in proton-Cu interactions at 5GeV/c, theta=59.1 [deg]",
"npoints":0,
"nbins":[8],
"axisTitle":["kinetic energy of proton [GeV]","E(d3sigma/dp3) [mb/GeV**2]"],
"val":
[2516, 1977, 1451, 1119, 905.9, 703.8, 559.8, 511.7],
"errStatPlus":
[65.1, 42.33, 13.91, 21.015, 12.525, 8.455, 12.86, 21.495],
"errStatMinus":
[65.1, 42.33, 13.91, 21.015, 12.525, 8.455, 12.86, 21.495],
"errSysPlus":
[75.48, 59.31, 43.53, 27.975, 22.6475, 17.595, 13.995, 12.7925],
"errSysMinus":
[75.48, 59.31, 43.53, 27.975, 22.6475, 17.595, 13.995, 12.7925],
"binMin":
[0.08, 0.1, 0.12, 0.14, 0.16, 0.18, 0.2, 0.22],
"binMax":
[0.1, 0.12, 0.14, 0.16, 0.18, 0.2, 0.22, 0.24]
},
"imageblobslnk":NULL,"scoreslnk":2,"accesslnk":1,
"parnames":["theta [deg] of secondary particle"],"parvalues":["59.1"]
},
{
"trid":1,"testlnk":0,"referencelnk":17,"mcdetaillnk":1,
"beamlnk":38,"targetlnk":29,"observablelnk":9,"secondarylnk":2212,"reactionlnk":1,
"datatable":{
"dtid":1,"datatypeslnk":1,
"title":"Production of proton in proton-Cu interactions at 5GeV/c, theta=89.0 [deg]",
"npoints":0,
"nbins":[8],
"axisTitle":["kinetic energy of proton [GeV]","E(d3sigma/dp3) [mb/GeV**2]"],
"val":
[1708, 1189, 812.7, 576.6, 388.4, 280, 196.9, 128.4],
"errStatPlus":
[9.01, 7.93, 10.935, 15.78, 7.955, 7.82, 8.27, 6.84],
"errStatMinus":
[9.01, 7.93, 10.935, 15.78, 7.955, 7.82, 8.27, 6.84],
"errSysPlus":
[51.24, 35.67, 24.381, 14.415, 9.71, 7, 4.9225, 3.21],
"errSysMinus":
[51.24, 35.67, 24.381, 14.415, 9.71, 7, 4.9225, 3.21],
"binMin":
[0.08, 0.1, 0.12, 0.14, 0.16, 0.18, 0.2, 0.22],
"binMax":
[0.1, 0.12, 0.14, 0.16, 0.18, 0.2, 0.22, 0.24]
},
"imageblobslnk":NULL,"scoreslnk":2,"accesslnk":1,
"parnames":["theta [deg] of secondary particle"],"parvalues":["89.0"]
},
{
"trid":1,"testlnk":0,"referencelnk":17,"mcdetaillnk":1,
"beamlnk":38,"targetlnk":29,"observablelnk":9,"secondarylnk":2212,"reactionlnk":1,
"datatable":{
"dtid":1,"datatypeslnk":1,
"title":"Production of proton in proton-Cu interactions at 5GeV/c, theta=119.0 [deg]",
"npoints":0,
"nbins":[8],
"axisTitle":["kinetic energy of proton [GeV]","E(d3sigma/dp3) [mb/GeV**2]"],
"val":
[1015, 606.3, 386.6, 240.8, 153.9, 95.2, 60.35, 42.1],
"errStatPlus":
[16.68, 5.07, 5.75, 12.46, 3.524, 2.937, 4.682, 4.33],
"errStatMinus":
[16.68, 5.07, 5.75, 12.46, 3.524, 2.937, 4.682, 4.33],
"errSysPlus":
[30.45, 18.189, 11.598, 6.02, 3.8475, 2.38, 1.50875, 1.0525],
"errSysMinus":
[30.45, 18.189, 11.598, 6.02, 3.8475, 2.38, 1.50875, 1.0525],
"binMin":
[0.08, 0.1, 0.12, 0.14, 0.16, 0.18, 0.2, 0.22],
"binMax":
[0.1, 0.12, 0.14, 0.16, 0.18, 0.2, 0.22, 0.24]
},
"imageblobslnk":NULL,"scoreslnk":2,"accesslnk":1,
"parnames":["theta [deg] of secondary particle"],"parvalues":["119.0"]
},
{
"trid":1,"testlnk":0,"referencelnk":17,"mcdetaillnk":1,
"beamlnk":38,"targetlnk":29,"observablelnk":9,"secondarylnk":2212,"reactionlnk":1,
"datatable":{
"dtid":1,"datatypeslnk":1,
"title":"Production of proton in proton-Cu interactions at 5GeV/c, theta=159.6 [deg]",
"npoints":0,
"nbins":[8],
"axisTitle":["kinetic energy of proton [GeV]","E(d3sigma/dp3) [mb/GeV**2]"],
"val":
[617.4, 386.9, 213.6, 120.2, 68.16, 26.79, 20.58, 12.77],
"errStatPlus":
[8.88, 6.755, 4.93, 3.605, 3.1825, 2.026, 1.669, 1.2285],
"errStatMinus":
[8.88, 6.755, 4.93, 3.605, 3.1825, 2.026, 1.669, 1.2285],
"errSysPlus":
[18.522, 11.607, 6.408, 3.005, 1.704, 0.66975, 0.5145, 0.31925],
"errSysMinus":
[18.522, 11.607, 6.408, 3.005, 1.704, 0.66975, 0.5145, 0.31925],
"binMin":
[0.08, 0.1, 0.12, 0.14, 0.16, 0.18, 0.2, 0.22],
"binMax":
[0.1, 0.12, 0.14, 0.16, 0.18, 0.2, 0.22, 0.24]
},
"imageblobslnk":NULL,"scoreslnk":2,"accesslnk":1,
"parnames":["theta [deg] of secondary particle"],"parvalues":["159.6"]
},
{
"trid":1,"testlnk":0,"referencelnk":17,"mcdetaillnk":1,
"beamlnk":53,"targetlnk":29,"observablelnk":9,"secondarylnk":2212,"reactionlnk":1,
"datatable":{
"dtid":1,"datatypeslnk":1,
"title":"Production of proton in proton-Cu interactions at 6GeV/c, theta=59.1 [deg]",
"npoints":0,
"nbins":[8],
"axisTitle":["kinetic energy of proton [GeV]","E(d3sigma/dp3) [mb/GeV**2]"],
"val":
[2569, 2016, 1540, 1079, 956.2, 714, 619, 489.6],
"errStatPlus":
[74.15, 51.15, 26.595, 26.715, 21.015, 15.925, 18.185, 22.77],
"errStatMinus":
[74.15, 51.15, 26.595, 26.715, 21.015, 15.925, 18.185, 22.77],
"errSysPlus":
[77.07, 60.48, 46.2, 26.975, 23.905, 17.85, 15.475, 12.24],
"errSysMinus":
[77.07, 60.48, 46.2, 26.975, 23.905, 17.85, 15.475, 12.24],
"binMin":
[0.08, 0.1, 0.12, 0.14, 0.16, 0.18, 0.2, 0.22],
"binMax":
[0.1, 0.12, 0.14, 0.16, 0.18, 0.2, 0.22, 0.24]
},
"imageblobslnk":NULL,"scoreslnk":2,"accesslnk":1,
"parnames":["theta [deg] of secondary particle"],"parvalues":["59.1"]
},
{
"trid":1,"testlnk":0,"referencelnk":17,"mcdetaillnk":1,
"beamlnk":53,"targetlnk":29,"observablelnk":9,"secondarylnk":2212,"reactionlnk":1,
"datatable":{
"dtid":1,"datatypeslnk":1,
"title":"Production of proton in proton-Cu interactions at 6GeV/c, theta=89.0 [deg]",
"npoints":0,
"nbins":[8],
"axisTitle":["kinetic energy of proton [GeV]","E(d3sigma/dp3) [mb/GeV**2]"],
"val":
[1882, 1312, 886.6, 642.4, 391.7, 296.7, 182.7, 140.8],
"errStatPlus":
[20.055, 16.42, 16.26, 19.82, 10.71, 10.105, 8.875, 8.395],
"errStatMinus":
[20.055, 16.42, 16.26, 19.82, 10.71, 10.105, 8.875, 8.395],
"errSysPlus":
[56.46, 39.36, 26.598, 16.06, 9.7925, 7.4175, 4.5675, 3.52],
"errSysMinus":
[56.46, 39.36, 26.598, 16.06, 9.7925, 7.4175, 4.5675, 3.52],
"binMin":
[0.08, 0.1, 0.12, 0.14, 0.16, 0.18, 0.2, 0.22],
"binMax":
[0.1, 0.12, 0.14, 0.16, 0.18, 0.2, 0.22, 0.24]
},
"imageblobslnk":NULL,"scoreslnk":2,"accesslnk":1,
"parnames":["theta [deg] of secondary particle"],"parvalues":["89.0"]
},
{
"trid":1,"testlnk":0,"referencelnk":17,"mcdetaillnk":1,
"beamlnk":53,"targetlnk":29,"observablelnk":9,"secondarylnk":2212,"reactionlnk":1,
"datatable":{
"dtid":1,"datatypeslnk":1,
"title":"Production of proton in proton-Cu interactions at 6GeV/c, theta=119.0 [deg]",
"npoints":0,
"nbins":[8],
"axisTitle":["kinetic energy of proton [GeV]","E(d3sigma/dp3) [mb/GeV**2]"],
"val":
[1117, 644.6, 407.2, 251.7, 157.4, 104.8, 59.19, 47.88],
"errStatPlus":
[22.935, 11.01, 9.545, 14.085, 5.66, 4.663, 5.17, 5.28],
"errStatMinus":
[22.935, 11.01, 9.545, 14.085, 5.66, 4.663, 5.17, 5.28],
"errSysPlus":
[33.51, 19.338, 12.216, 6.2925, 3.935, 2.62, 1.47975, 1.197],
"errSysMinus":
[33.51, 19.338, 12.216, 6.2925, 3.935, 2.62, 1.47975, 1.197],
"binMin":
[0.08, 0.1, 0.12, 0.14, 0.16, 0.18, 0.2, 0.22],
"binMax":
[0.1, 0.12, 0.14, 0.16, 0.18, 0.2, 0.22, 0.24]
},
"imageblobslnk":NULL,"scoreslnk":2,"accesslnk":1,
"parnames":["theta [deg] of secondary particle"],"parvalues":["119.0"]
},
{
"trid":1,"testlnk":0,"referencelnk":17,"mcdetaillnk":1,
"beamlnk":53,"targetlnk":29,"observablelnk":9,"secondarylnk":2212,"reactionlnk":1,
"datatable":{
"dtid":1,"datatypeslnk":1,
"title":"Production of proton in proton-Cu interactions at 6GeV/c, theta=159.6 [deg]",
"npoints":0,
"nbins":[8],
"axisTitle":["kinetic energy of proton [GeV]","E(d3sigma/dp3) [mb/GeV**2]"],
"val":
[695.2, 409.8, 235.9, 144.6, 89.96, 23.1, 11.72, 7.294],
"errStatPlus":
[21.915, 15.995, 11.64, 8.88, 7.19, 3.4575, 2.3665, 1.862],
"errStatMinus":
[21.915, 15.995, 11.64, 8.88, 7.19, 3.4575, 2.3665, 1.862],
"errSysPlus":
[20.856, 12.294, 7.077, 3.615, 2.249, 0.5775, 0.293, 0.18235],
"errSysMinus":
[20.856, 12.294, 7.077, 3.615, 2.249, 0.5775, 0.293, 0.18235],
"binMin":
[0.08, 0.1, 0.12, 0.14, 0.16, 0.18, 0.2, 0.22],
"binMax":
[0.1, 0.12, 0.14, 0.16, 0.18, 0.2, 0.22, 0.24]
},
"imageblobslnk":NULL,"scoreslnk":2,"accesslnk":1,
"parnames":["theta [deg] of secondary particle"],"parvalues":["159.6"]
},
{
"trid":1,"testlnk":0,"referencelnk":17,"mcdetaillnk":1,
"beamlnk":54,"targetlnk":29,"observablelnk":9,"secondarylnk":2212,"reactionlnk":1,
"datatable":{
"dtid":1,"datatypeslnk":1,
"title":"Production of proton in proton-Cu interactions at 6.25GeV/c, theta=59.1 [deg]",
"npoints":0,
"nbins":[8],
"axisTitle":["kinetic energy of proton [GeV]","E(d3sigma/dp3) [mb/GeV**2]"],
"val":
[2518, 1981, 1604, 1262, 961.7, 699.6, 528, 481.8],
"errStatPlus":
[47.41, 40.565, 36.245, 31.705, 27.545, 21.3, 17.685, 21.12],
"errStatMinus":
[47.41, 40.565, 36.245, 31.705, 27.545, 21.3, 17.685, 21.12],
"errSysPlus":
[75.54, 59.43, 48.12, 31.55, 24.0425, 17.49, 13.2, 12.045],
"errSysMinus":
[75.54, 59.43, 48.12, 31.55, 24.0425, 17.49, 13.2, 12.045],
"binMin":
[0.08, 0.1, 0.12, 0.14, 0.16, 0.18, 0.2, 0.22],
"binMax":
[0.1, 0.12, 0.14, 0.16, 0.18, 0.2, 0.22, 0.24]
},
"imageblobslnk":NULL,"scoreslnk":2,"accesslnk":1,
"parnames":["theta [deg] of secondary particle"],"parvalues":["59.1"]
},
{
"trid":1,"testlnk":0,"referencelnk":17,"mcdetaillnk":1,
"beamlnk":54,"targetlnk":29,"observablelnk":9,"secondarylnk":2212,"reactionlnk":1,
"datatable":{
"dtid":1,"datatypeslnk":1,
"title":"Production of proton in proton-Cu interactions at 6.25GeV/c, theta=89.0 [deg]",
"npoints":0,
"nbins":[8],
"axisTitle":["kinetic energy of proton [GeV]","E(d3sigma/dp3) [mb/GeV**2]"],
"val":
[1801, 1227, 816.9, 635.9, 418.1, 294.6, 235.3, 145.6],
"errStatPlus":
[26.95, 21.565, 19.22, 21.98, 13.645, 11.82, 12.29, 9.62],
"errStatMinus":
[26.95, 21.565, 19.22, 21.98, 13.645, 11.82, 12.29, 9.62],
"errSysPlus":
[54.03, 36.81, 24.507, 15.8975, 10.4525, 7.365, 5.8825, 3.64],
"errSysMinus":
[54.03, 36.81, 24.507, 15.8975, 10.4525, 7.365, 5.8825, 3.64],
"binMin":
[0.08, 0.1, 0.12, 0.14, 0.16, 0.18, 0.2, 0.22],
"binMax":
[0.1, 0.12, 0.14, 0.16, 0.18, 0.2, 0.22, 0.24]
},
"imageblobslnk":NULL,"scoreslnk":2,"accesslnk":1,
"parnames":["theta [deg] of secondary particle"],"parvalues":["89.0"]
},
{
"trid":1,"testlnk":0,"referencelnk":17,"mcdetaillnk":1,
"beamlnk":54,"targetlnk":29,"observablelnk":9,"secondarylnk":2212,"reactionlnk":1,
"datatable":{
"dtid":1,"datatypeslnk":1,
"title":"Production of proton in proton-Cu interactions at 6.25GeV/c, theta=119.0 [deg]",
"npoints":0,
"nbins":[8],
"axisTitle":["kinetic energy of proton [GeV]","E(d3sigma/dp3) [mb/GeV**2]"],
"val":
[1035, 670.5, 445.6, 289.1, 175, 98.96, 64.21, 58.52],
"errStatPlus":
[26.045, 15.5, 13.14, 17.15, 7.86, 5.725, 6.155, 6.755],
"errStatMinus":
[26.045, 15.5, 13.14, 17.15, 7.86, 5.725, 6.155, 6.755],
"errSysPlus":
[31.05, 20.115, 13.368, 7.2275, 4.375, 2.474, 1.60525, 1.463],
"errSysMinus":
[31.05, 20.115, 13.368, 7.2275, 4.375, 2.474, 1.60525, 1.463],
"binMin":
[0.08, 0.1, 0.12, 0.14, 0.16, 0.18, 0.2, 0.22],
"binMax":
[0.1, 0.12, 0.14, 0.16, 0.18, 0.2, 0.22, 0.24]
},
"imageblobslnk":NULL,"scoreslnk":2,"accesslnk":1,
"parnames":["theta [deg] of secondary particle"],"parvalues":["119.0"]
},
{
"trid":1,"testlnk":0,"referencelnk":17,"mcdetaillnk":1,
"beamlnk":54,"targetlnk":29,"observablelnk":9,"secondarylnk":2212,"reactionlnk":1,
"datatable":{
"dtid":1,"datatypeslnk":1,
"title":"Production of proton in proton-Cu interactions at 6.25GeV/c, theta=159.6 [deg]",
"npoints":0,
"nbins":[8],
"axisTitle":["kinetic energy of proton [GeV]","E(d3sigma/dp3) [mb/GeV**2]"],
"val":
[599.6, 370.8, 229.6, 157.6, 97.06, 21.66, 38.16, 14.94],
"errStatPlus":
[27.825, 21.065, 16.11, 12.89, 10.34, 4.5295, 6.12, 3.721],
"errStatMinus":
[27.825, 21.065, 16.11, 12.89, 10.34, 4.5295, 6.12, 3.721],
"errSysPlus":
[17.988, 11.124, 6.888, 3.94, 2.4265, 0.5415, 0.954, 0.3735],
"errSysMinus":
[17.988, 11.124, 6.888, 3.94, 2.4265, 0.5415, 0.954, 0.3735],
"binMin":
[0.08, 0.1, 0.12, 0.14, 0.16, 0.18, 0.2, 0.22],
"binMax":
[0.1, 0.12, 0.14, 0.16, 0.18, 0.2, 0.22, 0.24]
},
"imageblobslnk":NULL,"scoreslnk":2,"accesslnk":1,
"parnames":["theta [deg] of secondary particle"],"parvalues":["159.6"]
},
{
"trid":1,"testlnk":0,"referencelnk":17,"mcdetaillnk":1,
"beamlnk":55,"targetlnk":29,"observablelnk":9,"secondarylnk":2212,"reactionlnk":1,
"datatable":{
"dtid":1,"datatypeslnk":1,
"title":"Production of proton in proton-Cu interactions at 6.5GeV/c, theta=59.1 [deg]",
"npoints":0,
"nbins":[8],
"axisTitle":["kinetic energy of proton [GeV]","E(d3sigma/dp3) [mb/GeV**2]"],
"val":
[2410, 1946, 1520, 1294, 899.6, 626.4, 537.2, 446],
"errStatPlus":
[30.79, 27.025, 24.22, 22.84, 18.975, 13.735, 12.06, 16.13],
"errStatMinus":
[30.79, 27.025, 24.22, 22.84, 18.975, 13.735, 12.06, 16.13],
"errSysPlus":
[72.3, 58.38, 45.6, 32.35, 22.49, 15.66, 13.43, 11.15],
"errSysMinus":
[72.3, 58.38, 45.6, 32.35, 22.49, 15.66, 13.43, 11.15],
"binMin":
[0.08, 0.1, 0.12, 0.14, 0.16, 0.18, 0.2, 0.22],
"binMax":
[0.1, 0.12, 0.14, 0.16, 0.18, 0.2, 0.22, 0.24]
},
"imageblobslnk":NULL,"scoreslnk":2,"accesslnk":1,
"parnames":["theta [deg] of secondary particle"],"parvalues":["59.1"]
},
{
"trid":1,"testlnk":0,"referencelnk":17,"mcdetaillnk":1,
"beamlnk":55,"targetlnk":29,"observablelnk":9,"secondarylnk":2212,"reactionlnk":1,
"datatable":{
"dtid":1,"datatypeslnk":1,
"title":"Production of proton in proton-Cu interactions at 6.5GeV/c, theta=89.0 [deg]",
"npoints":0,
"nbins":[8],
"axisTitle":["kinetic energy of proton [GeV]","E(d3sigma/dp3) [mb/GeV**2]"],
"val":
[1830, 1135, 810.2, 649.9, 451.3, 245.1, 184.8, 130.3],
"errStatPlus":
[18.385, 14.2, 14.625, 19.64, 11.395, 8.395, 8.765, 7.705],
"errStatMinus":
[18.385, 14.2, 14.625, 19.64, 11.395, 8.395, 8.765, 7.705],
"errSysPlus":
[54.9, 34.05, 24.306, 16.2475, 11.2825, 6.1275, 4.62, 3.2575],
"errSysMinus":
[54.9, 34.05, 24.306, 16.2475, 11.2825, 6.1275, 4.62, 3.2575],
"binMin":
[0.08, 0.1, 0.12, 0.14, 0.16, 0.18, 0.2, 0.22],
"binMax":
[0.1, 0.12, 0.14, 0.16, 0.18, 0.2, 0.22, 0.24]
},
"imageblobslnk":NULL,"scoreslnk":2,"accesslnk":1,
"parnames":["theta [deg] of secondary particle"],"parvalues":["89.0"]
},
{
"trid":1,"testlnk":0,"referencelnk":17,"mcdetaillnk":1,
"beamlnk":55,"targetlnk":29,"observablelnk":9,"secondarylnk":2212,"reactionlnk":1,
"datatable":{
"dtid":1,"datatypeslnk":1,
"title":"Production of proton in proton-Cu interactions at 6.5GeV/c, theta=119.0 [deg]",
"npoints":0,
"nbins":[8],
"axisTitle":["kinetic energy of proton [GeV]","E(d3sigma/dp3) [mb/GeV**2]"],
"val":
[1040, 623.8, 432.1, 308.5, 184.8, 95.83, 76.7, 56.73],
"errStatPlus":
[21.015, 10.1, 9.425, 16.8, 5.97, 4.1835, 6.405, 6.11],
"errStatMinus":
[21.015, 10.1, 9.425, 16.8, 5.97, 4.1835, 6.405, 6.11],
"errSysPlus":
[31.2, 18.714, 12.963, 7.7125, 4.62, 2.39575, 1.9175, 1.41825],
"errSysMinus":
[31.2, 18.714, 12.963, 7.7125, 4.62, 2.39575, 1.9175, 1.41825],
"binMin":
[0.08, 0.1, 0.12, 0.14, 0.16, 0.18, 0.2, 0.22],
"binMax":
[0.1, 0.12, 0.14, 0.16, 0.18, 0.2, 0.22, 0.24]
},
"imageblobslnk":NULL,"scoreslnk":2,"accesslnk":1,
"parnames":["theta [deg] of secondary particle"],"parvalues":["119.0"]
},
{
"trid":1,"testlnk":0,"referencelnk":17,"mcdetaillnk":1,
"beamlnk":55,"targetlnk":29,"observablelnk":9,"secondarylnk":2212,"reactionlnk":1,
"datatable":{
"dtid":1,"datatypeslnk":1,
"title":"Production of proton in proton-Cu interactions at 6.5GeV/c, theta=159.6 [deg]",
"npoints":0,
"nbins":[8],
"axisTitle":["kinetic energy of proton [GeV]","E(d3sigma/dp3) [mb/GeV**2]"],
"val":
[725, 388.4, 227.7, 139.7, 87.82, 33.52, 14.71, 10.99],
"errStatPlus":
[20.44, 14.315, 10.695, 8.08, 6.625, 4.001, 2.4945, 2.154],
"errStatMinus":
[20.44, 14.315, 10.695, 8.08, 6.625, 4.001, 2.4945, 2.154],
"errSysPlus":
[21.75, 11.652, 6.831, 3.4925, 2.1955, 0.838, 0.36775, 0.27475],
"errSysMinus":
[21.75, 11.652, 6.831, 3.4925, 2.1955, 0.838, 0.36775, 0.27475],
"binMin":
[0.08, 0.1, 0.12, 0.14, 0.16, 0.18, 0.2, 0.22],
"binMax":
[0.1, 0.12, 0.14, 0.16, 0.18, 0.2, 0.22, 0.24]
},
"imageblobslnk":NULL,"scoreslnk":2,"accesslnk":1,
"parnames":["theta [deg] of secondary particle"],"parvalues":["159.6"]
},
{
"trid":1,"testlnk":0,"referencelnk":17,"mcdetaillnk":1,
"beamlnk":56,"targetlnk":29,"observablelnk":9,"secondarylnk":2212,"reactionlnk":1,
"datatable":{
"dtid":1,"datatypeslnk":1,
"title":"Production of proton in proton-Cu interactions at 7GeV/c, theta=59.1 [deg]",
"npoints":0,
"nbins":[8],
"axisTitle":["kinetic energy of proton [GeV]","E(d3sigma/dp3) [mb/GeV**2]"],
"val":
[2362, 2005, 1601, 1286, 948.1, 696.7, 523.7, 447.2],
"errStatPlus":
[35.215, 31.8, 28.56, 25.64, 22.005, 16.66, 13.65, 17.32],
"errStatMinus":
[35.215, 31.8, 28.56, 25.64, 22.005, 16.66, 13.65, 17.32],
"errSysPlus":
[70.86, 60.15, 48.03, 32.15, 23.7025, 17.4175, 13.0925, 11.18],
"errSysMinus":
[70.86, 60.15, 48.03, 32.15, 23.7025, 17.4175, 13.0925, 11.18],
"binMin":
[0.08, 0.1, 0.12, 0.14, 0.16, 0.18, 0.2, 0.22],
"binMax":
[0.1, 0.12, 0.14, 0.16, 0.18, 0.2, 0.22, 0.24]
},
"imageblobslnk":NULL,"scoreslnk":2,"accesslnk":1,
"parnames":["theta [deg] of secondary particle"],"parvalues":["59.1"]
},
{
"trid":1,"testlnk":0,"referencelnk":17,"mcdetaillnk":1,
"beamlnk":56,"targetlnk":29,"observablelnk":9,"secondarylnk":2212,"reactionlnk":1,
"datatable":{
"dtid":1,"datatypeslnk":1,
"title":"Production of proton in proton-Cu interactions at 7GeV/c, theta=89.0 [deg]",
"npoints":0,
"nbins":[8],
"axisTitle":["kinetic energy of proton [GeV]","E(d3sigma/dp3) [mb/GeV**2]"],
"val":
[1821, 1218, 861.5, 646, 457.8, 314.1, 213.7, 112],
"errStatPlus":
[20.915, 16.745, 16.55, 20.285, 12.38, 10.86, 10.345, 7.06],
"errStatMinus":
[20.915, 16.745, 16.55, 20.285, 12.38, 10.86, 10.345, 7.06],
"errSysPlus":
[54.63, 36.54, 25.845, 16.15, 11.445, 7.8525, 5.3425, 2.8],
"errSysMinus":
[54.63, 36.54, 25.845, 16.15, 11.445, 7.8525, 5.3425, 2.8],
"binMin":
[0.08, 0.1, 0.12, 0.14, 0.16, 0.18, 0.2, 0.22],
"binMax":
[0.1, 0.12, 0.14, 0.16, 0.18, 0.2, 0.22, 0.24]
},
"imageblobslnk":NULL,"scoreslnk":2,"accesslnk":1,
"parnames":["theta [deg] of secondary particle"],"parvalues":["89.0"]
},
{
"trid":1,"testlnk":0,"referencelnk":17,"mcdetaillnk":1,
"beamlnk":56,"targetlnk":29,"observablelnk":9,"secondarylnk":2212,"reactionlnk":1,
"datatable":{
"dtid":1,"datatypeslnk":1,
"title":"Production of proton in proton-Cu interactions at 7GeV/c, theta=119.0 [deg]",
"npoints":0,
"nbins":[8],
"axisTitle":["kinetic energy of proton [GeV]","E(d3sigma/dp3) [mb/GeV**2]"],
"val":
[1069, 643.2, 457.4, 292, 180.1, 120.3, 73.27, 53.44],
"errStatPlus":
[22.93, 11.735, 10.79, 16.31, 6.515, 5.34, 6.335, 5.9],
"errStatMinus":
[22.93, 11.735, 10.79, 16.31, 6.515, 5.34, 6.335, 5.9],
"errSysPlus":
[32.07, 19.296, 13.722, 7.3, 4.5025, 3.0075, 1.83175, 1.336],
"errSysMinus":
[32.07, 19.296, 13.722, 7.3, 4.5025, 3.0075, 1.83175, 1.336],
"binMin":
[0.08, 0.1, 0.12, 0.14, 0.16, 0.18, 0.2, 0.22],
"binMax":
[0.1, 0.12, 0.14, 0.16, 0.18, 0.2, 0.22, 0.24]
},
"imageblobslnk":NULL,"scoreslnk":2,"accesslnk":1,
"parnames":["theta [deg] of secondary particle"],"parvalues":["119.0"]
},
{
"trid":1,"testlnk":0,"referencelnk":17,"mcdetaillnk":1,
"beamlnk":56,"targetlnk":29,"observablelnk":9,"secondarylnk":2212,"reactionlnk":1,
"datatable":{
"dtid":1,"datatypeslnk":1,
"title":"Production of proton in proton-Cu interactions at 7GeV/c, theta=159.6 [deg]",
"npoints":0,
"nbins":[8],
"axisTitle":["kinetic energy of proton [GeV]","E(d3sigma/dp3) [mb/GeV**2]"],
"val":
[667.7, 483.6, 261.6, 123.7, 95.16, 43.89, 24.99, 17.15],
"errStatPlus":
[22.895, 18.685, 13.09, 8.95, 7.875, 5.27, 3.8125, 3.1235],
"errStatMinus":
[22.895, 18.685, 13.09, 8.95, 7.875, 5.27, 3.8125, 3.1235],
"errSysPlus":
[20.031, 14.508, 7.848, 3.0925, 2.379, 1.09725, 0.62475, 0.42875],
"errSysMinus":
[20.031, 14.508, 7.848, 3.0925, 2.379, 1.09725, 0.62475, 0.42875],
"binMin":
[0.08, 0.1, 0.12, 0.14, 0.16, 0.18, 0.2, 0.22],
"binMax":
[0.1, 0.12, 0.14, 0.16, 0.18, 0.2, 0.22, 0.24]
},
"imageblobslnk":NULL,"scoreslnk":2,"accesslnk":1,
"parnames":["theta [deg] of secondary particle"],"parvalues":["159.6"]
},
{
"trid":1,"testlnk":0,"referencelnk":17,"mcdetaillnk":1,
"beamlnk":58,"targetlnk":29,"observablelnk":9,"secondarylnk":2212,"reactionlnk":1,
"datatable":{
"dtid":1,"datatypeslnk":1,
"title":"Production of proton in proton-Cu interactions at 8.25GeV/c, theta=59.1 [deg]",
"npoints":0,
"nbins":[8],
"axisTitle":["kinetic energy of proton [GeV]","E(d3sigma/dp3) [mb/GeV**2]"],
"val":
[2419, 1950, 1522, 1238, 939.1, 696.7, 614.1, 420.5],
"errStatPlus":
[36.055, 31.445, 27.97, 25.285, 22.04, 16.86, 14.91, 16.605],
"errStatMinus":
[36.055, 31.445, 27.97, 25.285, 22.04, 16.86, 14.91, 16.605],
"errSysPlus":
[72.57, 58.5, 45.66, 30.95, 23.4775, 17.4175, 15.3525, 10.5125],
"errSysMinus":
[72.57, 58.5, 45.66, 30.95, 23.4775, 17.4175, 15.3525, 10.5125],
"binMin":
[0.08, 0.1, 0.12, 0.14, 0.16, 0.18, 0.2, 0.22],
"binMax":
[0.1, 0.12, 0.14, 0.16, 0.18, 0.2, 0.22, 0.24]
},
"imageblobslnk":NULL,"scoreslnk":2,"accesslnk":1,
"parnames":["theta [deg] of secondary particle"],"parvalues":["59.1"]
},
{
"trid":1,"testlnk":0,"referencelnk":17,"mcdetaillnk":1,
"beamlnk":58,"targetlnk":29,"observablelnk":9,"secondarylnk":2212,"reactionlnk":1,
"datatable":{
"dtid":1,"datatypeslnk":1,
"title":"Production of proton in proton-Cu interactions at 8.25GeV/c, theta=89.0 [deg]",
"npoints":0,
"nbins":[8],
"axisTitle":["kinetic energy of proton [GeV]","E(d3sigma/dp3) [mb/GeV**2]"],
"val":
[1762, 1218, 912.3, 612.1, 411.7, 307.4, 219.6, 137.5],
"errStatPlus":
[20.795, 16.885, 17.325, 19.435, 11.535, 10.725, 10.62, 8.43],
"errStatMinus":
[20.795, 16.885, 17.325, 19.435, 11.535, 10.725, 10.62, 8.43],
"errSysPlus":
[52.86, 36.54, 27.369, 15.3025, 10.2925, 7.685, 5.49, 3.4375],
"errSysMinus":
[52.86, 36.54, 27.369, 15.3025, 10.2925, 7.685, 5.49, 3.4375],
"binMin":
[0.08, 0.1, 0.12, 0.14, 0.16, 0.18, 0.2, 0.22],
"binMax":
[0.1, 0.12, 0.14, 0.16, 0.18, 0.2, 0.22, 0.24]
},
"imageblobslnk":NULL,"scoreslnk":2,"accesslnk":1,
"parnames":["theta [deg] of secondary particle"],"parvalues":["89.0"]
},
{
"trid":1,"testlnk":0,"referencelnk":17,"mcdetaillnk":1,
"beamlnk":58,"targetlnk":29,"observablelnk":9,"secondarylnk":2212,"reactionlnk":1,
"datatable":{
"dtid":1,"datatypeslnk":1,
"title":"Production of proton in proton-Cu interactions at 8.25GeV/c, theta=119.0 [deg]",
"npoints":0,
"nbins":[8],
"axisTitle":["kinetic energy of proton [GeV]","E(d3sigma/dp3) [mb/GeV**2]"],
"val":
[1087, 678, 443.3, 268.8, 188, 114.8, 77.83, 49.43],
"errStatPlus":
[23.32, 12.175, 10.65, 15.17, 6.715, 5.21, 6.695, 5.525],
"errStatMinus":
[23.32, 12.175, 10.65, 15.17, 6.715, 5.21, 6.695, 5.525],
"errSysPlus":
[32.61, 20.34, 13.299, 6.72, 4.7, 2.87, 1.94575, 1.23575],
"errSysMinus":
[32.61, 20.34, 13.299, 6.72, 4.7, 2.87, 1.94575, 1.23575],
"binMin":
[0.08, 0.1, 0.12, 0.14, 0.16, 0.18, 0.2, 0.22],
"binMax":
[0.1, 0.12, 0.14, 0.16, 0.18, 0.2, 0.22, 0.24]
},
"imageblobslnk":NULL,"scoreslnk":2,"accesslnk":1,
"parnames":["theta [deg] of secondary particle"],"parvalues":["119.0"]
},
{
"trid":1,"testlnk":0,"referencelnk":17,"mcdetaillnk":1,
"beamlnk":58,"targetlnk":29,"observablelnk":9,"secondarylnk":2212,"reactionlnk":1,
"datatable":{
"dtid":1,"datatypeslnk":1,
"title":"Production of proton in proton-Cu interactions at 8.25GeV/c, theta=159.6 [deg]",
"npoints":0,
"nbins":[8],
"axisTitle":["kinetic energy of proton [GeV]","E(d3sigma/dp3) [mb/GeV**2]"],
"val":
[646.7, 408.8, 252.6, 132.9, 82.04, 42.07, 13.02, 12.85],
"errStatPlus":
[22.51, 17.375, 12.98, 9.155, 7.31, 5.185, 2.6965, 3.1325],
"errStatMinus":
[22.51, 17.375, 12.98, 9.155, 7.31, 5.185, 2.6965, 3.1325],
"errSysPlus":
[19.401, 12.264, 7.578, 3.3225, 2.051, 1.05175, 0.3255, 0.32125],
"errSysMinus":
[19.401, 12.264, 7.578, 3.3225, 2.051, 1.05175, 0.3255, 0.32125],
"binMin":
[0.08, 0.1, 0.12, 0.14, 0.16, 0.18, 0.2, 0.22],
"binMax":
[0.1, 0.12, 0.14, 0.16, 0.18, 0.2, 0.22, 0.24]
},
"imageblobslnk":NULL,"scoreslnk":2,"accesslnk":1,
"parnames":["theta [deg] of secondary particle"],"parvalues":["159.6"]
},
{
"trid":1,"testlnk":0,"referencelnk":17,"mcdetaillnk":1,
"beamlnk":59,"targetlnk":29,"observablelnk":9,"secondarylnk":2212,"reactionlnk":1,
"datatable":{
"dtid":1,"datatypeslnk":1,
"title":"Production of proton in proton-Cu interactions at 8.5GeV/c, theta=59.1 [deg]",
"npoints":0,
"nbins":[8],
"axisTitle":["kinetic energy of proton [GeV]","E(d3sigma/dp3) [mb/GeV**2]"],
"val":
[2495, 1990, 1661, 1279, 969, 696.9, 567.2, 478.8],
"errStatPlus":
[35.34, 30.87, 28.41, 25.025, 21.795, 16.285, 13.835, 18.01],
"errStatMinus":
[35.34, 30.87, 28.41, 25.025, 21.795, 16.285, 13.835, 18.01],
"errSysPlus":
[74.85, 59.7, 49.83, 31.975, 24.225, 17.4225, 14.18, 11.97],
"errSysMinus":
[74.85, 59.7, 49.83, 31.975, 24.225, 17.4225, 14.18, 11.97],
"binMin":
[0.08, 0.1, 0.12, 0.14, 0.16, 0.18, 0.2, 0.22],
"binMax":
[0.1, 0.12, 0.14, 0.16, 0.18, 0.2, 0.22, 0.24]
},
"imageblobslnk":NULL,"scoreslnk":2,"accesslnk":1,
"parnames":["theta [deg] of secondary particle"],"parvalues":["59.1"]
},
{
"trid":1,"testlnk":0,"referencelnk":17,"mcdetaillnk":1,
"beamlnk":59,"targetlnk":29,"observablelnk":9,"secondarylnk":2212,"reactionlnk":1,
"datatable":{
"dtid":1,"datatypeslnk":1,
"title":"Production of proton in proton-Cu interactions at 8.5GeV/c, theta=89.0 [deg]",
"npoints":0,
"nbins":[8],
"axisTitle":["kinetic energy of proton [GeV]","E(d3sigma/dp3) [mb/GeV**2]"],
"val":
[1893, 1258, 916.2, 683, 440.7, 299.1, 229.4, 148.2],
"errStatPlus":
[20.86, 16.665, 17.015, 21.12, 11.875, 10.34, 10.91, 8.88],
"errStatMinus":
[20.86, 16.665, 17.015, 21.12, 11.875, 10.34, 10.91, 8.88],
"errSysPlus":
[56.79, 37.74, 27.486, 17.075, 11.0175, 7.4775, 5.735, 3.705],
"errSysMinus":
[56.79, 37.74, 27.486, 17.075, 11.0175, 7.4775, 5.735, 3.705],
"binMin":
[0.08, 0.1, 0.12, 0.14, 0.16, 0.18, 0.2, 0.22],
"binMax":
[0.1, 0.12, 0.14, 0.16, 0.18, 0.2, 0.22, 0.24]
},
"imageblobslnk":NULL,"scoreslnk":2,"accesslnk":1,
"parnames":["theta [deg] of secondary particle"],"parvalues":["89.0"]
},
{
"trid":1,"testlnk":0,"referencelnk":17,"mcdetaillnk":1,
"beamlnk":59,"targetlnk":29,"observablelnk":9,"secondarylnk":2212,"reactionlnk":1,
"datatable":{
"dtid":1,"datatypeslnk":1,
"title":"Production of proton in proton-Cu interactions at 8.5GeV/c, theta=119.0 [deg]",
"npoints":0,
"nbins":[8],
"axisTitle":["kinetic energy of proton [GeV]","E(d3sigma/dp3) [mb/GeV**2]"],
"val":
[1159, 683.7, 503.6, 314.5, 165.9, 128.7, 85.51, 66.54],
"errStatPlus":
[24.055, 11.825, 11.255, 17.385, 6.03, 5.52, 7.225, 7.2],
"errStatMinus":
[24.055, 11.825, 11.255, 17.385, 6.03, 5.52, 7.225, 7.2],
"errSysPlus":
[34.77, 20.511, 15.108, 7.8625, 4.1475, 3.2175, 2.13775, 1.6635],
"errSysMinus":
[34.77, 20.511, 15.108, 7.8625, 4.1475, 3.2175, 2.13775, 1.6635],
"binMin":
[0.08, 0.1, 0.12, 0.14, 0.16, 0.18, 0.2, 0.22],
"binMax":
[0.1, 0.12, 0.14, 0.16, 0.18, 0.2, 0.22, 0.24]
},
"imageblobslnk":NULL,"scoreslnk":2,"accesslnk":1,
"parnames":["theta [deg] of secondary particle"],"parvalues":["119.0"]
},
{
"trid":1,"testlnk":0,"referencelnk":17,"mcdetaillnk":1,
"beamlnk":59,"targetlnk":29,"observablelnk":9,"secondarylnk":2212,"reactionlnk":1,
"datatable":{
"dtid":1,"datatypeslnk":1,
"title":"Production of proton in proton-Cu interactions at 8.5GeV/c, theta=159.6 [deg]",
"npoints":0,
"nbins":[8],
"axisTitle":["kinetic energy of proton [GeV]","E(d3sigma/dp3) [mb/GeV**2]"],
"val":
[815.9, 478, 263.7, 134.9, 72.71, 29.88, 18.1, 18.08],
"errStatPlus":
[24.32, 17.92, 12.955, 8.915, 6.63, 4.141, 3.1115, 3.137],
"errStatMinus":
[24.32, 17.92, 12.955, 8.915, 6.63, 4.141, 3.1115, 3.137],
"errSysPlus":
[24.477, 14.34, 7.911, 3.3725, 1.81775, 0.747, 0.4525, 0.452],
"errSysMinus":
[24.477, 14.34, 7.911, 3.3725, 1.81775, 0.747, 0.4525, 0.452],
"binMin":
[0.08, 0.1, 0.12, 0.14, 0.16, 0.18, 0.2, 0.22],
"binMax":
[0.1, 0.12, 0.14, 0.16, 0.18, 0.2, 0.22, 0.24]
},
"imageblobslnk":NULL,"scoreslnk":2,"accesslnk":1,
"parnames":["theta [deg] of secondary particle"],"parvalues":["159.6"]
},
{
"trid":1,"testlnk":0,"referencelnk":17,"mcdetaillnk":1,
"beamlnk":60,"targetlnk":29,"observablelnk":9,"secondarylnk":2212,"reactionlnk":1,
"datatable":{
"dtid":1,"datatypeslnk":1,
"title":"Production of proton in proton-Cu interactions at 9GeV/c, theta=59.1 [deg]",
"npoints":0,
"nbins":[8],
"axisTitle":["kinetic energy of proton [GeV]","E(d3sigma/dp3) [mb/GeV**2]"],
"val":
[2446, 2113, 1646, 1276, 952.5, 668.1, 524.1, 440.6],
"errStatPlus":
[39.705, 35.94, 31.66, 27.73, 23.895, 17.795, 15.025, 18.055],
"errStatMinus":
[39.705, 35.94, 31.66, 27.73, 23.895, 17.795, 15.025, 18.055],
"errSysPlus":
[73.38, 63.39, 49.38, 31.9, 23.8125, 16.7025, 13.1025, 11.015],
"errSysMinus":
[73.38, 63.39, 49.38, 31.9, 23.8125, 16.7025, 13.1025, 11.015],
"binMin":
[0.08, 0.1, 0.12, 0.14, 0.16, 0.18, 0.2, 0.22],
"binMax":
[0.1, 0.12, 0.14, 0.16, 0.18, 0.2, 0.22, 0.24]
},
"imageblobslnk":NULL,"scoreslnk":2,"accesslnk":1,
"parnames":["theta [deg] of secondary particle"],"parvalues":["59.1"]
},
{
"trid":1,"testlnk":0,"referencelnk":17,"mcdetaillnk":1,
"beamlnk":60,"targetlnk":29,"observablelnk":9,"secondarylnk":2212,"reactionlnk":1,
"datatable":{
"dtid":1,"datatypeslnk":1,
"title":"Production of proton in proton-Cu interactions at 9GeV/c, theta=89.0 [deg]",
"npoints":0,
"nbins":[8],
"axisTitle":["kinetic energy of proton [GeV]","E(d3sigma/dp3) [mb/GeV**2]"],
"val":
[1707, 1239, 834, 637.9, 434.6, 311.9, 235.9, 151.1],
"errStatPlus":
[24.42, 20.14, 18.41, 21.38, 13.33, 11.825, 11.99, 9.625],
"errStatMinus":
[24.42, 20.14, 18.41, 21.38, 13.33, 11.825, 11.99, 9.625],
"errSysPlus":
[51.21, 37.17, 25.02, 15.9475, 10.865, 7.7975, 5.8975, 3.7775],
"errSysMinus":
[51.21, 37.17, 25.02, 15.9475, 10.865, 7.7975, 5.8975, 3.7775],
"binMin":
[0.08, 0.1, 0.12, 0.14, 0.16, 0.18, 0.2, 0.22],
"binMax":
[0.1, 0.12, 0.14, 0.16, 0.18, 0.2, 0.22, 0.24]
},
"imageblobslnk":NULL,"scoreslnk":2,"accesslnk":1,
"parnames":["theta [deg] of secondary particle"],"parvalues":["89.0"]
},
{
"trid":1,"testlnk":0,"referencelnk":17,"mcdetaillnk":1,
"beamlnk":60,"targetlnk":29,"observablelnk":9,"secondarylnk":2212,"reactionlnk":1,
"datatable":{
"dtid":1,"datatypeslnk":1,
"title":"Production of proton in proton-Cu interactions at 9GeV/c, theta=119.0 [deg]",
"npoints":0,
"nbins":[8],
"axisTitle":["kinetic energy of proton [GeV]","E(d3sigma/dp3) [mb/GeV**2]"],
"val":
[1074, 654.9, 473.3, 279.8, 195.7, 133.6, 79.51, 46.06],
"errStatPlus":
[24.26, 13.045, 11.925, 16.01, 7.375, 6.17, 6.98, 5.265],
"errStatMinus":
[24.26, 13.045, 11.925, 16.01, 7.375, 6.17, 6.98, 5.265],
"errSysPlus":
[32.22, 19.647, 14.199, 6.995, 4.8925, 3.34, 1.98775, 1.1515],
"errSysMinus":
[32.22, 19.647, 14.199, 6.995, 4.8925, 3.34, 1.98775, 1.1515],
"binMin":
[0.08, 0.1, 0.12, 0.14, 0.16, 0.18, 0.2, 0.22],
"binMax":
[0.1, 0.12, 0.14, 0.16, 0.18, 0.2, 0.22, 0.24]
},
"imageblobslnk":NULL,"scoreslnk":2,"accesslnk":1,
"parnames":["theta [deg] of secondary particle"],"parvalues":["119.0"]
},
{
"trid":1,"testlnk":0,"referencelnk":17,"mcdetaillnk":1,
"beamlnk":60,"targetlnk":29,"observablelnk":9,"secondarylnk":2212,"reactionlnk":1,
"datatable":{
"dtid":1,"datatypeslnk":1,
"title":"Production of proton in proton-Cu interactions at 9GeV/c, theta=159.6 [deg]",
"npoints":0,
"nbins":[8],
"axisTitle":["kinetic energy of proton [GeV]","E(d3sigma/dp3) [mb/GeV**2]"],
"val":
[740.3, 447, 275.1, 144.1, 74.7, 34.84, 40.85, 29.09],
"errStatPlus":
[26.685, 19.785, 15.005, 10.645, 7.565, 5.045, 5.74, 4.5805],
"errStatMinus":
[26.685, 19.785, 15.005, 10.645, 7.565, 5.045, 5.74, 4.5805],
"errSysPlus":
[22.209, 13.41, 8.253, 3.6025, 1.8675, 0.871, 1.02125, 0.72725],
"errSysMinus":
[22.209, 13.41, 8.253, 3.6025, 1.8675, 0.871, 1.02125, 0.72725],
"binMin":
[0.08, 0.1, 0.12, 0.14, 0.16, 0.18, 0.2, 0.22],
"binMax":
[0.1, 0.12, 0.14, 0.16, 0.18, 0.2, 0.22, 0.24]
},
"imageblobslnk":NULL,"scoreslnk":2,"accesslnk":1,
"parnames":["theta [deg] of secondary particle"],"parvalues":["159.6"]
},
{
"trid":1,"testlnk":0,"referencelnk":17,"mcdetaillnk":1,
"beamlnk":57,"targetlnk":29,"observablelnk":9,"secondarylnk":2212,"reactionlnk":1,
"datatable":{
"dtid":1,"datatypeslnk":1,
"title":"Production of proton in proton-Cu interactions at 7.5GeV/c, theta=10.1 [deg]",
"npoints":0,
"nbins":[8],
"axisTitle":["kinetic energy of proton [GeV]","E(d3sigma/dp3) [mb/GeV**2]"],
"val":
[3034, 2442, 2265, 1809, 1892, 1476, 1436, 1272],
"errStatPlus":
[57.85, 50.7, 53.6, 99.25, 52.7, 51.6, 112.4, 130.75],
"errStatMinus":
[57.85, 50.7, 53.6, 99.25, 52.7, 51.6, 112.4, 130.75],
"errSysPlus":
[91.02, 73.26, 67.95, 45.225, 47.3, 36.9, 35.9, 31.8],
"errSysMinus":
[91.02, 73.26, 67.95, 45.225, 47.3, 36.9, 35.9, 31.8],
"binMin":
[0.08, 0.1, 0.12, 0.14, 0.16, 0.18, 0.2, 0.22],
"binMax":
[0.1, 0.12, 0.14, 0.16, 0.18, 0.2, 0.22, 0.24]
},
"imageblobslnk":NULL,"scoreslnk":2,"accesslnk":1,
"parnames":["theta [deg] of secondary particle"],"parvalues":["10.1"]
},
{
"trid":1,"testlnk":0,"referencelnk":17,"mcdetaillnk":1,
"beamlnk":57,"targetlnk":29,"observablelnk":9,"secondarylnk":2212,"reactionlnk":1,
"datatable":{
"dtid":1,"datatypeslnk":1,
"title":"Production of proton in proton-Cu interactions at 7.5GeV/c, theta=15.0 [deg]",
"npoints":0,
"nbins":[8],
"axisTitle":["kinetic energy of proton [GeV]","E(d3sigma/dp3) [mb/GeV**2]"],
"val":
[3127, 2507, 2286, 1784, 1801, 1631, 1376, 1295],
"errStatPlus":
[58.1, 50.7, 53.2, 97.85, 50.95, 55.3, 107.8, 133.15],
"errStatMinus":
[58.1, 50.7, 53.2, 97.85, 50.95, 55.3, 107.8, 133.15],
"errSysPlus":
[93.81, 75.21, 68.58, 44.6, 45.025, 40.775, 34.4, 32.375],
"errSysMinus":
[93.81, 75.21, 68.58, 44.6, 45.025, 40.775, 34.4, 32.375],
"binMin":
[0.08, 0.1, 0.12, 0.14, 0.16, 0.18, 0.2, 0.22],
"binMax":
[0.1, 0.12, 0.14, 0.16, 0.18, 0.2, 0.22, 0.24]
},
"imageblobslnk":NULL,"scoreslnk":2,"accesslnk":1,
"parnames":["theta [deg] of secondary particle"],"parvalues":["15.0"]
},
{
"trid":1,"testlnk":0,"referencelnk":17,"mcdetaillnk":1,
"beamlnk":57,"targetlnk":29,"observablelnk":9,"secondarylnk":2212,"reactionlnk":1,
"datatable":{
"dtid":1,"datatypeslnk":1,
"title":"Production of proton in proton-Cu interactions at 7.5GeV/c, theta=19.8 [deg]",
"npoints":0,
"nbins":[8],
"axisTitle":["kinetic energy of proton [GeV]","E(d3sigma/dp3) [mb/GeV**2]"],
"val":
[3014, 2455, 2141, 1826, 1610, 1465, 1471, 1206],
"errStatPlus":
[34.955, 31.11, 34.13, 55, 33.405, 35.285, 59.2, 61.2],
"errStatMinus":
[34.955, 31.11, 34.13, 55, 33.405, 35.285, 59.2, 61.2],
"errSysPlus":
[90.42, 73.65, 64.23, 45.65, 40.25, 36.625, 36.775, 30.15],
"errSysMinus":
[90.42, 73.65, 64.23, 45.65, 40.25, 36.625, 36.775, 30.15],
"binMin":
[0.08, 0.1, 0.12, 0.14, 0.16, 0.18, 0.2, 0.22],
"binMax":
[0.1, 0.12, 0.14, 0.16, 0.18, 0.2, 0.22, 0.24]
},
"imageblobslnk":NULL,"scoreslnk":2,"accesslnk":1,
"parnames":["theta [deg] of secondary particle"],"parvalues":["19.8"]
},
{
"trid":1,"testlnk":0,"referencelnk":17,"mcdetaillnk":1,
"beamlnk":57,"targetlnk":29,"observablelnk":9,"secondarylnk":2212,"reactionlnk":1,
"datatable":{
"dtid":1,"datatypeslnk":1,
"title":"Production of proton in proton-Cu interactions at 7.5GeV/c, theta=24.8 [deg]",
"npoints":0,
"nbins":[8],
"axisTitle":["kinetic energy of proton [GeV]","E(d3sigma/dp3) [mb/GeV**2]"],
"val":
[3115, 2552, 2146, 1804, 1613, 1464, 1306, 1196],
"errStatPlus":
[31.7, 28.45, 31.5, 51.1, 31.655, 33.66, 51.25, 59.05],
"errStatMinus":
[31.7, 28.45, 31.5, 51.1, 31.655, 33.66, 51.25, 59.05],
"errSysPlus":
[93.45, 76.56, 64.38, 45.1, 40.325, 36.6, 32.65, 29.9],
"errSysMinus":
[93.45, 76.56, 64.38, 45.1, 40.325, 36.6, 32.65, 29.9],
"binMin":
[0.08, 0.1, 0.12, 0.14, 0.16, 0.18, 0.2, 0.22],
"binMax":
[0.1, 0.12, 0.14, 0.16, 0.18, 0.2, 0.22, 0.24]
},
"imageblobslnk":NULL,"scoreslnk":2,"accesslnk":1,
"parnames":["theta [deg] of secondary particle"],"parvalues":["24.8"]
},
{
"trid":1,"testlnk":0,"referencelnk":17,"mcdetaillnk":1,
"beamlnk":57,"targetlnk":29,"observablelnk":9,"secondarylnk":2212,"reactionlnk":1,
"datatable":{
"dtid":1,"datatypeslnk":1,
"title":"Production of proton in proton-Cu interactions at 7.5GeV/c, theta=29.5 [deg]",
"npoints":0,
"nbins":[8],
"axisTitle":["kinetic energy of proton [GeV]","E(d3sigma/dp3) [mb/GeV**2]"],
"val":
[3100, 2457, 2041, 1721, 1510, 1276, 1167, 954.7],
"errStatPlus":
[38.62, 33.85, 34.575, 51.9, 32.855, 32.33, 48.01, 49.195],
"errStatMinus":
[38.62, 33.85, 34.575, 51.9, 32.855, 32.33, 48.01, 49.195],
"errSysPlus":
[93, 73.71, 61.23, 43.025, 37.75, 31.9, 29.175, 23.8675],
"errSysMinus":
[93, 73.71, 61.23, 43.025, 37.75, 31.9, 29.175, 23.8675],
"binMin":
[0.08, 0.1, 0.12, 0.14, 0.16, 0.18, 0.2, 0.22],
"binMax":
[0.1, 0.12, 0.14, 0.16, 0.18, 0.2, 0.22, 0.24]
},
"imageblobslnk":NULL,"scoreslnk":2,"accesslnk":1,
"parnames":["theta [deg] of secondary particle"],"parvalues":["29.5"]
},
{
"trid":1,"testlnk":0,"referencelnk":17,"mcdetaillnk":1,
"beamlnk":57,"targetlnk":29,"observablelnk":9,"secondarylnk":2212,"reactionlnk":1,
"datatable":{
"dtid":1,"datatypeslnk":1,
"title":"Production of proton in proton-Cu interactions at 7.5GeV/c, theta=34.6 [deg]",
"npoints":0,
"nbins":[8],
"axisTitle":["kinetic energy of proton [GeV]","E(d3sigma/dp3) [mb/GeV**2]"],
"val":
[2893, 2332, 1961, 1558, 1497, 1197, 1091, 934.2],
"errStatPlus":
[35.71, 31.465, 32.665, 46.015, 31.815, 29.885, 43.98, 47.22],
"errStatMinus":
[35.71, 31.465, 32.665, 46.015, 31.815, 29.885, 43.98, 47.22],
"errSysPlus":
[86.79, 69.96, 58.83, 38.95, 37.425, 29.925, 27.275, 23.355],
"errSysMinus":
[86.79, 69.96, 58.83, 38.95, 37.425, 29.925, 27.275, 23.355],
"binMin":
[0.08, 0.1, 0.12, 0.14, 0.16, 0.18, 0.2, 0.22],
"binMax":
[0.1, 0.12, 0.14, 0.16, 0.18, 0.2, 0.22, 0.24]
},
"imageblobslnk":NULL,"scoreslnk":2,"accesslnk":1,
"parnames":["theta [deg] of secondary particle"],"parvalues":["34.6"]
},
{
"trid":1,"testlnk":0,"referencelnk":17,"mcdetaillnk":1,
"beamlnk":57,"targetlnk":29,"observablelnk":9,"secondarylnk":2212,"reactionlnk":1,
"datatable":{
"dtid":1,"datatypeslnk":1,
"title":"Production of proton in proton-Cu interactions at 7.5GeV/c, theta=39.6 [deg]",
"npoints":0,
"nbins":[8],
"axisTitle":["kinetic energy of proton [GeV]","E(d3sigma/dp3) [mb/GeV**2]"],
"val":
[2886, 2217, 1861, 1551, 1316, 1157, 1049, 829.6],
"errStatPlus":
[28.66, 24.885, 27.25, 42.145, 25.945, 26.83, 40.36, 40.635],
"errStatMinus":
[28.66, 24.885, 27.25, 42.145, 25.945, 26.83, 40.36, 40.635],
"errSysPlus":
[86.58, 66.51, 55.83, 38.775, 32.9, 28.925, 26.225, 20.74],
"errSysMinus":
[86.58, 66.51, 55.83, 38.775, 32.9, 28.925, 26.225, 20.74],
"binMin":
[0.08, 0.1, 0.12, 0.14, 0.16, 0.18, 0.2, 0.22],
"binMax":
[0.1, 0.12, 0.14, 0.16, 0.18, 0.2, 0.22, 0.24]
},
"imageblobslnk":NULL,"scoreslnk":2,"accesslnk":1,
"parnames":["theta [deg] of secondary particle"],"parvalues":["39.6"]
},
{
"trid":1,"testlnk":0,"referencelnk":17,"mcdetaillnk":1,
"beamlnk":57,"targetlnk":29,"observablelnk":9,"secondarylnk":2212,"reactionlnk":1,
"datatable":{
"dtid":1,"datatypeslnk":1,
"title":"Production of proton in proton-Cu interactions at 7.5GeV/c, theta=44.3 [deg]",
"npoints":0,
"nbins":[8],
"axisTitle":["kinetic energy of proton [GeV]","E(d3sigma/dp3) [mb/GeV**2]"],
"val":
[2873, 2236, 1778, 1550, 1244, 1007, 867.5, 633.4],
"errStatPlus":
[33.49, 28.985, 29.835, 42.97, 27.34, 26.25, 34.305, 31.985],
"errStatMinus":
[33.49, 28.985, 29.835, 42.97, 27.34, 26.25, 34.305, 31.985],
"errSysPlus":
[86.19, 67.08, 53.34, 38.75, 31.1, 25.175, 21.6875, 15.835],
"errSysMinus":
[86.19, 67.08, 53.34, 38.75, 31.1, 25.175, 21.6875, 15.835],
"binMin":
[0.08, 0.1, 0.12, 0.14, 0.16, 0.18, 0.2, 0.22],
"binMax":
[0.1, 0.12, 0.14, 0.16, 0.18, 0.2, 0.22, 0.24]
},
"imageblobslnk":NULL,"scoreslnk":2,"accesslnk":1,
"parnames":["theta [deg] of secondary particle"],"parvalues":["44.3"]
},
{
"trid":1,"testlnk":0,"referencelnk":17,"mcdetaillnk":1,
"beamlnk":57,"targetlnk":29,"observablelnk":9,"secondarylnk":2212,"reactionlnk":1,
"datatable":{
"dtid":1,"datatypeslnk":1,
"title":"Production of proton in proton-Cu interactions at 7.5GeV/c, theta=49.3 [deg]",
"npoints":0,
"nbins":[8],
"axisTitle":["kinetic energy of proton [GeV]","E(d3sigma/dp3) [mb/GeV**2]"],
"val":
[2723, 2088, 1708, 1415, 1110, 879.7, 812.1, 622.2],
"errStatPlus":
[31.06, 26.69, 27.585, 40.84, 23.99, 22.31, 32.99, 31.92],
"errStatMinus":
[31.06, 26.69, 27.585, 40.84, 23.99, 22.31, 32.99, 31.92],
"errSysPlus":
[81.69, 62.64, 51.24, 35.375, 27.75, 21.9925, 20.3025, 15.555],
"errSysMinus":
[81.69, 62.64, 51.24, 35.375, 27.75, 21.9925, 20.3025, 15.555],
"binMin":
[0.08, 0.1, 0.12, 0.14, 0.16, 0.18, 0.2, 0.22],
"binMax":
[0.1, 0.12, 0.14, 0.16, 0.18, 0.2, 0.22, 0.24]
},
"imageblobslnk":NULL,"scoreslnk":2,"accesslnk":1,
"parnames":["theta [deg] of secondary particle"],"parvalues":["49.3"]
},
{
"trid":1,"testlnk":0,"referencelnk":17,"mcdetaillnk":1,
"beamlnk":57,"targetlnk":29,"observablelnk":9,"secondarylnk":2212,"reactionlnk":1,
"datatable":{
"dtid":1,"datatypeslnk":1,
"title":"Production of proton in proton-Cu interactions at 7.5GeV/c, theta=54.2 [deg]",
"npoints":0,
"nbins":[8],
"axisTitle":["kinetic energy of proton [GeV]","E(d3sigma/dp3) [mb/GeV**2]"],
"val":
[2612, 2010, 1588, 1239, 1060, 790, 671.4, 580.7],
"errStatPlus":
[28.645, 24.695, 25.27, 34.875, 22.51, 20.015, 26.905, 29.15],
"errStatMinus":
[28.645, 24.695, 25.27, 34.875, 22.51, 20.015, 26.905, 29.15],
"errSysPlus":
[78.36, 60.3, 47.64, 30.975, 26.5, 19.75, 16.785, 14.5175],
"errSysMinus":
[78.36, 60.3, 47.64, 30.975, 26.5, 19.75, 16.785, 14.5175],
"binMin":
[0.08, 0.1, 0.12, 0.14, 0.16, 0.18, 0.2, 0.22],
"binMax":
[0.1, 0.12, 0.14, 0.16, 0.18, 0.2, 0.22, 0.24]
},
"imageblobslnk":NULL,"scoreslnk":2,"accesslnk":1,
"parnames":["theta [deg] of secondary particle"],"parvalues":["54.2"]
},
{
"trid":1,"testlnk":0,"referencelnk":17,"mcdetaillnk":1,
"beamlnk":57,"targetlnk":29,"observablelnk":9,"secondarylnk":2212,"reactionlnk":1,
"datatable":{
"dtid":1,"datatypeslnk":1,
"title":"Production of proton in proton-Cu interactions at 7.5GeV/c, theta=59.1 [deg]",
"npoints":0,
"nbins":[9],
"axisTitle":["kinetic energy of proton [GeV]","E(d3sigma/dp3) [mb/GeV**2]"],
"val":
[3096, 2422, 1893, 1475, 1194, 918.4, 641.5, 536.9, 460],
"errStatPlus":
[90.5, 17.52, 15.845, 15.255, 14.535, 13.46, 8.715, 7.15, 11.965],
"errStatMinus":
[90.5, 17.52, 15.845, 15.255, 14.535, 13.46, 8.715, 7.15, 11.965],
"errSysPlus":
[92.88, 72.66, 56.79, 44.25, 29.85, 22.96, 16.0375, 13.4225, 11.5],
"errSysMinus":
[92.88, 72.66, 56.79, 44.25, 29.85, 22.96, 16.0375, 13.4225, 11.5],
"binMin":
[0.06, 0.08, 0.1, 0.12, 0.14, 0.16, 0.18, 0.2, 0.22],
"binMax":
[0.08, 0.1, 0.12, 0.14, 0.16, 0.18, 0.2, 0.22, 0.24]
},
"imageblobslnk":NULL,"scoreslnk":2,"accesslnk":1,
"parnames":["theta [deg] of secondary particle"],"parvalues":["59.1"]
},
{
"trid":1,"testlnk":0,"referencelnk":17,"mcdetaillnk":1,
"beamlnk":57,"targetlnk":29,"observablelnk":9,"secondarylnk":2212,"reactionlnk":1,
"datatable":{
"dtid":1,"datatypeslnk":1,
"title":"Production of proton in proton-Cu interactions at 7.5GeV/c, theta=64.1 [deg]",
"npoints":0,
"nbins":[8],
"axisTitle":["kinetic energy of proton [GeV]","E(d3sigma/dp3) [mb/GeV**2]"],
"val":
[2311, 1761, 1434, 1051, 843.9, 612.8, 500.9, 332.9],
"errStatPlus":
[30.025, 25.68, 25.565, 32.34, 20.285, 17.38, 21.8, 18.5],
"errStatMinus":
[30.025, 25.68, 25.565, 32.34, 20.285, 17.38, 21.8, 18.5],
"errSysPlus":
[69.33, 52.83, 43.02, 26.275, 21.0975, 15.32, 12.5225, 8.3225],
"errSysMinus":
[69.33, 52.83, 43.02, 26.275, 21.0975, 15.32, 12.5225, 8.3225],
"binMin":
[0.08, 0.1, 0.12, 0.14, 0.16, 0.18, 0.2, 0.22],
"binMax":
[0.1, 0.12, 0.14, 0.16, 0.18, 0.2, 0.22, 0.24]
},
"imageblobslnk":NULL,"scoreslnk":2,"accesslnk":1,
"parnames":["theta [deg] of secondary particle"],"parvalues":["64.1"]
},
{
"trid":1,"testlnk":0,"referencelnk":17,"mcdetaillnk":1,
"beamlnk":57,"targetlnk":29,"observablelnk":9,"secondarylnk":2212,"reactionlnk":1,
"datatable":{
"dtid":1,"datatypeslnk":1,
"title":"Production of proton in proton-Cu interactions at 7.5GeV/c, theta=69.1 [deg]",
"npoints":0,
"nbins":[8],
"axisTitle":["kinetic energy of proton [GeV]","E(d3sigma/dp3) [mb/GeV**2]"],
"val":
[2222, 1649, 1377, 968.3, 755.5, 578.9, 445.5, 341.3],
"errStatPlus":
[26.795, 22.59, 23.315, 29.965, 17.745, 15.96, 19.625, 18.77],
"errStatMinus":
[26.795, 22.59, 23.315, 29.965, 17.745, 15.96, 19.625, 18.77],
"errSysPlus":
[66.66, 49.47, 41.31, 24.2075, 18.8875, 14.4725, 11.1375, 8.5325],
"errSysMinus":
[66.66, 49.47, 41.31, 24.2075, 18.8875, 14.4725, 11.1375, 8.5325],
"binMin":
[0.08, 0.1, 0.12, 0.14, 0.16, 0.18, 0.2, 0.22],
"binMax":
[0.1, 0.12, 0.14, 0.16, 0.18, 0.2, 0.22, 0.24]
},
"imageblobslnk":NULL,"scoreslnk":2,"accesslnk":1,
"parnames":["theta [deg] of secondary particle"],"parvalues":["69.1"]
},
{
"trid":1,"testlnk":0,"referencelnk":17,"mcdetaillnk":1,
"beamlnk":57,"targetlnk":29,"observablelnk":9,"secondarylnk":2212,"reactionlnk":1,
"datatable":{
"dtid":1,"datatypeslnk":1,
"title":"Production of proton in proton-Cu interactions at 7.5GeV/c, theta=74.1 [deg]",
"npoints":0,
"nbins":[8],
"axisTitle":["kinetic energy of proton [GeV]","E(d3sigma/dp3) [mb/GeV**2]"],
"val":
[2100, 1486, 1087, 806, 663.8, 434.3, 357.7, 283.5],
"errStatPlus":
[21.835, 18.045, 17.81, 25.665, 14.805, 12.02, 16.175, 15.895],
"errStatMinus":
[21.835, 18.045, 17.81, 25.665, 14.805, 12.02, 16.175, 15.895],
"errSysPlus":
[63, 44.58, 32.61, 20.15, 16.595, 10.8575, 8.9425, 7.0875],
"errSysMinus":
[63, 44.58, 32.61, 20.15, 16.595, 10.8575, 8.9425, 7.0875],
"binMin":
[0.08, 0.1, 0.12, 0.14, 0.16, 0.18, 0.2, 0.22],
"binMax":
[0.1, 0.12, 0.14, 0.16, 0.18, 0.2, 0.22, 0.24]
},
"imageblobslnk":NULL,"scoreslnk":2,"accesslnk":1,
"parnames":["theta [deg] of secondary particle"],"parvalues":["74.1"]
},
{
"trid":1,"testlnk":0,"referencelnk":17,"mcdetaillnk":1,
"beamlnk":57,"targetlnk":29,"observablelnk":9,"secondarylnk":2212,"reactionlnk":1,
"datatable":{
"dtid":1,"datatypeslnk":1,
"title":"Production of proton in proton-Cu interactions at 7.5GeV/c, theta=79.1 [deg]",
"npoints":0,
"nbins":[8],
"axisTitle":["kinetic energy of proton [GeV]","E(d3sigma/dp3) [mb/GeV**2]"],
"val":
[1945, 1382, 1014, 701.3, 543.5, 380.2, 293.6, 231.1],
"errStatPlus":
[27.565, 22.66, 20.625, 23.41, 15.125, 12.435, 14.065, 13.49],
"errStatMinus":
[27.565, 22.66, 20.625, 23.41, 15.125, 12.435, 14.065, 13.49],
"errSysPlus":
[58.35, 41.46, 30.42, 17.5325, 13.5875, 9.505, 7.34, 5.7775],
"errSysMinus":
[58.35, 41.46, 30.42, 17.5325, 13.5875, 9.505, 7.34, 5.7775],
"binMin":
[0.08, 0.1, 0.12, 0.14, 0.16, 0.18, 0.2, 0.22],
"binMax":
[0.1, 0.12, 0.14, 0.16, 0.18, 0.2, 0.22, 0.24]
},
"imageblobslnk":NULL,"scoreslnk":2,"accesslnk":1,
"parnames":["theta [deg] of secondary particle"],"parvalues":["79.1"]
},
{
"trid":1,"testlnk":0,"referencelnk":17,"mcdetaillnk":1,
"beamlnk":57,"targetlnk":29,"observablelnk":9,"secondarylnk":2212,"reactionlnk":1,
"datatable":{
"dtid":1,"datatypeslnk":1,
"title":"Production of proton in proton-Cu interactions at 7.5GeV/c, theta=84.1 [deg]",
"npoints":0,
"nbins":[8],
"axisTitle":["kinetic energy of proton [GeV]","E(d3sigma/dp3) [mb/GeV**2]"],
"val":
[1743, 1272, 892.4, 638.1, 438.3, 288.8, 225.6, 152.6],
"errStatPlus":
[26.08, 21.67, 19.09, 21.715, 13.21, 10.37, 11.495, 9.735],
"errStatMinus":
[26.08, 21.67, 19.09, 21.715, 13.21, 10.37, 11.495, 9.735],
"errSysPlus":
[52.29, 38.16, 26.772, 15.9525, 10.9575, 7.22, 5.64, 3.815],
"errSysMinus":
[52.29, 38.16, 26.772, 15.9525, 10.9575, 7.22, 5.64, 3.815],
"binMin":
[0.08, 0.1, 0.12, 0.14, 0.16, 0.18, 0.2, 0.22],
"binMax":
[0.1, 0.12, 0.14, 0.16, 0.18, 0.2, 0.22, 0.24]
},
"imageblobslnk":NULL,"scoreslnk":2,"accesslnk":1,
"parnames":["theta [deg] of secondary particle"],"parvalues":["84.1"]
},
{
"trid":1,"testlnk":0,"referencelnk":17,"mcdetaillnk":1,
"beamlnk":57,"targetlnk":29,"observablelnk":9,"secondarylnk":2212,"reactionlnk":1,
"datatable":{
"dtid":1,"datatypeslnk":1,
"title":"Production of proton in proton-Cu interactions at 7.5GeV/c, theta=89.0 [deg]",
"npoints":0,
"nbins":[9],
"axisTitle":["kinetic energy of proton [GeV]","E(d3sigma/dp3) [mb/GeV**2]"],
"val":
[2429, 1745, 1199, 834.8, 599.4, 392.1, 299.3, 220.2, 168.7],
"errStatPlus":
[66.85, 10.305, 8.825, 10.435, 13.27, 7.46, 6.955, 7.2, 6.955],
"errStatMinus":
[66.85, 10.305, 8.825, 10.435, 13.27, 7.46, 6.955, 7.2, 6.955],
"errSysPlus":
[72.87, 52.35, 35.97, 25.044, 14.985, 9.8025, 7.4825, 5.505, 4.2175],
"errSysMinus":
[72.87, 52.35, 35.97, 25.044, 14.985, 9.8025, 7.4825, 5.505, 4.2175],
"binMin":
[0.06, 0.08, 0.1, 0.12, 0.14, 0.16, 0.18, 0.2, 0.22],
"binMax":
[0.08, 0.1, 0.12, 0.14, 0.16, 0.18, 0.2, 0.22, 0.24]
},
"imageblobslnk":NULL,"scoreslnk":2,"accesslnk":1,
"parnames":["theta [deg] of secondary particle"],"parvalues":["89.0"]
},
{
"trid":1,"testlnk":0,"referencelnk":17,"mcdetaillnk":1,
"beamlnk":57,"targetlnk":29,"observablelnk":9,"secondarylnk":2212,"reactionlnk":1,
"datatable":{
"dtid":1,"datatypeslnk":1,
"title":"Production of proton in proton-Cu interactions at 7.5GeV/c, theta=98.9 [deg]",
"npoints":0,
"nbins":[8],
"axisTitle":["kinetic energy of proton [GeV]","E(d3sigma/dp3) [mb/GeV**2]"],
"val":
[1481, 927.4, 679.3, 437.3, 295.2, 202.5, 141.7, 86.76],
"errStatPlus":
[14.585, 11.37, 11.095, 12.655, 7.18, 5.915, 6.23, 4.9045],
"errStatMinus":
[14.585, 11.37, 11.095, 12.655, 7.18, 5.915, 6.23, 4.9045],
"errSysPlus":
[44.43, 27.822, 20.379, 10.9325, 7.38, 5.0625, 3.5425, 2.169],
"errSysMinus":
[44.43, 27.822, 20.379, 10.9325, 7.38, 5.0625, 3.5425, 2.169],
"binMin":
[0.08, 0.1, 0.12, 0.14, 0.16, 0.18, 0.2, 0.22],
"binMax":
[0.1, 0.12, 0.14, 0.16, 0.18, 0.2, 0.22, 0.24]
},
"imageblobslnk":NULL,"scoreslnk":2,"accesslnk":1,
"parnames":["theta [deg] of secondary particle"],"parvalues":["98.9"]
},
{
"trid":1,"testlnk":0,"referencelnk":17,"mcdetaillnk":1,
"beamlnk":57,"targetlnk":29,"observablelnk":9,"secondarylnk":2212,"reactionlnk":1,
"datatable":{
"dtid":1,"datatypeslnk":1,
"title":"Production of proton in proton-Cu interactions at 7.5GeV/c, theta=108.9 [deg]",
"npoints":0,
"nbins":[8],
"axisTitle":["kinetic energy of proton [GeV]","E(d3sigma/dp3) [mb/GeV**2]"],
"val":
[1195, 769.1, 487.2, 342.2, 227.1, 147.4, 83.59, 66.23],
"errStatPlus":
[14.485, 11.32, 9.6, 10.94, 6.44, 5.05, 4.3615, 4.142],
"errStatMinus":
[14.485, 11.32, 9.6, 10.94, 6.44, 5.05, 4.3615, 4.142],
"errSysPlus":
[35.85, 23.073, 14.616, 8.555, 5.6775, 3.685, 2.08975, 1.65575],
"errSysMinus":
[35.85, 23.073, 14.616, 8.555, 5.6775, 3.685, 2.08975, 1.65575],
"binMin":
[0.08, 0.1, 0.12, 0.14, 0.16, 0.18, 0.2, 0.22],
"binMax":
[0.1, 0.12, 0.14, 0.16, 0.18, 0.2, 0.22, 0.24]
},
"imageblobslnk":NULL,"scoreslnk":2,"accesslnk":1,
"parnames":["theta [deg] of secondary particle"],"parvalues":["108.9"]
},
{
"trid":1,"testlnk":0,"referencelnk":17,"mcdetaillnk":1,
"beamlnk":57,"targetlnk":29,"observablelnk":9,"secondarylnk":2212,"reactionlnk":1,
"datatable":{
"dtid":1,"datatypeslnk":1,
"title":"Production of proton in proton-Cu interactions at 7.5GeV/c, theta=119.0 [deg]",
"npoints":0,
"nbins":[8],
"axisTitle":["kinetic energy of proton [GeV]","E(d3sigma/dp3) [mb/GeV**2]"],
"val":
[1026, 638, 423.7, 265.1, 175, 105.4, 74.66, 50.09],
"errStatPlus":
[17.26, 5.9, 6.08, 10.39, 3.84, 2.9495, 4.3935, 3.868],
"errStatMinus":
[17.26, 5.9, 6.08, 10.39, 3.84, 2.9495, 4.3935, 3.868],
"errSysPlus":
[30.78, 19.14, 12.711, 6.6275, 4.375, 2.635, 1.8665, 1.25225],
"errSysMinus":
[30.78, 19.14, 12.711, 6.6275, 4.375, 2.635, 1.8665, 1.25225],
"binMin":
[0.08, 0.1, 0.12, 0.14, 0.16, 0.18, 0.2, 0.22],
"binMax":
[0.1, 0.12, 0.14, 0.16, 0.18, 0.2, 0.22, 0.24]
},
"imageblobslnk":NULL,"scoreslnk":2,"accesslnk":1,
"parnames":["theta [deg] of secondary particle"],"parvalues":["119.0"]
},
{
"trid":1,"testlnk":0,"referencelnk":17,"mcdetaillnk":1,
"beamlnk":57,"targetlnk":29,"observablelnk":9,"secondarylnk":2212,"reactionlnk":1,
"datatable":{
"dtid":1,"datatypeslnk":1,
"title":"Production of proton in proton-Cu interactions at 7.5GeV/c, theta=129.1 [deg]",
"npoints":0,
"nbins":[8],
"axisTitle":["kinetic energy of proton [GeV]","E(d3sigma/dp3) [mb/GeV**2]"],
"val":
[900.4, 555.8, 367.5, 201.6, 130.6, 78.57, 55.11, 35.91],
"errStatPlus":
[10.035, 7.655, 6.79, 6.41, 3.8435, 2.8635, 2.785, 2.2805],
"errStatMinus":
[10.035, 7.655, 6.79, 6.41, 3.8435, 2.8635, 2.785, 2.2805],
"errSysPlus":
[27.012, 16.674, 11.025, 5.04, 3.265, 1.96425, 1.37775, 0.89775],
"errSysMinus":
[27.012, 16.674, 11.025, 5.04, 3.265, 1.96425, 1.37775, 0.89775],
"binMin":
[0.08, 0.1, 0.12, 0.14, 0.16, 0.18, 0.2, 0.22],
"binMax":
[0.1, 0.12, 0.14, 0.16, 0.18, 0.2, 0.22, 0.24]
},
"imageblobslnk":NULL,"scoreslnk":2,"accesslnk":1,
"parnames":["theta [deg] of secondary particle"],"parvalues":["129.1"]
},
{
"trid":1,"testlnk":0,"referencelnk":17,"mcdetaillnk":1,
"beamlnk":57,"targetlnk":29,"observablelnk":9,"secondarylnk":2212,"reactionlnk":1,
"datatable":{
"dtid":1,"datatypeslnk":1,
"title":"Production of proton in proton-Cu interactions at 7.5GeV/c, theta=139.1 [deg]",
"npoints":0,
"nbins":[8],
"axisTitle":["kinetic energy of proton [GeV]","E(d3sigma/dp3) [mb/GeV**2]"],
"val":
[801.2, 14.42, 0.15, 97.59, 5.201, 0.23, 0, 0],
"errStatPlus":
[9.4, 0.065, 89.35, 3.2145, 0.105, 14.82, 0, 0],
"errStatMinus":
[9.4, 0.065, 89.35, 3.2145, 0.105, 14.82, 0, 0],
"errSysPlus":
[44.066, 2165.16, 0.8745, 9.27105, 101.94, 0.450225, 0, 0],
"errSysMinus":
[44.066, 2165.16, 0.8745, 9.27105, 101.94, 0.450225, 0, 0],
"binMin":
[0.08, 496.99, 12.01, 0.16, 67.39, 4.348, -0.01, -0.01],
"binMax":
[0.1, 497.01, 12.03, 0.18, 67.41, 4.368, 0.01, 0.01]
},
"imageblobslnk":NULL,"scoreslnk":2,"accesslnk":1,
"parnames":["theta [deg] of secondary particle"],"parvalues":["139.1"]
},
{
"trid":1,"testlnk":0,"referencelnk":17,"mcdetaillnk":1,
"beamlnk":57,"targetlnk":29,"observablelnk":9,"secondarylnk":2212,"reactionlnk":1,
"datatable":{
"dtid":1,"datatypeslnk":1,
"title":"Production of proton in proton-Cu interactions at 7.5GeV/c, theta=149.3 [deg]",
"npoints":0,
"nbins":[8],
"axisTitle":["kinetic energy of proton [GeV]","E(d3sigma/dp3) [mb/GeV**2]"],
"val":
[771.3, 421.8, 253.2, 140.2, 87.63, 58.04, 41.33, 20.39],
"errStatPlus":
[12.265, 8.72, 6.85, 5.77, 3.816, 2.9915, 2.706, 1.8195],
"errStatMinus":
[12.265, 8.72, 6.85, 5.77, 3.816, 2.9915, 2.706, 1.8195],
"errSysPlus":
[23.139, 12.654, 7.596, 3.505, 2.19075, 1.451, 1.03325, 0.50975],
"errSysMinus":
[23.139, 12.654, 7.596, 3.505, 2.19075, 1.451, 1.03325, 0.50975],
"binMin":
[0.08, 0.1, 0.12, 0.14, 0.16, 0.18, 0.2, 0.22],
"binMax":
[0.1, 0.12, 0.14, 0.16, 0.18, 0.2, 0.22, 0.24]
},
"imageblobslnk":NULL,"scoreslnk":2,"accesslnk":1,
"parnames":["theta [deg] of secondary particle"],"parvalues":["149.3"]
},
{
"trid":1,"testlnk":0,"referencelnk":17,"mcdetaillnk":1,
"beamlnk":57,"targetlnk":29,"observablelnk":9,"secondarylnk":2212,"reactionlnk":1,
"datatable":{
"dtid":1,"datatypeslnk":1,
"title":"Production of proton in proton-Cu interactions at 7.5GeV/c, theta=159.6 [deg]",
"npoints":0,
"nbins":[9],
"axisTitle":["kinetic energy of proton [GeV]","E(d3sigma/dp3) [mb/GeV**2]"],
"val":
[1122, 675.7, 383.6, 243.4, 144.4, 72.46, 31.4, 23.6, 17.16],
"errStatPlus":
[44.325, 10.715, 7.79, 6.06, 4.5645, 3.4845, 2.3055, 1.897, 1.592],
"errStatMinus":
[44.325, 10.715, 7.79, 6.06, 4.5645, 3.4845, 2.3055, 1.897, 1.592],
"errSysPlus":
[33.66, 20.271, 11.508, 7.302, 3.61, 1.8115, 0.785, 0.59, 0.429],
"errSysMinus":
[33.66, 20.271, 11.508, 7.302, 3.61, 1.8115, 0.785, 0.59, 0.429],
"binMin":
[0.06, 0.08, 0.1, 0.12, 0.14, 0.16, 0.18, 0.2, 0.22],
"binMax":
[0.08, 0.1, 0.12, 0.14, 0.16, 0.18, 0.2, 0.22, 0.24]
},
"imageblobslnk":NULL,"scoreslnk":2,"accesslnk":1,
"parnames":["theta [deg] of secondary particle"],"parvalues":["159.6"]
},
{
"trid":1,"testlnk":0,"referencelnk":17,"mcdetaillnk":1,
"beamlnk":57,"targetlnk":29,"observablelnk":9,"secondarylnk":2212,"reactionlnk":1,
"datatable":{
"dtid":1,"datatypeslnk":1,
"title":"Production of proton in proton-Cu interactions at 7.5GeV/c, theta=161.4 [deg]",
"npoints":0,
"nbins":[8],
"axisTitle":["kinetic energy of proton [GeV]","E(d3sigma/dp3) [mb/GeV**2]"],
"val":
[671.6, 374.2, 266.5, 121.9, 71.6, 43.92, 19.82, 15.46],
"errStatPlus":
[20.35, 14.785, 12.04, 7.78, 6.085, 4.817, 3.0555, 2.6545],
"errStatMinus":
[20.35, 14.785, 12.04, 7.78, 6.085, 4.817, 3.0555, 2.6545],
"errSysPlus":
[20.148, 11.226, 7.995, 3.0475, 1.79, 1.098, 0.4955, 0.3865],
"errSysMinus":
[20.148, 11.226, 7.995, 3.0475, 1.79, 1.098, 0.4955, 0.3865],
"binMin":
[0.08, 0.1, 0.12, 0.14, 0.16, 0.18, 0.2, 0.22],
"binMax":
[0.1, 0.12, 0.14, 0.16, 0.18, 0.2, 0.22, 0.24]
},
"imageblobslnk":NULL,"scoreslnk":2,"accesslnk":1,
"parnames":["theta [deg] of secondary particle"],"parvalues":["161.4"]
},
{
"trid":1,"testlnk":0,"referencelnk":17,"mcdetaillnk":1,
"beamlnk":57,"targetlnk":29,"observablelnk":9,"secondarylnk":2212,"reactionlnk":1,
"datatable":{
"dtid":1,"datatypeslnk":1,
"title":"Production of proton in proton-Cu interactions at 7.5GeV/c, theta=165.5 [deg]",
"npoints":0,
"nbins":[8],
"axisTitle":["kinetic energy of proton [GeV]","E(d3sigma/dp3) [mb/GeV**2]"],
"val":
[674, 437.9, 234.3, 159.7, 66.53, 28.54, 34.94, 10.77],
"errStatPlus":
[22.845, 17.32, 12.215, 9.82, 6.4, 4.062, 4.5675, 2.436],
"errStatMinus":
[22.845, 17.32, 12.215, 9.82, 6.4, 4.062, 4.5675, 2.436],
"errSysPlus":
[20.22, 13.137, 7.029, 3.9925, 1.66325, 0.7135, 0.8735, 0.26925],
"errSysMinus":
[20.22, 13.137, 7.029, 3.9925, 1.66325, 0.7135, 0.8735, 0.26925],
"binMin":
[0.08, 0.1, 0.12, 0.14, 0.16, 0.18, 0.2, 0.22],
"binMax":
[0.1, 0.12, 0.14, 0.16, 0.18, 0.2, 0.22, 0.24]
},
"imageblobslnk":NULL,"scoreslnk":2,"accesslnk":1,
"parnames":["theta [deg] of secondary particle"],"parvalues":["165.5"]
},
{
"trid":1,"testlnk":0,"referencelnk":17,"mcdetaillnk":1,
"beamlnk":57,"targetlnk":29,"observablelnk":9,"secondarylnk":2212,"reactionlnk":1,
"datatable":{
"dtid":1,"datatypeslnk":1,
"title":"Production of proton in proton-Cu interactions at 7.5GeV/c, theta=169.5 [deg]",
"npoints":0,
"nbins":[8],
"axisTitle":["kinetic energy of proton [GeV]","E(d3sigma/dp3) [mb/GeV**2]"],
"val":
[764.9, 435, 260.3, 136.4, 89.6, 28.21, 19.94, 13.66],
"errStatPlus":
[24.23, 17.75, 13.13, 9.105, 7.565, 4.4925, 3.3245, 2.7735],
"errStatMinus":
[24.23, 17.75, 13.13, 9.105, 7.565, 4.4925, 3.3245, 2.7735],
"errSysPlus":
[22.947, 13.05, 7.809, 3.41, 2.24, 0.70525, 0.4985, 0.3415],
"errSysMinus":
[22.947, 13.05, 7.809, 3.41, 2.24, 0.70525, 0.4985, 0.3415],
"binMin":
[0.08, 0.1, 0.12, 0.14, 0.16, 0.18, 0.2, 0.22],
"binMax":
[0.1, 0.12, 0.14, 0.16, 0.18, 0.2, 0.22, 0.24]
},
"imageblobslnk":NULL,"scoreslnk":2,"accesslnk":1,
"parnames":["theta [deg] of secondary particle"],"parvalues":["169.5"]
},
{
"trid":1,"testlnk":0,"referencelnk":17,"mcdetaillnk":1,
"beamlnk":57,"targetlnk":29,"observablelnk":9,"secondarylnk":2212,"reactionlnk":1,
"datatable":{
"dtid":1,"datatypeslnk":1,
"title":"Production of proton in proton-Cu interactions at 7.5GeV/c, theta=173.5 [deg]",
"npoints":0,
"nbins":[8],
"axisTitle":["kinetic energy of proton [GeV]","E(d3sigma/dp3) [mb/GeV**2]"],
"val":
[735.7, 368.4, 227.9, 126, 91.57, 20.71, 19.97, 23.6],
"errStatPlus":
[26.72, 18.135, 13.43, 9.76, 7.935, 4.1045, 4.0345, 4.068],
"errStatMinus":
[26.72, 18.135, 13.43, 9.76, 7.935, 4.1045, 4.0345, 4.068],
"errSysPlus":
[22.071, 11.052, 6.837, 3.15, 2.28925, 0.51775, 0.49925, 0.59],
"errSysMinus":
[22.071, 11.052, 6.837, 3.15, 2.28925, 0.51775, 0.49925, 0.59],
"binMin":
[0.08, 0.1, 0.12, 0.14, 0.16, 0.18, 0.2, 0.22],
"binMax":
[0.1, 0.12, 0.14, 0.16, 0.18, 0.2, 0.22, 0.24]
},
"imageblobslnk":NULL,"scoreslnk":2,"accesslnk":1,
"parnames":["theta [deg] of secondary particle"],"parvalues":["173.5"]
},
{
"trid":1,"testlnk":0,"referencelnk":17,"mcdetaillnk":1,
"beamlnk":57,"targetlnk":29,"observablelnk":9,"secondarylnk":2212,"reactionlnk":1,
"datatable":{
"dtid":1,"datatypeslnk":1,
"title":"Production of proton in proton-Cu interactions at 7.5GeV/c, theta=177.0 [deg]",
"npoints":0,
"nbins":[8],
"axisTitle":["kinetic energy of proton [GeV]","E(d3sigma/dp3) [mb/GeV**2]"],
"val":
[612, 380.6, 251.4, 141.8, 67.47, 31.43, 18.83, 7.073],
"errStatPlus":
[21.685, 17.085, 12.525, 9.445, 6.65, 4.887, 3.8875, 3.2415],
"errStatMinus":
[21.685, 17.085, 12.525, 9.445, 6.65, 4.887, 3.8875, 3.2415],
"errSysPlus":
[18.36, 11.418, 7.542, 3.545, 1.68675, 0.78575, 0.47075, 0.176825],
"errSysMinus":
[18.36, 11.418, 7.542, 3.545, 1.68675, 0.78575, 0.47075, 0.176825],
"binMin":
[0.08, 0.1, 0.12, 0.14, 0.16, 0.18, 0.2, 0.22],
"binMax":
[0.1, 0.12, 0.14, 0.16, 0.18, 0.2, 0.22, 0.24]
},
"imageblobslnk":NULL,"scoreslnk":2,"accesslnk":1,
"parnames":["theta [deg] of secondary particle"],"parvalues":["177.0"]
},
{
"trid":1,"testlnk":0,"referencelnk":17,"mcdetaillnk":1,
"beamlnk":51,"targetlnk":29,"observablelnk":9,"secondarylnk":2112,"reactionlnk":1,
"datatable":{
"dtid":1,"datatypeslnk":1,
"title":"Production of neutron in proton-Cu interactions at 1.4GeV/c, theta=119.0 [deg]",
"npoints":0,
"nbins":[14],
"axisTitle":["kinetic energy of neutron [GeV]","E(d3sigma/dp3) [mb/GeV**2]"],
"val":
[20640, 11340, 5233, 10490, 6191, 4047, 3082, 1612, 1484, 658.1, 286.5, 238.7, 103.8, 55.04],
"errStatPlus":
[1480.5, 1259, 1086, 991, 525.5, 423.75, 213.8, 155.6, 129, 44.935, 30.21, 27.92, 19.63, 17.235],
"errStatMinus":
[1480.5, 1259, 1086, 991, 525.5, 423.75, 213.8, 155.6, 129, 44.935, 30.21, 27.92, 19.63, 17.235],
"errSysPlus":
[516, 283.5, 130.825, 262.25, 154.775, 101.175, 77.05, 40.3, 37.1, 16.4525, 7.1625, 5.9675, 2.595, 1.376],
"errSysMinus":
[516, 283.5, 130.825, 262.25, 154.775, 101.175, 77.05, 40.3, 37.1, 16.4525, 7.1625, 5.9675, 2.595, 1.376],
"binMin":
[0.012, 0.014, 0.016, 0.018, 0.02, 0.024, 0.03, 0.04, 0.05, 0.06, 0.08, 0.1, 0.12, 0.14, 0.16, 0.18],
"binMax":
[0.014, 0.016, 0.018, 0.02, 0.024, 0.03, 0.04, 0.05, 0.06, 0.08, 0.1, 0.12, 0.14, 0.16, 0.18, 0.2]
},
"imageblobslnk":NULL,"scoreslnk":2,"accesslnk":1,
"parnames":["theta [deg] of secondary particle"],"parvalues":["119.0"]
},
{
"trid":1,"testlnk":0,"referencelnk":17,"mcdetaillnk":1,
"beamlnk":52,"targetlnk":29,"observablelnk":9,"secondarylnk":2112,"reactionlnk":1,
"datatable":{
"dtid":1,"datatypeslnk":1,
"title":"Production of neutron in proton-Cu interactions at 2GeV/c, theta=119.0 [deg]",
"npoints":0,
"nbins":[16],
"axisTitle":["kinetic energy of neutron [GeV]","E(d3sigma/dp3) [mb/GeV**2]"],
"val":
[21470, 11610, 9704, 12920, 7262, 6061, 3667, 2660, 1668, 956.7, 478.5, 216.8, 213.4, 102.5, 59.05, 56.12],
"errStatPlus":
[1537.5, 1297, 1151, 1034, 552.5, 456.2, 234.05, 172, 135.95, 52.2, 33.27, 26.92, 22.065, 18.605, 16.76, 15.585],
"errStatMinus":
[1537.5, 1297, 1151, 1034, 552.5, 456.2, 234.05, 172, 135.95, 52.2, 33.27, 26.92, 22.065, 18.605, 16.76, 15.585],
"errSysPlus":
[536.75, 290.25, 242.6, 323, 181.55, 151.525, 91.675, 66.5, 41.7, 23.9175, 11.9625, 5.42, 5.335, 2.5625, 1.47625, 1.403],
"errSysMinus":
[536.75, 290.25, 242.6, 323, 181.55, 151.525, 91.675, 66.5, 41.7, 23.9175, 11.9625, 5.42, 5.335, 2.5625, 1.47625, 1.403],
"binMin":
[0.012, 0.014, 0.016, 0.018, 0.02, 0.024, 0.03, 0.04, 0.05, 0.06, 0.08, 0.1, 0.12, 0.14, 0.16, 0.18],
"binMax":
[0.014, 0.016, 0.018, 0.02, 0.024, 0.03, 0.04, 0.05, 0.06, 0.08, 0.1, 0.12, 0.14, 0.16, 0.18, 0.2]
},
"imageblobslnk":NULL,"scoreslnk":2,"accesslnk":1,
"parnames":["theta [deg] of secondary particle"],"parvalues":["119.0"]
},
{
"trid":1,"testlnk":0,"referencelnk":17,"mcdetaillnk":1,
"beamlnk":38,"targetlnk":29,"observablelnk":9,"secondarylnk":2112,"reactionlnk":1,
"datatable":{
"dtid":1,"datatypeslnk":1,
"title":"Production of neutron in proton-Cu interactions at 5GeV/c, theta=119.0 [deg]",
"npoints":0,
"nbins":[16],
"axisTitle":["kinetic energy of neutron [GeV]","E(d3sigma/dp3) [mb/GeV**2]"],
"val":
[25690, 18580, 14430, 12700, 9429, 8086, 5868, 3705, 2554, 1828, 907.3, 540.6, 315.7, 193.2, 106.6, 82.93],
"errStatPlus":
[563, 468.65, 406.55, 371.35, 201.25, 163.7, 84.85, 61.5, 49.78, 21.7, 14.885, 11.94, 9.66, 8.685, 7.255, 6.115],
"errStatMinus":
[563, 468.65, 406.55, 371.35, 201.25, 163.7, 84.85, 61.5, 49.78, 21.7, 14.885, 11.94, 9.66, 8.685, 7.255, 6.115],
"errSysPlus":
[642.25, 464.5, 360.75, 317.5, 235.725, 202.15, 146.7, 92.625, 63.85, 45.7, 22.6825, 13.515, 7.8925, 4.83, 2.665, 2.07325],
"errSysMinus":
[642.25, 464.5, 360.75, 317.5, 235.725, 202.15, 146.7, 92.625, 63.85, 45.7, 22.6825, 13.515, 7.8925, 4.83, 2.665, 2.07325],
"binMin":
[0.012, 0.014, 0.016, 0.018, 0.02, 0.024, 0.03, 0.04, 0.05, 0.06, 0.08, 0.1, 0.12, 0.14, 0.16, 0.18],
"binMax":
[0.014, 0.016, 0.018, 0.02, 0.024, 0.03, 0.04, 0.05, 0.06, 0.08, 0.1, 0.12, 0.14, 0.16, 0.18, 0.2]
},
"imageblobslnk":NULL,"scoreslnk":2,"accesslnk":1,
"parnames":["theta [deg] of secondary particle"],"parvalues":["119.0"]
},
{
"trid":1,"testlnk":0,"referencelnk":17,"mcdetaillnk":1,
"beamlnk":53,"targetlnk":29,"observablelnk":9,"secondarylnk":2112,"reactionlnk":1,
"datatable":{
"dtid":1,"datatypeslnk":1,
"title":"Production of neutron in proton-Cu interactions at 6GeV/c, theta=119.0 [deg]",
"npoints":0,
"nbins":[16],
"axisTitle":["kinetic energy of neutron [GeV]","E(d3sigma/dp3) [mb/GeV**2]"],
"val":
[34740, 24000, 17720, 14950, 12990, 9333, 6650, 4245, 3126, 2026, 944, 563.4, 423.6, 281.3, 111.1, 77.8],
"errStatPlus":
[773.5, 632, 537.5, 507.5, 277.9, 231.25, 127.75, 94.7, 79.45, 48.085, 32.15, 25.775, 22.08, 19.58, 15.365, 11.195],
"errStatMinus":
[773.5, 632, 537.5, 507.5, 277.9, 231.25, 127.75, 94.7, 79.45, 48.085, 32.15, 25.775, 22.08, 19.58, 15.365, 11.195],
"errSysPlus":
[868.5, 600, 443, 373.75, 324.75, 233.325, 166.25, 106.125, 78.15, 50.65, 23.6, 14.085, 10.59, 7.0325, 2.7775, 1.945],
"errSysMinus":
[868.5, 600, 443, 373.75, 324.75, 233.325, 166.25, 106.125, 78.15, 50.65, 23.6, 14.085, 10.59, 7.0325, 2.7775, 1.945],
"binMin":
[0.012, 0.014, 0.016, 0.018, 0.02, 0.024, 0.03, 0.04, 0.05, 0.06, 0.08, 0.1, 0.12, 0.14, 0.16, 0.18],
"binMax":
[0.014, 0.016, 0.018, 0.02, 0.024, 0.03, 0.04, 0.05, 0.06, 0.08, 0.1, 0.12, 0.14, 0.16, 0.18, 0.2]
},
"imageblobslnk":NULL,"scoreslnk":2,"accesslnk":1,
"parnames":["theta [deg] of secondary particle"],"parvalues":["119.0"]
},
{
"trid":1,"testlnk":0,"referencelnk":17,"mcdetaillnk":1,
"beamlnk":57,"targetlnk":29,"observablelnk":9,"secondarylnk":2112,"reactionlnk":1,
"datatable":{
"dtid":1,"datatypeslnk":1,
"title":"Production of neutron in proton-Cu interactions at 7.5GeV/c, theta=59.1 [deg]",
"npoints":0,
"nbins":[16],
"axisTitle":["kinetic energy of neutron [GeV]","E(d3sigma/dp3) [mb/GeV**2]"],
"val":
[34580, 26950, 19450, 19560, 16160, 12290, 9573, 6076, 4901, 3755, 2604, 1616, 1678, 1268, 1184, 710],
"errStatPlus":
[1479.5, 1263, 1087, 1069.5, 591.5, 485.65, 286.4, 209.35, 182.55, 125.5, 95.45, 75.45, 75.95, 68.7, 65.25, 48.71],
"errStatMinus":
[1479.5, 1263, 1087, 1069.5, 591.5, 485.65, 286.4, 209.35, 182.55, 125.5, 95.45, 75.45, 75.95, 68.7, 65.25, 48.71],
"errSysPlus":
[864.5, 673.75, 486.25, 489, 404, 307.25, 239.325, 151.9, 122.525, 93.875, 65.1, 40.4, 41.95, 31.7, 29.6, 17.75],
"errSysMinus":
[864.5, 673.75, 486.25, 489, 404, 307.25, 239.325, 151.9, 122.525, 93.875, 65.1, 40.4, 41.95, 31.7, 29.6, 17.75],
"binMin":
[0.012, 0.014, 0.016, 0.018, 0.02, 0.024, 0.03, 0.04, 0.05, 0.06, 0.08, 0.1, 0.12, 0.14, 0.16, 0.18],
"binMax":
[0.014, 0.016, 0.018, 0.02, 0.024, 0.03, 0.04, 0.05, 0.06, 0.08, 0.1, 0.12, 0.14, 0.16, 0.18, 0.2]
},
"imageblobslnk":NULL,"scoreslnk":2,"accesslnk":1,
"parnames":["theta [deg] of secondary particle"],"parvalues":["59.1"]
},
{
"trid":1,"testlnk":0,"referencelnk":17,"mcdetaillnk":1,
"beamlnk":57,"targetlnk":29,"observablelnk":9,"secondarylnk":2112,"reactionlnk":1,
"datatable":{
"dtid":1,"datatypeslnk":1,
"title":"Production of neutron in proton-Cu interactions at 7.5GeV/c, theta=89.0 [deg]",
"npoints":0,
"nbins":[16],
"axisTitle":["kinetic energy of neutron [GeV]","E(d3sigma/dp3) [mb/GeV**2]"],
"val":
[32630, 25510, 21430, 17490, 14540, 11240, 8487, 5716, 4061, 2886, 1721, 1210, 865.5, 546.4, 396.9, 295.2],
"errStatPlus":
[756.5, 660, 583, 527, 299.7, 248.55, 138.35, 107.9, 90.7, 58.9, 42.935, 35.825, 30.58, 25.365, 21.815, 17.92],
"errStatMinus":
[756.5, 660, 583, 527, 299.7, 248.55, 138.35, 107.9, 90.7, 58.9, 42.935, 35.825, 30.58, 25.365, 21.815, 17.92],
"errSysPlus":
[815.75, 637.75, 535.75, 437.25, 363.5, 281, 212.175, 142.9, 101.525, 72.15, 43.025, 30.25, 21.6375, 13.66, 9.9225, 7.38],
"errSysMinus":
[815.75, 637.75, 535.75, 437.25, 363.5, 281, 212.175, 142.9, 101.525, 72.15, 43.025, 30.25, 21.6375, 13.66, 9.9225, 7.38],
"binMin":
[0.012, 0.014, 0.016, 0.018, 0.02, 0.024, 0.03, 0.04, 0.05, 0.06, 0.08, 0.1, 0.12, 0.14, 0.16, 0.18],
"binMax":
[0.014, 0.016, 0.018, 0.02, 0.024, 0.03, 0.04, 0.05, 0.06, 0.08, 0.1, 0.12, 0.14, 0.16, 0.18, 0.2]
},
"imageblobslnk":NULL,"scoreslnk":2,"accesslnk":1,
"parnames":["theta [deg] of secondary particle"],"parvalues":["89.0"]
},
{
"trid":1,"testlnk":0,"referencelnk":17,"mcdetaillnk":1,
"beamlnk":57,"targetlnk":29,"observablelnk":9,"secondarylnk":2112,"reactionlnk":1,
"datatable":{
"dtid":1,"datatypeslnk":1,
"title":"Production of neutron in proton-Cu interactions at 7.5GeV/c, theta=119.0 [deg]",
"npoints":0,
"nbins":[16],
"axisTitle":["kinetic energy of neutron [GeV]","E(d3sigma/dp3) [mb/GeV**2]"],
"val":
[29650, 21580, 16200, 15280, 11910, 10180, 6866, 4455, 3390, 1881, 1017, 642.3, 359.2, 280.3, 186.8, 93.22],
"errStatPlus":
[962, 835.5, 706.5, 675.5, 361.75, 318, 164.05, 128, 106.2, 62.1, 44.42, 36.39, 28.255, 24.31, 19.745, 14.15],
"errStatMinus":
[962, 835.5, 706.5, 675.5, 361.75, 318, 164.05, 128, 106.2, 62.1, 44.42, 36.39, 28.255, 24.31, 19.745, 14.15],
"errSysPlus":
[741.25, 539.5, 405, 382, 297.75, 254.5, 171.65, 111.375, 84.75, 47.025, 25.425, 16.0575, 8.98, 7.0075, 4.67, 2.3305],
"errSysMinus":
[741.25, 539.5, 405, 382, 297.75, 254.5, 171.65, 111.375, 84.75, 47.025, 25.425, 16.0575, 8.98, 7.0075, 4.67, 2.3305],
"binMin":
[0.012, 0.014, 0.016, 0.018, 0.02, 0.024, 0.03, 0.04, 0.05, 0.06, 0.08, 0.1, 0.12, 0.14, 0.16, 0.18],
"binMax":
[0.014, 0.016, 0.018, 0.02, 0.024, 0.03, 0.04, 0.05, 0.06, 0.08, 0.1, 0.12, 0.14, 0.16, 0.18, 0.2]
},
"imageblobslnk":NULL,"scoreslnk":2,"accesslnk":1,
"parnames":["theta [deg] of secondary particle"],"parvalues":["119.0"]
},
{
"trid":1,"testlnk":0,"referencelnk":17,"mcdetaillnk":1,
"beamlnk":57,"targetlnk":29,"observablelnk":9,"secondarylnk":2112,"reactionlnk":1,
"datatable":{
"dtid":1,"datatypeslnk":1,
"title":"Production of neutron in proton-Cu interactions at 7.5GeV/c, theta=159.6 [deg]",
"npoints":0,
"nbins":[15],
"axisTitle":["kinetic energy of neutron [GeV]","E(d3sigma/dp3) [mb/GeV**2]"],
"val":
[21240, 24570, 15470, 13160, 11530, 9708, 4930, 3500, 2139, 1398, 676.6, 423.2, 207.3, 124, 185.3],
"errStatPlus":
[1519, 1490, 1185, 1122.5, 630, 547.5, 262.15, 211.25, 157.55, 97.15, 62.65, 50.55, 38.45, 31.815, 35.345],
"errStatMinus":
[1519, 1490, 1185, 1122.5, 630, 547.5, 262.15, 211.25, 157.55, 97.15, 62.65, 50.55, 38.45, 31.815, 35.345],
"errSysPlus":
[531, 614.25, 386.75, 329, 288.25, 242.7, 123.25, 87.5, 53.475, 34.95, 16.915, 10.58, 5.1825, 3.1, 4.6325],
"errSysMinus":
[531, 614.25, 386.75, 329, 288.25, 242.7, 123.25, 87.5, 53.475, 34.95, 16.915, 10.58, 5.1825, 3.1, 4.6325],
"binMin":
[0.012, 0.014, 0.016, 0.018, 0.02, 0.024, 0.03, 0.04, 0.05, 0.06, 0.08, 0.1, 0.12, 0.14, 0.16, 0.18],
"binMax":
[0.014, 0.016, 0.018, 0.02, 0.024, 0.03, 0.04, 0.05, 0.06, 0.08, 0.1, 0.12, 0.14, 0.16, 0.18, 0.2]
},
"imageblobslnk":NULL,"scoreslnk":2,"accesslnk":1,
"parnames":["theta [deg] of secondary particle"],"parvalues":["159.6"]
}
]}
