{"ResultList":[
{
"trid":1,"testlnk":0,"referencelnk":17,"mcdetaillnk":1,
"beamlnk":57,"targetlnk":50,"observablelnk":9,"secondarylnk":2212,"reactionlnk":1,
"datatable":{
"dtid":1,"datatypeslnk":1,
"title":"Production of proton in proton-Sn interactions at 7.5GeV/c, theta=59.1 [deg]",
"npoints":0,
"nbins":[9],
"axisTitle":["kinetic energy of proton [GeV]","E(d3sigma/dp3) [mb/GeV**2]"],
"val":
[6289, 4834, 3661, 2950, 2378, 1719, 1255, 1012, 910.8],
"errStatPlus":
[173, 60.55, 51.55, 46.92, 42.61, 36.36, 27.075, 22.815, 32.57],
"errStatMinus":
[173, 60.55, 51.55, 46.92, 42.61, 36.36, 27.075, 22.815, 32.57],
"errSysPlus":
[188.67, 145.02, 109.83, 88.5, 59.45, 42.975, 31.375, 25.3, 22.77],
"errSysMinus":
[188.67, 145.02, 109.83, 88.5, 59.45, 42.975, 31.375, 25.3, 22.77],
"binMin":
[0.06, 0.08, 0.1, 0.12, 0.14, 0.16, 0.18, 0.2, 0.22],
"binMax":
[0.08, 0.1, 0.12, 0.14, 0.16, 0.18, 0.2, 0.22, 0.24]
},
"imageblobslnk":NULL,"scoreslnk":2,"accesslnk":1,
"parnames":["theta [deg] of secondary particle"],"parvalues":["59.1"]
},
{
"trid":1,"testlnk":0,"referencelnk":17,"mcdetaillnk":1,
"beamlnk":57,"targetlnk":50,"observablelnk":9,"secondarylnk":2212,"reactionlnk":1,
"datatable":{
"dtid":1,"datatypeslnk":1,
"title":"Production of proton in proton-Sn interactions at 7.5GeV/c, theta=89.0 [deg]",
"npoints":0,
"nbins":[9],
"axisTitle":["kinetic energy of proton [GeV]","E(d3sigma/dp3) [mb/GeV**2]"],
"val":
[5130, 3463, 2452, 1801, 1346, 835.9, 660.9, 453.4, 324.1],
"errStatPlus":
[135.55, 34.7, 28.77, 31.045, 40.24, 21.25, 21.22, 20.835, 18.59],
"errStatMinus":
[135.55, 34.7, 28.77, 31.045, 40.24, 21.25, 21.22, 20.835, 18.59],
"errSysPlus":
[153.9, 103.89, 73.56, 54.03, 33.65, 20.8975, 16.5225, 11.335, 8.1025],
"errSysMinus":
[153.9, 103.89, 73.56, 54.03, 33.65, 20.8975, 16.5225, 11.335, 8.1025],
"binMin":
[0.06, 0.08, 0.1, 0.12, 0.14, 0.16, 0.18, 0.2, 0.22],
"binMax":
[0.08, 0.1, 0.12, 0.14, 0.16, 0.18, 0.2, 0.22, 0.24]
},
"imageblobslnk":NULL,"scoreslnk":2,"accesslnk":1,
"parnames":["theta [deg] of secondary particle"],"parvalues":["89.0"]
},
{
"trid":1,"testlnk":0,"referencelnk":17,"mcdetaillnk":1,
"beamlnk":57,"targetlnk":50,"observablelnk":9,"secondarylnk":2212,"reactionlnk":1,
"datatable":{
"dtid":1,"datatypeslnk":1,
"title":"Production of proton in proton-Sn interactions at 7.5GeV/c, theta=119.0 [deg]",
"npoints":0,
"nbins":[8],
"axisTitle":["kinetic energy of proton [GeV]","E(d3sigma/dp3) [mb/GeV**2]"],
"val":
[2365, 1404, 851.4, 579.1, 350.7, 220.5, 151, 109.1],
"errStatPlus":
[45.935, 20.915, 18.25, 31.53, 11.305, 9.045, 12.55, 11.735],
"errStatMinus":
[45.935, 20.915, 18.25, 31.53, 11.305, 9.045, 12.55, 11.735],
"errSysPlus":
[70.95, 42.12, 25.542, 14.4775, 8.7675, 5.5125, 3.775, 2.7275],
"errSysMinus":
[70.95, 42.12, 25.542, 14.4775, 8.7675, 5.5125, 3.775, 2.7275],
"binMin":
[0.08, 0.1, 0.12, 0.14, 0.16, 0.18, 0.2, 0.22],
"binMax":
[0.1, 0.12, 0.14, 0.16, 0.18, 0.2, 0.22, 0.24]
},
"imageblobslnk":NULL,"scoreslnk":2,"accesslnk":1,
"parnames":["theta [deg] of secondary particle"],"parvalues":["119.0"]
},
{
"trid":1,"testlnk":0,"referencelnk":17,"mcdetaillnk":1,
"beamlnk":57,"targetlnk":50,"observablelnk":9,"secondarylnk":2212,"reactionlnk":1,
"datatable":{
"dtid":1,"datatypeslnk":1,
"title":"Production of proton in proton-Sn interactions at 7.5GeV/c, theta=159.6 [deg]",
"npoints":0,
"nbins":[9],
"axisTitle":["kinetic energy of proton [GeV]","E(d3sigma/dp3) [mb/GeV**2]"],
"val":
[2493, 1424, 846.2, 434.5, 270.6, 179.5, 83.92, 46.06, 26.55],
"errStatPlus":
[83.1, 39.36, 29.135, 20.16, 15.54, 13.125, 9.015, 6.26, 4.6495],
"errStatMinus":
[83.1, 39.36, 29.135, 20.16, 15.54, 13.125, 9.015, 6.26, 4.6495],
"errSysPlus":
[74.79, 42.72, 25.386, 13.035, 6.765, 4.4875, 2.098, 1.1515, 0.66375],
"errSysMinus":
[74.79, 42.72, 25.386, 13.035, 6.765, 4.4875, 2.098, 1.1515, 0.66375],
"binMin":
[0.06, 0.08, 0.1, 0.12, 0.14, 0.16, 0.18, 0.2, 0.22],
"binMax":
[0.08, 0.1, 0.12, 0.14, 0.16, 0.18, 0.2, 0.22, 0.24]
},
"imageblobslnk":NULL,"scoreslnk":2,"accesslnk":1,
"parnames":["theta [deg] of secondary particle"],"parvalues":["159.6"]
}
]}
